<?xml version='1.0' encoding='UTF-8' ?>
<svg xmlns='http://www.w3.org/2000/svg' xmlns:xlink='http://www.w3.org/1999/xlink' class='svglite' width='544.32pt' height='259.20pt' viewBox='0 0 544.32 259.20'>
<defs>
  <style type='text/css'><![CDATA[
    .svglite line, .svglite polyline, .svglite polygon, .svglite path, .svglite rect, .svglite circle {
      fill: none;
      stroke: #000000;
      stroke-linecap: round;
      stroke-linejoin: round;
      stroke-miterlimit: 10.00;
    }
  ]]></style>
</defs>
<rect width='100%' height='100%' style='stroke: none; fill: #FFFFFF;'/>
<defs>
  <clipPath id='cpMC4wMHw1NDQuMzJ8MC4wMHwyNTkuMjA='>
    <rect x='0.00' y='0.00' width='544.32' height='259.20' />
  </clipPath>
</defs>
<g clip-path='url(#cpMC4wMHw1NDQuMzJ8MC4wMHwyNTkuMjA=)'>
<rect x='-0.000000000000064' y='0.00' width='544.32' height='259.20' style='stroke-width: 1.07; stroke: #FFFFFF; fill: #FFFFFF;' />
</g>
<defs>
  <clipPath id='cpMzcuODN8NDc2LjIwfDIzLjMyfDE5OS4zMA=='>
    <rect x='37.83' y='23.32' width='438.37' height='175.98' />
  </clipPath>
</defs>
<g clip-path='url(#cpMzcuODN8NDc2LjIwfDIzLjMyfDE5OS4zMA==)'>
<rect x='37.83' y='23.32' width='438.37' height='175.98' style='stroke-width: 1.07; stroke: none; fill: #FFFFFF;' />
<line x1='37.83' y1='111.31' x2='476.20' y2='111.31' style='stroke-width: 1.07; stroke: #333333; stroke-dasharray: 5.69,5.69; stroke-linecap: butt;' />
<rect x='157.65' y='111.31' width='11.69' height='6.89' style='stroke-width: 1.07; stroke: none; stroke-linecap: square; stroke-linejoin: miter; fill: #EBC5FF;' />
<rect x='333.00' y='111.31' width='11.69' height='4.57' style='stroke-width: 1.07; stroke: none; stroke-linecap: square; stroke-linejoin: miter; fill: #EBC5FF;' />
<rect x='362.22' y='110.81' width='11.69' height='0.51' style='stroke-width: 1.07; stroke: none; stroke-linecap: square; stroke-linejoin: miter; fill: #EBC5FF;' />
<rect x='216.10' y='111.31' width='11.69' height='4.79' style='stroke-width: 1.07; stroke: none; stroke-linecap: square; stroke-linejoin: miter; fill: #EBC5FF;' />
<rect x='420.67' y='111.31' width='11.69' height='5.64' style='stroke-width: 1.07; stroke: none; stroke-linecap: square; stroke-linejoin: miter; fill: #EBC5FF;' />
<rect x='69.97' y='111.31' width='11.69' height='1.84' style='stroke-width: 1.07; stroke: none; stroke-linecap: square; stroke-linejoin: miter; fill: #EBC5FF;' />
<rect x='40.75' y='111.31' width='11.69' height='2.52' style='stroke-width: 1.07; stroke: none; stroke-linecap: square; stroke-linejoin: miter; fill: #EBC5FF;' />
<rect x='391.45' y='111.31' width='11.69' height='8.08' style='stroke-width: 1.07; stroke: none; stroke-linecap: square; stroke-linejoin: miter; fill: #EBC5FF;' />
<rect x='128.42' y='111.31' width='11.69' height='5.52' style='stroke-width: 1.07; stroke: none; stroke-linecap: square; stroke-linejoin: miter; fill: #EBC5FF;' />
<rect x='186.87' y='111.31' width='11.69' height='10.02' style='stroke-width: 1.07; stroke: none; stroke-linecap: square; stroke-linejoin: miter; fill: #EBC5FF;' />
<rect x='245.32' y='111.31' width='11.69' height='16.64' style='stroke-width: 1.07; stroke: none; stroke-linecap: square; stroke-linejoin: miter; fill: #EBC5FF;' />
<rect x='303.77' y='111.31' width='11.69' height='0.60' style='stroke-width: 1.07; stroke: none; stroke-linecap: square; stroke-linejoin: miter; fill: #EBC5FF;' />
<rect x='274.55' y='111.31' width='11.69' height='4.64' style='stroke-width: 1.07; stroke: none; stroke-linecap: square; stroke-linejoin: miter; fill: #EBC5FF;' />
<rect x='449.90' y='111.31' width='11.69' height='6.02' style='stroke-width: 1.07; stroke: none; stroke-linecap: square; stroke-linejoin: miter; fill: #EBC5FF;' />
<rect x='99.20' y='111.31' width='11.69' height='6.18' style='stroke-width: 1.07; stroke: none; stroke-linecap: square; stroke-linejoin: miter; fill: #EBC5FF;' />
<rect x='169.34' y='108.74' width='11.69' height='2.58' style='stroke-width: 1.07; stroke: none; stroke-linecap: square; stroke-linejoin: miter; fill: #9001B4;' />
<rect x='344.69' y='110.74' width='11.69' height='0.57' style='stroke-width: 1.07; stroke: none; stroke-linecap: square; stroke-linejoin: miter; fill: #9001B4;' />
<rect x='373.91' y='107.36' width='11.69' height='3.95' style='stroke-width: 1.07; stroke: none; stroke-linecap: square; stroke-linejoin: miter; fill: #9001B4;' />
<rect x='227.79' y='105.20' width='11.69' height='6.12' style='stroke-width: 1.07; stroke: none; stroke-linecap: square; stroke-linejoin: miter; fill: #9001B4;' />
<rect x='432.36' y='111.03' width='11.69' height='0.28' style='stroke-width: 1.07; stroke: none; stroke-linecap: square; stroke-linejoin: miter; fill: #9001B4;' />
<rect x='81.66' y='92.46' width='11.69' height='18.86' style='stroke-width: 1.07; stroke: none; stroke-linecap: square; stroke-linejoin: miter; fill: #9001B4;' />
<rect x='52.44' y='106.52' width='11.69' height='4.79' style='stroke-width: 1.07; stroke: none; stroke-linecap: square; stroke-linejoin: miter; fill: #9001B4;' />
<rect x='403.14' y='105.14' width='11.69' height='6.18' style='stroke-width: 1.07; stroke: none; stroke-linecap: square; stroke-linejoin: miter; fill: #9001B4;' />
<rect x='140.11' y='105.61' width='11.69' height='5.70' style='stroke-width: 1.07; stroke: none; stroke-linecap: square; stroke-linejoin: miter; fill: #9001B4;' />
<rect x='198.56' y='43.65' width='11.69' height='67.66' style='stroke-width: 1.07; stroke: none; stroke-linecap: square; stroke-linejoin: miter; fill: #9001B4;' />
<rect x='257.01' y='110.64' width='11.69' height='0.67' style='stroke-width: 1.07; stroke: none; stroke-linecap: square; stroke-linejoin: miter; fill: #9001B4;' />
<rect x='315.46' y='92.49' width='11.69' height='18.83' style='stroke-width: 1.07; stroke: none; stroke-linecap: square; stroke-linejoin: miter; fill: #9001B4;' />
<rect x='286.24' y='106.34' width='11.69' height='4.97' style='stroke-width: 1.07; stroke: none; stroke-linecap: square; stroke-linejoin: miter; fill: #9001B4;' />
<rect x='461.59' y='107.80' width='11.69' height='3.51' style='stroke-width: 1.07; stroke: none; stroke-linecap: square; stroke-linejoin: miter; fill: #9001B4;' />
<rect x='110.89' y='104.17' width='11.69' height='7.14' style='stroke-width: 1.07; stroke: none; stroke-linecap: square; stroke-linejoin: miter; fill: #9001B4;' />
<polyline points='160.57,115.58 166.41,115.58 ' style='stroke-width: 1.07; stroke-linecap: butt;' />
<polyline points='163.49,115.58 163.49,120.83 ' style='stroke-width: 1.07; stroke-linecap: butt;' />
<polyline points='160.57,120.83 166.41,120.83 ' style='stroke-width: 1.07; stroke-linecap: butt;' />
<polyline points='335.92,112.90 341.76,112.90 ' style='stroke-width: 1.07; stroke-linecap: butt;' />
<polyline points='338.84,112.90 338.84,118.86 ' style='stroke-width: 1.07; stroke-linecap: butt;' />
<polyline points='335.92,118.86 341.76,118.86 ' style='stroke-width: 1.07; stroke-linecap: butt;' />
<polyline points='365.14,107.97 370.99,107.97 ' style='stroke-width: 1.07; stroke-linecap: butt;' />
<polyline points='368.07,107.97 368.07,113.64 ' style='stroke-width: 1.07; stroke-linecap: butt;' />
<polyline points='365.14,113.64 370.99,113.64 ' style='stroke-width: 1.07; stroke-linecap: butt;' />
<polyline points='219.02,113.78 224.86,113.78 ' style='stroke-width: 1.07; stroke-linecap: butt;' />
<polyline points='221.94,113.78 221.94,118.44 ' style='stroke-width: 1.07; stroke-linecap: butt;' />
<polyline points='219.02,118.44 224.86,118.44 ' style='stroke-width: 1.07; stroke-linecap: butt;' />
<polyline points='423.59,114.39 429.44,114.39 ' style='stroke-width: 1.07; stroke-linecap: butt;' />
<polyline points='426.52,114.39 426.52,119.51 ' style='stroke-width: 1.07; stroke-linecap: butt;' />
<polyline points='423.59,119.51 429.44,119.51 ' style='stroke-width: 1.07; stroke-linecap: butt;' />
<polyline points='72.90,107.09 78.74,107.09 ' style='stroke-width: 1.07; stroke-linecap: butt;' />
<polyline points='75.82,107.09 75.82,119.21 ' style='stroke-width: 1.07; stroke-linecap: butt;' />
<polyline points='72.90,119.21 78.74,119.21 ' style='stroke-width: 1.07; stroke-linecap: butt;' />
<polyline points='43.67,111.32 49.52,111.32 ' style='stroke-width: 1.07; stroke-linecap: butt;' />
<polyline points='46.59,111.32 46.59,116.33 ' style='stroke-width: 1.07; stroke-linecap: butt;' />
<polyline points='43.67,116.33 49.52,116.33 ' style='stroke-width: 1.07; stroke-linecap: butt;' />
<polyline points='394.37,116.41 400.21,116.41 ' style='stroke-width: 1.07; stroke-linecap: butt;' />
<polyline points='397.29,116.41 397.29,122.39 ' style='stroke-width: 1.07; stroke-linecap: butt;' />
<polyline points='394.37,122.39 400.21,122.39 ' style='stroke-width: 1.07; stroke-linecap: butt;' />
<polyline points='131.34,114.08 137.19,114.08 ' style='stroke-width: 1.07; stroke-linecap: butt;' />
<polyline points='134.27,114.08 134.27,119.59 ' style='stroke-width: 1.07; stroke-linecap: butt;' />
<polyline points='131.34,119.59 137.19,119.59 ' style='stroke-width: 1.07; stroke-linecap: butt;' />
<polyline points='189.79,113.29 195.64,113.29 ' style='stroke-width: 1.07; stroke-linecap: butt;' />
<polyline points='192.72,113.29 192.72,129.39 ' style='stroke-width: 1.07; stroke-linecap: butt;' />
<polyline points='189.79,129.39 195.64,129.39 ' style='stroke-width: 1.07; stroke-linecap: butt;' />
<polyline points='248.24,120.64 254.09,120.64 ' style='stroke-width: 1.07; stroke-linecap: butt;' />
<polyline points='251.17,120.64 251.17,135.27 ' style='stroke-width: 1.07; stroke-linecap: butt;' />
<polyline points='248.24,135.27 254.09,135.27 ' style='stroke-width: 1.07; stroke-linecap: butt;' />
<polyline points='306.69,97.27 312.54,97.27 ' style='stroke-width: 1.07; stroke-linecap: butt;' />
<polyline points='309.62,97.27 309.62,126.55 ' style='stroke-width: 1.07; stroke-linecap: butt;' />
<polyline points='306.69,126.55 312.54,126.55 ' style='stroke-width: 1.07; stroke-linecap: butt;' />
<polyline points='277.47,113.29 283.31,113.29 ' style='stroke-width: 1.07; stroke-linecap: butt;' />
<polyline points='280.39,113.29 280.39,118.61 ' style='stroke-width: 1.07; stroke-linecap: butt;' />
<polyline points='277.47,118.61 283.31,118.61 ' style='stroke-width: 1.07; stroke-linecap: butt;' />
<polyline points='452.82,114.99 458.66,114.99 ' style='stroke-width: 1.07; stroke-linecap: butt;' />
<polyline points='455.74,114.99 455.74,119.68 ' style='stroke-width: 1.07; stroke-linecap: butt;' />
<polyline points='452.82,119.68 458.66,119.68 ' style='stroke-width: 1.07; stroke-linecap: butt;' />
<polyline points='102.12,114.98 107.96,114.98 ' style='stroke-width: 1.07; stroke-linecap: butt;' />
<polyline points='105.04,114.98 105.04,120.00 ' style='stroke-width: 1.07; stroke-linecap: butt;' />
<polyline points='102.12,120.00 107.96,120.00 ' style='stroke-width: 1.07; stroke-linecap: butt;' />
<polyline points='172.26,106.12 178.10,106.12 ' style='stroke-width: 1.07; stroke-linecap: butt;' />
<polyline points='175.18,106.12 175.18,111.36 ' style='stroke-width: 1.07; stroke-linecap: butt;' />
<polyline points='172.26,111.36 178.10,111.36 ' style='stroke-width: 1.07; stroke-linecap: butt;' />
<polyline points='347.61,107.77 353.45,107.77 ' style='stroke-width: 1.07; stroke-linecap: butt;' />
<polyline points='350.53,107.77 350.53,113.72 ' style='stroke-width: 1.07; stroke-linecap: butt;' />
<polyline points='347.61,113.72 353.45,113.72 ' style='stroke-width: 1.07; stroke-linecap: butt;' />
<polyline points='376.83,104.53 382.68,104.53 ' style='stroke-width: 1.07; stroke-linecap: butt;' />
<polyline points='379.76,104.53 379.76,110.20 ' style='stroke-width: 1.07; stroke-linecap: butt;' />
<polyline points='376.83,110.20 382.68,110.20 ' style='stroke-width: 1.07; stroke-linecap: butt;' />
<polyline points='230.71,102.87 236.55,102.87 ' style='stroke-width: 1.07; stroke-linecap: butt;' />
<polyline points='233.63,102.87 233.63,107.53 ' style='stroke-width: 1.07; stroke-linecap: butt;' />
<polyline points='230.71,107.53 236.55,107.53 ' style='stroke-width: 1.07; stroke-linecap: butt;' />
<polyline points='435.28,108.47 441.13,108.47 ' style='stroke-width: 1.07; stroke-linecap: butt;' />
<polyline points='438.21,108.47 438.21,113.59 ' style='stroke-width: 1.07; stroke-linecap: butt;' />
<polyline points='435.28,113.59 441.13,113.59 ' style='stroke-width: 1.07; stroke-linecap: butt;' />
<polyline points='84.58,86.80 90.43,86.80 ' style='stroke-width: 1.07; stroke-linecap: butt;' />
<polyline points='87.51,86.80 87.51,98.11 ' style='stroke-width: 1.07; stroke-linecap: butt;' />
<polyline points='84.58,98.11 90.43,98.11 ' style='stroke-width: 1.07; stroke-linecap: butt;' />
<polyline points='55.36,104.01 61.21,104.01 ' style='stroke-width: 1.07; stroke-linecap: butt;' />
<polyline points='58.28,104.01 58.28,109.02 ' style='stroke-width: 1.07; stroke-linecap: butt;' />
<polyline points='55.36,109.02 61.21,109.02 ' style='stroke-width: 1.07; stroke-linecap: butt;' />
<polyline points='406.06,102.15 411.90,102.15 ' style='stroke-width: 1.07; stroke-linecap: butt;' />
<polyline points='408.98,102.15 408.98,108.12 ' style='stroke-width: 1.07; stroke-linecap: butt;' />
<polyline points='406.06,108.12 411.90,108.12 ' style='stroke-width: 1.07; stroke-linecap: butt;' />
<polyline points='143.03,102.86 148.88,102.86 ' style='stroke-width: 1.07; stroke-linecap: butt;' />
<polyline points='145.96,102.86 145.96,108.37 ' style='stroke-width: 1.07; stroke-linecap: butt;' />
<polyline points='143.03,108.37 148.88,108.37 ' style='stroke-width: 1.07; stroke-linecap: butt;' />
<polyline points='201.48,38.59 207.33,38.59 ' style='stroke-width: 1.07; stroke-linecap: butt;' />
<polyline points='204.41,38.59 204.41,48.71 ' style='stroke-width: 1.07; stroke-linecap: butt;' />
<polyline points='201.48,48.71 207.33,48.71 ' style='stroke-width: 1.07; stroke-linecap: butt;' />
<polyline points='259.93,103.38 265.78,103.38 ' style='stroke-width: 1.07; stroke-linecap: butt;' />
<polyline points='262.86,103.38 262.86,117.89 ' style='stroke-width: 1.07; stroke-linecap: butt;' />
<polyline points='259.93,117.89 265.78,117.89 ' style='stroke-width: 1.07; stroke-linecap: butt;' />
<polyline points='318.38,80.13 324.23,80.13 ' style='stroke-width: 1.07; stroke-linecap: butt;' />
<polyline points='321.31,80.13 321.31,104.84 ' style='stroke-width: 1.07; stroke-linecap: butt;' />
<polyline points='318.38,104.84 324.23,104.84 ' style='stroke-width: 1.07; stroke-linecap: butt;' />
<polyline points='289.16,103.68 295.00,103.68 ' style='stroke-width: 1.07; stroke-linecap: butt;' />
<polyline points='292.08,103.68 292.08,109.00 ' style='stroke-width: 1.07; stroke-linecap: butt;' />
<polyline points='289.16,109.00 295.00,109.00 ' style='stroke-width: 1.07; stroke-linecap: butt;' />
<polyline points='464.51,105.45 470.35,105.45 ' style='stroke-width: 1.07; stroke-linecap: butt;' />
<polyline points='467.43,105.45 467.43,110.15 ' style='stroke-width: 1.07; stroke-linecap: butt;' />
<polyline points='464.51,110.15 470.35,110.15 ' style='stroke-width: 1.07; stroke-linecap: butt;' />
<polyline points='113.81,101.66 119.65,101.66 ' style='stroke-width: 1.07; stroke-linecap: butt;' />
<polyline points='116.73,101.66 116.73,106.68 ' style='stroke-width: 1.07; stroke-linecap: butt;' />
<polyline points='113.81,106.68 119.65,106.68 ' style='stroke-width: 1.07; stroke-linecap: butt;' />
<text x='163.49' y='135.69' text-anchor='middle' style='font-size: 18.02px; font-family: Arial;' textLength='9.01px' lengthAdjust='spacingAndGlyphs'>*</text>
<text x='338.84' y='124.46' text-anchor='middle' style='font-size: 18.02px; font-family: Arial;' textLength='5.72px' lengthAdjust='spacingAndGlyphs'> </text>
<text x='368.07' y='102.37' text-anchor='middle' style='font-size: 18.02px; font-family: Arial;' textLength='5.72px' lengthAdjust='spacingAndGlyphs'> </text>
<text x='221.94' y='124.04' text-anchor='middle' style='font-size: 18.02px; font-family: Arial;' textLength='5.72px' lengthAdjust='spacingAndGlyphs'> </text>
<text x='426.52' y='125.11' text-anchor='middle' style='font-size: 18.02px; font-family: Arial;' textLength='5.72px' lengthAdjust='spacingAndGlyphs'> </text>
<text x='75.82' y='124.81' text-anchor='middle' style='font-size: 18.02px; font-family: Arial;' textLength='5.72px' lengthAdjust='spacingAndGlyphs'> </text>
<text x='46.59' y='121.93' text-anchor='middle' style='font-size: 18.02px; font-family: Arial;' textLength='5.72px' lengthAdjust='spacingAndGlyphs'> </text>
<text x='397.29' y='137.25' text-anchor='middle' style='font-size: 18.02px; font-family: Arial;' textLength='9.01px' lengthAdjust='spacingAndGlyphs'>*</text>
<text x='134.27' y='125.19' text-anchor='middle' style='font-size: 18.02px; font-family: Arial;' textLength='5.72px' lengthAdjust='spacingAndGlyphs'> </text>
<text x='192.72' y='134.99' text-anchor='middle' style='font-size: 18.02px; font-family: Arial;' textLength='5.72px' lengthAdjust='spacingAndGlyphs'> </text>
<text x='251.17' y='140.87' text-anchor='middle' style='font-size: 18.02px; font-family: Arial;' textLength='5.72px' lengthAdjust='spacingAndGlyphs'> </text>
<text x='309.62' y='132.15' text-anchor='middle' style='font-size: 18.02px; font-family: Arial;' textLength='5.72px' lengthAdjust='spacingAndGlyphs'> </text>
<text x='280.39' y='124.21' text-anchor='middle' style='font-size: 18.02px; font-family: Arial;' textLength='5.72px' lengthAdjust='spacingAndGlyphs'> </text>
<text x='455.74' y='134.54' text-anchor='middle' style='font-size: 18.02px; font-family: Arial;' textLength='9.01px' lengthAdjust='spacingAndGlyphs'>*</text>
<text x='105.04' y='134.86' text-anchor='middle' style='font-size: 18.02px; font-family: Arial;' textLength='9.01px' lengthAdjust='spacingAndGlyphs'>*</text>
<text x='175.18' y='100.52' text-anchor='middle' style='font-size: 18.02px; font-family: Arial;' textLength='5.72px' lengthAdjust='spacingAndGlyphs'> </text>
<text x='350.53' y='102.17' text-anchor='middle' style='font-size: 18.02px; font-family: Arial;' textLength='5.72px' lengthAdjust='spacingAndGlyphs'> </text>
<text x='379.76' y='98.93' text-anchor='middle' style='font-size: 18.02px; font-family: Arial;' textLength='5.72px' lengthAdjust='spacingAndGlyphs'> </text>
<text x='233.63' y='106.53' text-anchor='middle' style='font-size: 18.02px; font-family: Arial;' textLength='9.01px' lengthAdjust='spacingAndGlyphs'>*</text>
<text x='438.21' y='102.87' text-anchor='middle' style='font-size: 18.02px; font-family: Arial;' textLength='5.72px' lengthAdjust='spacingAndGlyphs'> </text>
<text x='87.51' y='90.46' text-anchor='middle' style='font-size: 18.02px; font-family: Arial;' textLength='9.01px' lengthAdjust='spacingAndGlyphs'>*</text>
<text x='58.28' y='98.41' text-anchor='middle' style='font-size: 18.02px; font-family: Arial;' textLength='5.72px' lengthAdjust='spacingAndGlyphs'> </text>
<text x='408.98' y='96.55' text-anchor='middle' style='font-size: 18.02px; font-family: Arial;' textLength='5.72px' lengthAdjust='spacingAndGlyphs'> </text>
<text x='145.96' y='97.26' text-anchor='middle' style='font-size: 18.02px; font-family: Arial;' textLength='5.72px' lengthAdjust='spacingAndGlyphs'> </text>
<text x='204.41' y='42.25' text-anchor='middle' style='font-size: 18.02px; font-family: Arial;' textLength='9.01px' lengthAdjust='spacingAndGlyphs'>*</text>
<text x='262.86' y='97.79' text-anchor='middle' style='font-size: 18.02px; font-family: Arial;' textLength='5.72px' lengthAdjust='spacingAndGlyphs'> </text>
<text x='321.31' y='74.53' text-anchor='middle' style='font-size: 18.02px; font-family: Arial;' textLength='5.72px' lengthAdjust='spacingAndGlyphs'> </text>
<text x='292.08' y='98.08' text-anchor='middle' style='font-size: 18.02px; font-family: Arial;' textLength='5.72px' lengthAdjust='spacingAndGlyphs'> </text>
<text x='467.43' y='99.86' text-anchor='middle' style='font-size: 18.02px; font-family: Arial;' textLength='5.72px' lengthAdjust='spacingAndGlyphs'> </text>
<text x='116.73' y='105.32' text-anchor='middle' style='font-size: 18.02px; font-family: Arial;' textLength='9.01px' lengthAdjust='spacingAndGlyphs'>*</text>
</g>
<g clip-path='url(#cpMC4wMHw1NDQuMzJ8MC4wMHwyNTkuMjA=)'>
<polyline points='37.83,199.30 37.83,23.32 ' style='stroke-width: 1.07; stroke-linecap: butt;' />
<text x='32.89' y='189.50' text-anchor='end' style='font-size: 8.80px; fill: #4D4D4D; font-family: Arial;' textLength='14.36px' lengthAdjust='spacingAndGlyphs'>-10</text>
<text x='32.89' y='152.01' text-anchor='end' style='font-size: 8.80px; fill: #4D4D4D; font-family: Arial;' textLength='8.77px' lengthAdjust='spacingAndGlyphs'>-5</text>
<text x='32.89' y='114.52' text-anchor='end' style='font-size: 8.80px; fill: #4D4D4D; font-family: Arial;' textLength='5.59px' lengthAdjust='spacingAndGlyphs'>0</text>
<text x='32.89' y='77.03' text-anchor='end' style='font-size: 8.80px; fill: #4D4D4D; font-family: Arial;' textLength='5.59px' lengthAdjust='spacingAndGlyphs'>5</text>
<text x='32.89' y='39.54' text-anchor='end' style='font-size: 8.80px; fill: #4D4D4D; font-family: Arial;' textLength='11.19px' lengthAdjust='spacingAndGlyphs'>10</text>
<polyline points='35.09,186.29 37.83,186.29 ' style='stroke-width: 1.07; stroke: #333333; stroke-linecap: butt;' />
<polyline points='35.09,148.80 37.83,148.80 ' style='stroke-width: 1.07; stroke: #333333; stroke-linecap: butt;' />
<polyline points='35.09,111.31 37.83,111.31 ' style='stroke-width: 1.07; stroke: #333333; stroke-linecap: butt;' />
<polyline points='35.09,73.82 37.83,73.82 ' style='stroke-width: 1.07; stroke: #333333; stroke-linecap: butt;' />
<polyline points='35.09,36.33 37.83,36.33 ' style='stroke-width: 1.07; stroke: #333333; stroke-linecap: butt;' />
<polyline points='37.83,199.30 476.20,199.30 ' style='stroke-width: 1.07; stroke-linecap: butt;' />
<polyline points='52.44,202.04 52.44,199.30 ' style='stroke-width: 1.07; stroke: #333333; stroke-linecap: butt;' />
<polyline points='81.66,202.04 81.66,199.30 ' style='stroke-width: 1.07; stroke: #333333; stroke-linecap: butt;' />
<polyline points='110.89,202.04 110.89,199.30 ' style='stroke-width: 1.07; stroke: #333333; stroke-linecap: butt;' />
<polyline points='140.11,202.04 140.11,199.30 ' style='stroke-width: 1.07; stroke: #333333; stroke-linecap: butt;' />
<polyline points='169.34,202.04 169.34,199.30 ' style='stroke-width: 1.07; stroke: #333333; stroke-linecap: butt;' />
<polyline points='198.56,202.04 198.56,199.30 ' style='stroke-width: 1.07; stroke: #333333; stroke-linecap: butt;' />
<polyline points='227.79,202.04 227.79,199.30 ' style='stroke-width: 1.07; stroke: #333333; stroke-linecap: butt;' />
<polyline points='257.01,202.04 257.01,199.30 ' style='stroke-width: 1.07; stroke: #333333; stroke-linecap: butt;' />
<polyline points='286.24,202.04 286.24,199.30 ' style='stroke-width: 1.07; stroke: #333333; stroke-linecap: butt;' />
<polyline points='315.46,202.04 315.46,199.30 ' style='stroke-width: 1.07; stroke: #333333; stroke-linecap: butt;' />
<polyline points='344.69,202.04 344.69,199.30 ' style='stroke-width: 1.07; stroke: #333333; stroke-linecap: butt;' />
<polyline points='373.91,202.04 373.91,199.30 ' style='stroke-width: 1.07; stroke: #333333; stroke-linecap: butt;' />
<polyline points='403.14,202.04 403.14,199.30 ' style='stroke-width: 1.07; stroke: #333333; stroke-linecap: butt;' />
<polyline points='432.36,202.04 432.36,199.30 ' style='stroke-width: 1.07; stroke: #333333; stroke-linecap: butt;' />
<polyline points='461.59,202.04 461.59,199.30 ' style='stroke-width: 1.07; stroke: #333333; stroke-linecap: butt;' />
<text transform='translate(57.35,208.36) rotate(-50)' text-anchor='end' style='font-size: 8.80px; fill: #4D4D4D; font-family: Arial;' textLength='32.31px' lengthAdjust='spacingAndGlyphs'>COX4I1</text>
<text transform='translate(86.58,208.36) rotate(-50)' text-anchor='end' style='font-size: 8.80px; fill: #4D4D4D; font-family: Arial;' textLength='32.31px' lengthAdjust='spacingAndGlyphs'>COX4I2</text>
<text transform='translate(115.80,208.36) rotate(-50)' text-anchor='end' style='font-size: 8.80px; fill: #4D4D4D; font-family: Arial;' textLength='30.15px' lengthAdjust='spacingAndGlyphs'>COX5A</text>
<text transform='translate(145.03,208.36) rotate(-50)' text-anchor='end' style='font-size: 8.80px; fill: #4D4D4D; font-family: Arial;' textLength='30.16px' lengthAdjust='spacingAndGlyphs'>COX5B</text>
<text transform='translate(174.25,208.36) rotate(-50)' text-anchor='end' style='font-size: 8.80px; fill: #4D4D4D; font-family: Arial;' textLength='35.74px' lengthAdjust='spacingAndGlyphs'>COX6A1</text>
<text transform='translate(203.48,208.36) rotate(-50)' text-anchor='end' style='font-size: 8.80px; fill: #4D4D4D; font-family: Arial;' textLength='35.74px' lengthAdjust='spacingAndGlyphs'>COX6A2</text>
<text transform='translate(232.70,208.36) rotate(-50)' text-anchor='end' style='font-size: 8.80px; fill: #4D4D4D; font-family: Arial;' textLength='35.76px' lengthAdjust='spacingAndGlyphs'>COX6B1</text>
<text transform='translate(261.93,208.36) rotate(-50)' text-anchor='end' style='font-size: 8.80px; fill: #4D4D4D; font-family: Arial;' textLength='35.76px' lengthAdjust='spacingAndGlyphs'>COX6B2</text>
<text transform='translate(291.15,208.36) rotate(-50)' text-anchor='end' style='font-size: 8.80px; fill: #4D4D4D; font-family: Arial;' textLength='30.27px' lengthAdjust='spacingAndGlyphs'>COX6C</text>
<text transform='translate(320.38,208.36) rotate(-50)' text-anchor='end' style='font-size: 8.80px; fill: #4D4D4D; font-family: Arial;' textLength='35.74px' lengthAdjust='spacingAndGlyphs'>COX7A1</text>
<text transform='translate(349.60,208.36) rotate(-50)' text-anchor='end' style='font-size: 8.80px; fill: #4D4D4D; font-family: Arial;' textLength='35.74px' lengthAdjust='spacingAndGlyphs'>COX7A2</text>
<text transform='translate(378.83,208.36) rotate(-50)' text-anchor='end' style='font-size: 8.80px; fill: #4D4D4D; font-family: Arial;' textLength='40.64px' lengthAdjust='spacingAndGlyphs'>COX7A2L</text>
<text transform='translate(408.05,208.36) rotate(-50)' text-anchor='end' style='font-size: 8.80px; fill: #4D4D4D; font-family: Arial;' textLength='30.16px' lengthAdjust='spacingAndGlyphs'>COX7B</text>
<text transform='translate(437.28,208.36) rotate(-50)' text-anchor='end' style='font-size: 8.80px; fill: #4D4D4D; font-family: Arial;' textLength='30.27px' lengthAdjust='spacingAndGlyphs'>COX7C</text>
<text transform='translate(466.50,208.36) rotate(-50)' text-anchor='end' style='font-size: 8.80px; fill: #4D4D4D; font-family: Arial;' textLength='30.15px' lengthAdjust='spacingAndGlyphs'>COX8A</text>
<text transform='translate(13.50,111.31) rotate(-90)' text-anchor='middle' style='font-size: 11.00px; font-family: Arial;' textLength='174.11px' lengthAdjust='spacingAndGlyphs'>log2 Fold Change relative to D0</text>
<rect x='487.16' y='80.66' width='51.68' height='61.31' style='stroke-width: 1.07; stroke: none; fill: #FFFFFF;' />
<text x='492.64' y='95.30' style='font-size: 11.00px; font-family: Arial;' textLength='20.23px' lengthAdjust='spacingAndGlyphs'>day</text>
<rect x='493.35' y='102.64' width='15.86' height='15.86' style='stroke-width: 1.07; stroke: none; stroke-linecap: square; stroke-linejoin: miter; fill: #EBC5FF;' />
<rect x='493.35' y='119.92' width='15.86' height='15.86' style='stroke-width: 1.07; stroke: none; stroke-linecap: square; stroke-linejoin: miter; fill: #9001B4;' />
<text x='515.40' y='113.78' style='font-size: 8.80px; font-family: Arial;' textLength='12.37px' lengthAdjust='spacingAndGlyphs'>D5</text>
<text x='515.40' y='131.06' style='font-size: 8.80px; font-family: Arial;' textLength='17.96px' lengthAdjust='spacingAndGlyphs'>D15</text>
<text x='37.83' y='15.10' style='font-size: 13.20px; font-family: Arial;' textLength='75.41px' lengthAdjust='spacingAndGlyphs'>complex_IV</text>
</g>
</svg>
