<?xml version='1.0' encoding='UTF-8' ?>
<svg xmlns='http://www.w3.org/2000/svg' xmlns:xlink='http://www.w3.org/1999/xlink' class='svglite' width='501.12pt' height='259.20pt' viewBox='0 0 501.12 259.20'>
<defs>
  <style type='text/css'><![CDATA[
    .svglite line, .svglite polyline, .svglite polygon, .svglite path, .svglite rect, .svglite circle {
      fill: none;
      stroke: #000000;
      stroke-linecap: round;
      stroke-linejoin: round;
      stroke-miterlimit: 10.00;
    }
  ]]></style>
</defs>
<rect width='100%' height='100%' style='stroke: none; fill: #FFFFFF;'/>
<defs>
  <clipPath id='cpMC4wMHw1MDEuMTJ8MC4wMHwyNTkuMjA='>
    <rect x='0.00' y='0.00' width='501.12' height='259.20' />
  </clipPath>
</defs>
<g clip-path='url(#cpMC4wMHw1MDEuMTJ8MC4wMHwyNTkuMjA=)'>
<rect x='0.00' y='0.00' width='501.12' height='259.20' style='stroke-width: 1.07; stroke: #FFFFFF; fill: #FFFFFF;' />
</g>
<defs>
  <clipPath id='cpNDAuNjJ8NDM4LjU5fDIzLjMyfDIwMS40Mg=='>
    <rect x='40.62' y='23.32' width='397.98' height='178.10' />
  </clipPath>
</defs>
<g clip-path='url(#cpNDAuNjJ8NDM4LjU5fDIzLjMyfDIwMS40Mg==)'>
<rect x='40.62' y='23.32' width='397.98' height='178.10' style='stroke-width: 1.07; stroke: none; fill: #FFFFFF;' />
<line x1='40.62' y1='112.37' x2='438.59' y2='112.37' style='stroke-width: 1.07; stroke: #333333; stroke-dasharray: 5.69,5.69; stroke-linecap: butt;' />
<rect x='76.96' y='112.37' width='13.84' height='18.80' style='stroke-width: 1.07; stroke: none; stroke-linecap: square; stroke-linejoin: miter; fill: #A16864;' />
<rect x='42.35' y='112.26' width='13.84' height='0.11' style='stroke-width: 1.07; stroke: none; stroke-linecap: square; stroke-linejoin: miter; fill: #A16864;' />
<rect x='94.26' y='112.37' width='13.84' height='27.12' style='stroke-width: 1.07; stroke: none; stroke-linecap: square; stroke-linejoin: miter; fill: #A16864;' />
<rect x='146.17' y='112.37' width='13.84' height='0.76' style='stroke-width: 1.07; stroke: none; stroke-linecap: square; stroke-linejoin: miter; fill: #A16864;' />
<rect x='284.59' y='112.15' width='13.84' height='0.21' style='stroke-width: 1.07; stroke: none; stroke-linecap: square; stroke-linejoin: miter; fill: #A16864;' />
<rect x='180.78' y='112.37' width='13.84' height='36.84' style='stroke-width: 1.07; stroke: none; stroke-linecap: square; stroke-linejoin: miter; fill: #A16864;' />
<rect x='128.87' y='112.37' width='13.84' height='16.04' style='stroke-width: 1.07; stroke: none; stroke-linecap: square; stroke-linejoin: miter; fill: #A16864;' />
<rect x='423.02' y='112.37' width='13.84' height='8.41' style='stroke-width: 1.07; stroke: none; stroke-linecap: square; stroke-linejoin: miter; fill: #A16864;' />
<rect x='232.68' y='111.61' width='13.84' height='0.76' style='stroke-width: 1.07; stroke: none; stroke-linecap: square; stroke-linejoin: miter; fill: #A16864;' />
<rect x='405.72' y='86.25' width='13.84' height='26.12' style='stroke-width: 1.07; stroke: none; stroke-linecap: square; stroke-linejoin: miter; fill: #A16864;' />
<rect x='59.65' y='112.37' width='13.84' height='15.99' style='stroke-width: 1.07; stroke: none; stroke-linecap: square; stroke-linejoin: miter; fill: #A16864;' />
<rect x='267.29' y='110.17' width='13.84' height='2.20' style='stroke-width: 1.07; stroke: none; stroke-linecap: square; stroke-linejoin: miter; fill: #A16864;' />
<rect x='336.50' y='112.37' width='13.84' height='12.21' style='stroke-width: 1.07; stroke: none; stroke-linecap: square; stroke-linejoin: miter; fill: #A16864;' />
<rect x='301.90' y='112.37' width='13.84' height='7.09' style='stroke-width: 1.07; stroke: none; stroke-linecap: square; stroke-linejoin: miter; fill: #A16864;' />
<rect x='388.41' y='112.37' width='13.84' height='8.64' style='stroke-width: 1.07; stroke: none; stroke-linecap: square; stroke-linejoin: miter; fill: #A16864;' />
<rect x='198.08' y='112.37' width='13.84' height='4.52' style='stroke-width: 1.07; stroke: none; stroke-linecap: square; stroke-linejoin: miter; fill: #A16864;' />
<rect x='215.38' y='111.84' width='13.84' height='0.53' style='stroke-width: 1.07; stroke: none; stroke-linecap: square; stroke-linejoin: miter; fill: #A16864;' />
<rect x='111.56' y='112.37' width='13.84' height='1.80' style='stroke-width: 1.07; stroke: none; stroke-linecap: square; stroke-linejoin: miter; fill: #A16864;' />
<rect x='353.81' y='95.50' width='13.84' height='16.87' style='stroke-width: 1.07; stroke: none; stroke-linecap: square; stroke-linejoin: miter; fill: #A16864;' />
<rect x='249.99' y='101.19' width='13.84' height='11.18' style='stroke-width: 1.07; stroke: none; stroke-linecap: square; stroke-linejoin: miter; fill: #A16864;' />
<rect x='371.11' y='49.45' width='13.84' height='62.92' style='stroke-width: 1.07; stroke: none; stroke-linecap: square; stroke-linejoin: miter; fill: #A16864;' />
<rect x='319.20' y='112.37' width='13.84' height='10.96' style='stroke-width: 1.07; stroke: none; stroke-linecap: square; stroke-linejoin: miter; fill: #A16864;' />
<rect x='163.47' y='112.37' width='13.84' height='0.92' style='stroke-width: 1.07; stroke: none; stroke-linecap: square; stroke-linejoin: miter; fill: #A16864;' />
<polyline points='80.42,129.38 87.34,129.38 ' style='stroke-width: 1.07; stroke-linecap: butt;' />
<polyline points='83.88,129.38 83.88,132.96 ' style='stroke-width: 1.07; stroke-linecap: butt;' />
<polyline points='80.42,132.96 87.34,132.96 ' style='stroke-width: 1.07; stroke-linecap: butt;' />
<polyline points='45.81,109.86 52.73,109.86 ' style='stroke-width: 1.07; stroke-linecap: butt;' />
<polyline points='49.27,109.86 49.27,114.66 ' style='stroke-width: 1.07; stroke-linecap: butt;' />
<polyline points='45.81,114.66 52.73,114.66 ' style='stroke-width: 1.07; stroke-linecap: butt;' />
<polyline points='97.72,136.16 104.64,136.16 ' style='stroke-width: 1.07; stroke-linecap: butt;' />
<polyline points='101.18,136.16 101.18,142.82 ' style='stroke-width: 1.07; stroke-linecap: butt;' />
<polyline points='97.72,142.82 104.64,142.82 ' style='stroke-width: 1.07; stroke-linecap: butt;' />
<polyline points='149.63,111.16 156.55,111.16 ' style='stroke-width: 1.07; stroke-linecap: butt;' />
<polyline points='153.09,111.16 153.09,115.09 ' style='stroke-width: 1.07; stroke-linecap: butt;' />
<polyline points='149.63,115.09 156.55,115.09 ' style='stroke-width: 1.07; stroke-linecap: butt;' />
<polyline points='288.06,109.29 294.98,109.29 ' style='stroke-width: 1.07; stroke-linecap: butt;' />
<polyline points='291.52,109.29 291.52,115.02 ' style='stroke-width: 1.07; stroke-linecap: butt;' />
<polyline points='288.06,115.02 294.98,115.02 ' style='stroke-width: 1.07; stroke-linecap: butt;' />
<polyline points='184.24,142.25 191.16,142.25 ' style='stroke-width: 1.07; stroke-linecap: butt;' />
<polyline points='187.70,142.25 187.70,156.18 ' style='stroke-width: 1.07; stroke-linecap: butt;' />
<polyline points='184.24,156.18 191.16,156.18 ' style='stroke-width: 1.07; stroke-linecap: butt;' />
<polyline points='132.33,126.48 139.25,126.48 ' style='stroke-width: 1.07; stroke-linecap: butt;' />
<polyline points='135.79,126.48 135.79,130.34 ' style='stroke-width: 1.07; stroke-linecap: butt;' />
<polyline points='132.33,130.34 139.25,130.34 ' style='stroke-width: 1.07; stroke-linecap: butt;' />
<polyline points='426.48,119.25 433.40,119.25 ' style='stroke-width: 1.07; stroke-linecap: butt;' />
<polyline points='429.94,119.25 429.94,122.31 ' style='stroke-width: 1.07; stroke-linecap: butt;' />
<polyline points='426.48,122.31 433.40,122.31 ' style='stroke-width: 1.07; stroke-linecap: butt;' />
<polyline points='236.15,109.52 243.07,109.52 ' style='stroke-width: 1.07; stroke-linecap: butt;' />
<polyline points='239.61,109.52 239.61,113.70 ' style='stroke-width: 1.07; stroke-linecap: butt;' />
<polyline points='236.15,113.70 243.07,113.70 ' style='stroke-width: 1.07; stroke-linecap: butt;' />
<polyline points='409.18,82.91 416.10,82.91 ' style='stroke-width: 1.07; stroke-linecap: butt;' />
<polyline points='412.64,82.91 412.64,89.59 ' style='stroke-width: 1.07; stroke-linecap: butt;' />
<polyline points='409.18,89.59 416.10,89.59 ' style='stroke-width: 1.07; stroke-linecap: butt;' />
<polyline points='63.11,125.48 70.03,125.48 ' style='stroke-width: 1.07; stroke-linecap: butt;' />
<polyline points='66.57,125.48 66.57,131.24 ' style='stroke-width: 1.07; stroke-linecap: butt;' />
<polyline points='63.11,131.24 70.03,131.24 ' style='stroke-width: 1.07; stroke-linecap: butt;' />
<polyline points='270.75,107.41 277.67,107.41 ' style='stroke-width: 1.07; stroke-linecap: butt;' />
<polyline points='274.21,107.41 274.21,112.92 ' style='stroke-width: 1.07; stroke-linecap: butt;' />
<polyline points='270.75,112.92 277.67,112.92 ' style='stroke-width: 1.07; stroke-linecap: butt;' />
<polyline points='339.97,119.17 346.89,119.17 ' style='stroke-width: 1.07; stroke-linecap: butt;' />
<polyline points='343.43,119.17 343.43,129.99 ' style='stroke-width: 1.07; stroke-linecap: butt;' />
<polyline points='339.97,129.99 346.89,129.99 ' style='stroke-width: 1.07; stroke-linecap: butt;' />
<polyline points='305.36,116.10 312.28,116.10 ' style='stroke-width: 1.07; stroke-linecap: butt;' />
<polyline points='308.82,116.10 308.82,122.81 ' style='stroke-width: 1.07; stroke-linecap: butt;' />
<polyline points='305.36,122.81 312.28,122.81 ' style='stroke-width: 1.07; stroke-linecap: butt;' />
<polyline points='391.87,119.42 398.80,119.42 ' style='stroke-width: 1.07; stroke-linecap: butt;' />
<polyline points='395.34,119.42 395.34,122.60 ' style='stroke-width: 1.07; stroke-linecap: butt;' />
<polyline points='391.87,122.60 398.80,122.60 ' style='stroke-width: 1.07; stroke-linecap: butt;' />
<polyline points='201.54,115.62 208.46,115.62 ' style='stroke-width: 1.07; stroke-linecap: butt;' />
<polyline points='205.00,115.62 205.00,118.16 ' style='stroke-width: 1.07; stroke-linecap: butt;' />
<polyline points='201.54,118.16 208.46,118.16 ' style='stroke-width: 1.07; stroke-linecap: butt;' />
<polyline points='218.84,110.28 225.76,110.28 ' style='stroke-width: 1.07; stroke-linecap: butt;' />
<polyline points='222.30,110.28 222.30,113.40 ' style='stroke-width: 1.07; stroke-linecap: butt;' />
<polyline points='218.84,113.40 225.76,113.40 ' style='stroke-width: 1.07; stroke-linecap: butt;' />
<polyline points='115.02,106.98 121.94,106.98 ' style='stroke-width: 1.07; stroke-linecap: butt;' />
<polyline points='118.48,106.98 118.48,121.36 ' style='stroke-width: 1.07; stroke-linecap: butt;' />
<polyline points='115.02,121.36 121.94,121.36 ' style='stroke-width: 1.07; stroke-linecap: butt;' />
<polyline points='357.27,87.43 364.19,87.43 ' style='stroke-width: 1.07; stroke-linecap: butt;' />
<polyline points='360.73,87.43 360.73,103.57 ' style='stroke-width: 1.07; stroke-linecap: butt;' />
<polyline points='357.27,103.57 364.19,103.57 ' style='stroke-width: 1.07; stroke-linecap: butt;' />
<polyline points='253.45,98.35 260.37,98.35 ' style='stroke-width: 1.07; stroke-linecap: butt;' />
<polyline points='256.91,98.35 256.91,104.02 ' style='stroke-width: 1.07; stroke-linecap: butt;' />
<polyline points='253.45,104.02 260.37,104.02 ' style='stroke-width: 1.07; stroke-linecap: butt;' />
<polyline points='374.57,38.78 381.49,38.78 ' style='stroke-width: 1.07; stroke-linecap: butt;' />
<polyline points='378.03,38.78 378.03,60.13 ' style='stroke-width: 1.07; stroke-linecap: butt;' />
<polyline points='374.57,60.13 381.49,60.13 ' style='stroke-width: 1.07; stroke-linecap: butt;' />
<polyline points='322.66,121.04 329.58,121.04 ' style='stroke-width: 1.07; stroke-linecap: butt;' />
<polyline points='326.12,121.04 326.12,125.63 ' style='stroke-width: 1.07; stroke-linecap: butt;' />
<polyline points='322.66,125.63 329.58,125.63 ' style='stroke-width: 1.07; stroke-linecap: butt;' />
<polyline points='166.93,110.94 173.85,110.94 ' style='stroke-width: 1.07; stroke-linecap: butt;' />
<polyline points='170.39,110.94 170.39,115.64 ' style='stroke-width: 1.07; stroke-linecap: butt;' />
<polyline points='166.93,115.64 173.85,115.64 ' style='stroke-width: 1.07; stroke-linecap: butt;' />
<text x='83.88' y='147.88' text-anchor='middle' style='font-size: 18.02px; font-family: Arial;' textLength='9.01px' lengthAdjust='spacingAndGlyphs'>*</text>
<text x='101.18' y='157.74' text-anchor='middle' style='font-size: 18.02px; font-family: Arial;' textLength='9.01px' lengthAdjust='spacingAndGlyphs'>*</text>
<text x='187.70' y='171.10' text-anchor='middle' style='font-size: 18.02px; font-family: Arial;' textLength='9.01px' lengthAdjust='spacingAndGlyphs'>*</text>
<text x='135.79' y='145.26' text-anchor='middle' style='font-size: 18.02px; font-family: Arial;' textLength='9.01px' lengthAdjust='spacingAndGlyphs'>*</text>
<text x='429.94' y='137.24' text-anchor='middle' style='font-size: 18.02px; font-family: Arial;' textLength='9.01px' lengthAdjust='spacingAndGlyphs'>*</text>
<text x='412.64' y='86.50' text-anchor='middle' style='font-size: 18.02px; font-family: Arial;' textLength='9.01px' lengthAdjust='spacingAndGlyphs'>*</text>
<text x='66.57' y='146.17' text-anchor='middle' style='font-size: 18.02px; font-family: Arial;' textLength='9.01px' lengthAdjust='spacingAndGlyphs'>*</text>
<text x='343.43' y='144.92' text-anchor='middle' style='font-size: 18.02px; font-family: Arial;' textLength='9.01px' lengthAdjust='spacingAndGlyphs'>*</text>
<text x='395.34' y='137.53' text-anchor='middle' style='font-size: 18.02px; font-family: Arial;' textLength='9.01px' lengthAdjust='spacingAndGlyphs'>*</text>
<text x='205.00' y='133.08' text-anchor='middle' style='font-size: 18.02px; font-family: Arial;' textLength='9.01px' lengthAdjust='spacingAndGlyphs'>*</text>
<text x='256.91' y='101.95' text-anchor='middle' style='font-size: 18.02px; font-family: Arial;' textLength='9.01px' lengthAdjust='spacingAndGlyphs'>*</text>
<text x='378.03' y='42.37' text-anchor='middle' style='font-size: 18.02px; font-family: Arial;' textLength='9.01px' lengthAdjust='spacingAndGlyphs'>*</text>
<text x='326.12' y='140.55' text-anchor='middle' style='font-size: 18.02px; font-family: Arial;' textLength='9.01px' lengthAdjust='spacingAndGlyphs'>*</text>
</g>
<g clip-path='url(#cpMC4wMHw1MDEuMTJ8MC4wMHwyNTkuMjA=)'>
<polyline points='40.62,201.42 40.62,23.32 ' style='stroke-width: 1.07; stroke-linecap: butt;' />
<text x='35.69' y='165.27' text-anchor='end' style='font-size: 8.80px; fill: #4D4D4D; font-family: Arial;' textLength='17.16px' lengthAdjust='spacingAndGlyphs'>-2.5</text>
<text x='35.69' y='115.58' text-anchor='end' style='font-size: 8.80px; fill: #4D4D4D; font-family: Arial;' textLength='13.98px' lengthAdjust='spacingAndGlyphs'>0.0</text>
<text x='35.69' y='65.89' text-anchor='end' style='font-size: 8.80px; fill: #4D4D4D; font-family: Arial;' textLength='13.98px' lengthAdjust='spacingAndGlyphs'>2.5</text>
<polyline points='37.88,162.06 40.62,162.06 ' style='stroke-width: 1.07; stroke: #333333; stroke-linecap: butt;' />
<polyline points='37.88,112.37 40.62,112.37 ' style='stroke-width: 1.07; stroke: #333333; stroke-linecap: butt;' />
<polyline points='37.88,62.68 40.62,62.68 ' style='stroke-width: 1.07; stroke: #333333; stroke-linecap: butt;' />
<polyline points='40.62,201.42 438.59,201.42 ' style='stroke-width: 1.07; stroke-linecap: butt;' />
<polyline points='49.27,204.16 49.27,201.42 ' style='stroke-width: 1.07; stroke: #333333; stroke-linecap: butt;' />
<polyline points='66.57,204.16 66.57,201.42 ' style='stroke-width: 1.07; stroke: #333333; stroke-linecap: butt;' />
<polyline points='83.88,204.16 83.88,201.42 ' style='stroke-width: 1.07; stroke: #333333; stroke-linecap: butt;' />
<polyline points='101.18,204.16 101.18,201.42 ' style='stroke-width: 1.07; stroke: #333333; stroke-linecap: butt;' />
<polyline points='118.48,204.16 118.48,201.42 ' style='stroke-width: 1.07; stroke: #333333; stroke-linecap: butt;' />
<polyline points='135.79,204.16 135.79,201.42 ' style='stroke-width: 1.07; stroke: #333333; stroke-linecap: butt;' />
<polyline points='153.09,204.16 153.09,201.42 ' style='stroke-width: 1.07; stroke: #333333; stroke-linecap: butt;' />
<polyline points='170.39,204.16 170.39,201.42 ' style='stroke-width: 1.07; stroke: #333333; stroke-linecap: butt;' />
<polyline points='187.70,204.16 187.70,201.42 ' style='stroke-width: 1.07; stroke: #333333; stroke-linecap: butt;' />
<polyline points='205.00,204.16 205.00,201.42 ' style='stroke-width: 1.07; stroke: #333333; stroke-linecap: butt;' />
<polyline points='222.30,204.16 222.30,201.42 ' style='stroke-width: 1.07; stroke: #333333; stroke-linecap: butt;' />
<polyline points='239.61,204.16 239.61,201.42 ' style='stroke-width: 1.07; stroke: #333333; stroke-linecap: butt;' />
<polyline points='256.91,204.16 256.91,201.42 ' style='stroke-width: 1.07; stroke: #333333; stroke-linecap: butt;' />
<polyline points='274.21,204.16 274.21,201.42 ' style='stroke-width: 1.07; stroke: #333333; stroke-linecap: butt;' />
<polyline points='291.52,204.16 291.52,201.42 ' style='stroke-width: 1.07; stroke: #333333; stroke-linecap: butt;' />
<polyline points='308.82,204.16 308.82,201.42 ' style='stroke-width: 1.07; stroke: #333333; stroke-linecap: butt;' />
<polyline points='326.12,204.16 326.12,201.42 ' style='stroke-width: 1.07; stroke: #333333; stroke-linecap: butt;' />
<polyline points='343.43,204.16 343.43,201.42 ' style='stroke-width: 1.07; stroke: #333333; stroke-linecap: butt;' />
<polyline points='360.73,204.16 360.73,201.42 ' style='stroke-width: 1.07; stroke: #333333; stroke-linecap: butt;' />
<polyline points='378.03,204.16 378.03,201.42 ' style='stroke-width: 1.07; stroke: #333333; stroke-linecap: butt;' />
<polyline points='395.34,204.16 395.34,201.42 ' style='stroke-width: 1.07; stroke: #333333; stroke-linecap: butt;' />
<polyline points='412.64,204.16 412.64,201.42 ' style='stroke-width: 1.07; stroke: #333333; stroke-linecap: butt;' />
<polyline points='429.94,204.16 429.94,201.42 ' style='stroke-width: 1.07; stroke: #333333; stroke-linecap: butt;' />
<text transform='translate(54.18,210.47) rotate(-50)' text-anchor='end' style='font-size: 8.80px; fill: #4D4D4D; font-family: Arial;' textLength='30.30px' lengthAdjust='spacingAndGlyphs'>ADCK1</text>
<text transform='translate(71.49,210.47) rotate(-50)' text-anchor='end' style='font-size: 8.80px; fill: #4D4D4D; font-family: Arial;' textLength='33.99px' lengthAdjust='spacingAndGlyphs'>AFG3L2</text>
<text transform='translate(88.79,210.47) rotate(-50)' text-anchor='end' style='font-size: 8.80px; fill: #4D4D4D; font-family: Arial;' textLength='23.41px' lengthAdjust='spacingAndGlyphs'>BAK1</text>
<text transform='translate(106.09,210.47) rotate(-50)' text-anchor='end' style='font-size: 8.80px; fill: #4D4D4D; font-family: Arial;' textLength='18.08px' lengthAdjust='spacingAndGlyphs'>BAX</text>
<text transform='translate(123.40,210.47) rotate(-50)' text-anchor='end' style='font-size: 8.80px; fill: #4D4D4D; font-family: Arial;' textLength='26.11px' lengthAdjust='spacingAndGlyphs'>BNIP3</text>
<text transform='translate(140.70,210.47) rotate(-50)' text-anchor='end' style='font-size: 8.80px; fill: #4D4D4D; font-family: Arial;' textLength='37.89px' lengthAdjust='spacingAndGlyphs'>CHCHD3</text>
<text transform='translate(158.00,210.47) rotate(-50)' text-anchor='end' style='font-size: 8.80px; fill: #4D4D4D; font-family: Arial;' textLength='31.44px' lengthAdjust='spacingAndGlyphs'>DNM1L</text>
<text transform='translate(175.31,210.47) rotate(-50)' text-anchor='end' style='font-size: 8.80px; fill: #4D4D4D; font-family: Arial;' textLength='18.84px' lengthAdjust='spacingAndGlyphs'>FIS1</text>
<text transform='translate(192.61,210.47) rotate(-50)' text-anchor='end' style='font-size: 8.80px; fill: #4D4D4D; font-family: Arial;' textLength='30.36px' lengthAdjust='spacingAndGlyphs'>GDAP1</text>
<text transform='translate(209.91,210.47) rotate(-50)' text-anchor='end' style='font-size: 8.80px; fill: #4D4D4D; font-family: Arial;' textLength='17.71px' lengthAdjust='spacingAndGlyphs'>MFF</text>
<text transform='translate(227.22,210.47) rotate(-50)' text-anchor='end' style='font-size: 8.80px; fill: #4D4D4D; font-family: Arial;' textLength='24.83px' lengthAdjust='spacingAndGlyphs'>MFN1</text>
<text transform='translate(244.52,210.47) rotate(-50)' text-anchor='end' style='font-size: 8.80px; fill: #4D4D4D; font-family: Arial;' textLength='24.83px' lengthAdjust='spacingAndGlyphs'>MFN2</text>
<text transform='translate(261.82,210.47) rotate(-50)' text-anchor='end' style='font-size: 8.80px; fill: #4D4D4D; font-family: Arial;' textLength='28.61px' lengthAdjust='spacingAndGlyphs'>MIGA1</text>
<text transform='translate(279.13,210.47) rotate(-50)' text-anchor='end' style='font-size: 8.80px; fill: #4D4D4D; font-family: Arial;' textLength='28.61px' lengthAdjust='spacingAndGlyphs'>MIGA2</text>
<text transform='translate(296.43,210.47) rotate(-50)' text-anchor='end' style='font-size: 8.80px; fill: #4D4D4D; font-family: Arial;' textLength='24.52px' lengthAdjust='spacingAndGlyphs'>MUL1</text>
<text transform='translate(313.73,210.47) rotate(-50)' text-anchor='end' style='font-size: 8.80px; fill: #4D4D4D; font-family: Arial;' textLength='26.13px' lengthAdjust='spacingAndGlyphs'>OMA1</text>
<text transform='translate(331.04,210.47) rotate(-50)' text-anchor='end' style='font-size: 8.80px; fill: #4D4D4D; font-family: Arial;' textLength='23.28px' lengthAdjust='spacingAndGlyphs'>OPA1</text>
<text transform='translate(348.34,210.47) rotate(-50)' text-anchor='end' style='font-size: 8.80px; fill: #4D4D4D; font-family: Arial;' textLength='20.27px' lengthAdjust='spacingAndGlyphs'>PID1</text>
<text transform='translate(365.64,210.47) rotate(-50)' text-anchor='end' style='font-size: 8.80px; fill: #4D4D4D; font-family: Arial;' textLength='22.58px' lengthAdjust='spacingAndGlyphs'>PLD6</text>
<text transform='translate(382.95,210.47) rotate(-50)' text-anchor='end' style='font-size: 8.80px; fill: #4D4D4D; font-family: Arial;' textLength='23.77px' lengthAdjust='spacingAndGlyphs'>PRKN</text>
<text transform='translate(400.25,210.47) rotate(-50)' text-anchor='end' style='font-size: 8.80px; fill: #4D4D4D; font-family: Arial;' textLength='35.97px' lengthAdjust='spacingAndGlyphs'>STOML2</text>
<text transform='translate(417.55,210.47) rotate(-50)' text-anchor='end' style='font-size: 8.80px; fill: #4D4D4D; font-family: Arial;' textLength='28.52px' lengthAdjust='spacingAndGlyphs'>USP30</text>
<text transform='translate(434.86,210.47) rotate(-50)' text-anchor='end' style='font-size: 8.80px; fill: #4D4D4D; font-family: Arial;' textLength='21.76px' lengthAdjust='spacingAndGlyphs'>VAT1</text>
<text transform='translate(13.50,112.37) rotate(-90)' text-anchor='middle' style='font-size: 11.00px; font-family: Arial;' textLength='174.11px' lengthAdjust='spacingAndGlyphs'>log2 Fold Change relative to D0</text>
<rect x='449.55' y='90.35' width='46.09' height='44.03' style='stroke-width: 1.07; stroke: none; fill: #FFFFFF;' />
<text x='455.03' y='105.00' style='font-size: 11.00px; font-family: Arial;' textLength='20.23px' lengthAdjust='spacingAndGlyphs'>day</text>
<rect x='455.74' y='112.33' width='15.86' height='15.86' style='stroke-width: 1.07; stroke: none; stroke-linecap: square; stroke-linejoin: miter; fill: #A16864;' />
<text x='477.79' y='123.47' style='font-size: 8.80px; font-family: Arial;' textLength='12.37px' lengthAdjust='spacingAndGlyphs'>D7</text>
<text x='40.62' y='15.10' style='font-size: 13.20px; font-family: Arial;' textLength='137.57px' lengthAdjust='spacingAndGlyphs'>mitochondrial_fusion</text>
</g>
</svg>
