<?xml version='1.0' encoding='UTF-8' ?>
<svg xmlns='http://www.w3.org/2000/svg' xmlns:xlink='http://www.w3.org/1999/xlink' class='svglite' width='673.92pt' height='259.20pt' viewBox='0 0 673.92 259.20'>
<defs>
  <style type='text/css'><![CDATA[
    .svglite line, .svglite polyline, .svglite polygon, .svglite path, .svglite rect, .svglite circle {
      fill: none;
      stroke: #000000;
      stroke-linecap: round;
      stroke-linejoin: round;
      stroke-miterlimit: 10.00;
    }
  ]]></style>
</defs>
<rect width='100%' height='100%' style='stroke: none; fill: #FFFFFF;'/>
<defs>
  <clipPath id='cpMC4wMHw2NzMuOTJ8MC4wMHwyNTkuMjA='>
    <rect x='0.00' y='0.00' width='673.92' height='259.20' />
  </clipPath>
</defs>
<g clip-path='url(#cpMC4wMHw2NzMuOTJ8MC4wMHwyNTkuMjA=)'>
<rect x='0.00' y='0.00' width='673.92' height='259.20' style='stroke-width: 1.07; stroke: #FFFFFF; fill: #FFFFFF;' />
</g>
<defs>
  <clipPath id='cpMzIuMjN8NjA1LjgwfDIzLjMyfDE5OS40Nw=='>
    <rect x='32.23' y='23.32' width='573.57' height='176.15' />
  </clipPath>
</defs>
<g clip-path='url(#cpMzIuMjN8NjA1LjgwfDIzLjMyfDE5OS40Nw==)'>
<rect x='32.23' y='23.32' width='573.57' height='176.15' style='stroke-width: 1.07; stroke: none; fill: #FFFFFF;' />
<line x1='32.23' y1='111.40' x2='605.80' y2='111.40' style='stroke-width: 1.07; stroke: #333333; stroke-dasharray: 5.69,5.69; stroke-linecap: butt;' />
<rect x='165.19' y='111.40' width='6.95' height='0.95' style='stroke-width: 1.07; stroke: none; stroke-linecap: square; stroke-linejoin: miter; fill: #FFB1C9;' />
<rect x='582.34' y='111.40' width='6.95' height='4.99' style='stroke-width: 1.07; stroke: none; stroke-linecap: square; stroke-linejoin: miter; fill: #FFB1C9;' />
<rect x='425.91' y='111.40' width='6.95' height='2.93' style='stroke-width: 1.07; stroke: none; stroke-linecap: square; stroke-linejoin: miter; fill: #FFB1C9;' />
<rect x='191.27' y='98.36' width='6.95' height='13.04' style='stroke-width: 1.07; stroke: none; stroke-linecap: square; stroke-linejoin: miter; fill: #FFB1C9;' />
<rect x='504.12' y='110.35' width='6.95' height='1.05' style='stroke-width: 1.07; stroke: none; stroke-linecap: square; stroke-linejoin: miter; fill: #FFB1C9;' />
<rect x='139.12' y='111.40' width='6.95' height='0.082' style='stroke-width: 1.07; stroke: none; stroke-linecap: square; stroke-linejoin: miter; fill: #FFB1C9;' />
<rect x='34.84' y='111.40' width='6.95' height='2.75' style='stroke-width: 1.07; stroke: none; stroke-linecap: square; stroke-linejoin: miter; fill: #FFB1C9;' />
<rect x='217.34' y='104.15' width='6.95' height='7.25' style='stroke-width: 1.07; stroke: none; stroke-linecap: square; stroke-linejoin: miter; fill: #FFB1C9;' />
<rect x='243.41' y='111.40' width='6.95' height='4.95' style='stroke-width: 1.07; stroke: none; stroke-linecap: square; stroke-linejoin: miter; fill: #FFB1C9;' />
<rect x='295.55' y='99.23' width='6.95' height='12.16' style='stroke-width: 1.07; stroke: none; stroke-linecap: square; stroke-linejoin: miter; fill: #FFB1C9;' />
<rect x='269.48' y='103.13' width='6.95' height='8.26' style='stroke-width: 1.07; stroke: none; stroke-linecap: square; stroke-linejoin: miter; fill: #FFB1C9;' />
<rect x='113.05' y='111.40' width='6.95' height='2.06' style='stroke-width: 1.07; stroke: none; stroke-linecap: square; stroke-linejoin: miter; fill: #FFB1C9;' />
<rect x='86.98' y='105.53' width='6.95' height='5.86' style='stroke-width: 1.07; stroke: none; stroke-linecap: square; stroke-linejoin: miter; fill: #FFB1C9;' />
<rect x='556.26' y='111.18' width='6.95' height='0.22' style='stroke-width: 1.07; stroke: none; stroke-linecap: square; stroke-linejoin: miter; fill: #FFB1C9;' />
<rect x='530.19' y='94.35' width='6.95' height='17.04' style='stroke-width: 1.07; stroke: none; stroke-linecap: square; stroke-linejoin: miter; fill: #FFB1C9;' />
<rect x='478.05' y='111.40' width='6.95' height='9.31' style='stroke-width: 1.07; stroke: none; stroke-linecap: square; stroke-linejoin: miter; fill: #FFB1C9;' />
<rect x='399.84' y='106.81' width='6.95' height='4.58' style='stroke-width: 1.07; stroke: none; stroke-linecap: square; stroke-linejoin: miter; fill: #FFB1C9;' />
<rect x='60.91' y='111.40' width='6.95' height='7.37' style='stroke-width: 1.07; stroke: none; stroke-linecap: square; stroke-linejoin: miter; fill: #FFB1C9;' />
<rect x='347.69' y='111.40' width='6.95' height='7.66' style='stroke-width: 1.07; stroke: none; stroke-linecap: square; stroke-linejoin: miter; fill: #FFB1C9;' />
<rect x='321.62' y='91.82' width='6.95' height='19.58' style='stroke-width: 1.07; stroke: none; stroke-linecap: square; stroke-linejoin: miter; fill: #FFB1C9;' />
<rect x='451.98' y='102.67' width='6.95' height='8.72' style='stroke-width: 1.07; stroke: none; stroke-linecap: square; stroke-linejoin: miter; fill: #FFB1C9;' />
<rect x='373.76' y='108.82' width='6.95' height='2.58' style='stroke-width: 1.07; stroke: none; stroke-linecap: square; stroke-linejoin: miter; fill: #FFB1C9;' />
<rect x='172.15' y='106.38' width='6.95' height='5.02' style='stroke-width: 1.07; stroke: none; stroke-linecap: square; stroke-linejoin: miter; fill: #D8367D;' />
<rect x='589.29' y='111.40' width='6.95' height='9.75' style='stroke-width: 1.07; stroke: none; stroke-linecap: square; stroke-linejoin: miter; fill: #D8367D;' />
<rect x='432.86' y='111.40' width='6.95' height='14.10' style='stroke-width: 1.07; stroke: none; stroke-linecap: square; stroke-linejoin: miter; fill: #D8367D;' />
<rect x='198.22' y='96.61' width='6.95' height='14.78' style='stroke-width: 1.07; stroke: none; stroke-linecap: square; stroke-linejoin: miter; fill: #D8367D;' />
<rect x='511.07' y='107.26' width='6.95' height='4.14' style='stroke-width: 1.07; stroke: none; stroke-linecap: square; stroke-linejoin: miter; fill: #D8367D;' />
<rect x='146.08' y='111.40' width='6.95' height='1.47' style='stroke-width: 1.07; stroke: none; stroke-linecap: square; stroke-linejoin: miter; fill: #D8367D;' />
<rect x='41.79' y='111.40' width='6.95' height='0.82' style='stroke-width: 1.07; stroke: none; stroke-linecap: square; stroke-linejoin: miter; fill: #D8367D;' />
<rect x='224.29' y='99.59' width='6.95' height='11.81' style='stroke-width: 1.07; stroke: none; stroke-linecap: square; stroke-linejoin: miter; fill: #D8367D;' />
<rect x='250.36' y='111.40' width='6.95' height='4.15' style='stroke-width: 1.07; stroke: none; stroke-linecap: square; stroke-linejoin: miter; fill: #D8367D;' />
<rect x='302.50' y='101.31' width='6.95' height='10.09' style='stroke-width: 1.07; stroke: none; stroke-linecap: square; stroke-linejoin: miter; fill: #D8367D;' />
<rect x='276.43' y='111.40' width='6.95' height='12.45' style='stroke-width: 1.07; stroke: none; stroke-linecap: square; stroke-linejoin: miter; fill: #D8367D;' />
<rect x='120.00' y='111.40' width='6.95' height='5.47' style='stroke-width: 1.07; stroke: none; stroke-linecap: square; stroke-linejoin: miter; fill: #D8367D;' />
<rect x='93.93' y='106.82' width='6.95' height='4.57' style='stroke-width: 1.07; stroke: none; stroke-linecap: square; stroke-linejoin: miter; fill: #D8367D;' />
<rect x='563.22' y='111.40' width='6.95' height='2.69' style='stroke-width: 1.07; stroke: none; stroke-linecap: square; stroke-linejoin: miter; fill: #D8367D;' />
<rect x='537.14' y='91.40' width='6.95' height='19.99' style='stroke-width: 1.07; stroke: none; stroke-linecap: square; stroke-linejoin: miter; fill: #D8367D;' />
<rect x='485.00' y='111.40' width='6.95' height='9.60' style='stroke-width: 1.07; stroke: none; stroke-linecap: square; stroke-linejoin: miter; fill: #D8367D;' />
<rect x='406.79' y='111.40' width='6.95' height='5.03' style='stroke-width: 1.07; stroke: none; stroke-linecap: square; stroke-linejoin: miter; fill: #D8367D;' />
<rect x='67.86' y='111.40' width='6.95' height='4.00' style='stroke-width: 1.07; stroke: none; stroke-linecap: square; stroke-linejoin: miter; fill: #D8367D;' />
<rect x='354.65' y='111.40' width='6.95' height='3.63' style='stroke-width: 1.07; stroke: none; stroke-linecap: square; stroke-linejoin: miter; fill: #D8367D;' />
<rect x='328.57' y='76.87' width='6.95' height='34.52' style='stroke-width: 1.07; stroke: none; stroke-linecap: square; stroke-linejoin: miter; fill: #D8367D;' />
<rect x='458.93' y='111.40' width='6.95' height='5.85' style='stroke-width: 1.07; stroke: none; stroke-linecap: square; stroke-linejoin: miter; fill: #D8367D;' />
<rect x='380.72' y='102.27' width='6.95' height='9.13' style='stroke-width: 1.07; stroke: none; stroke-linecap: square; stroke-linejoin: miter; fill: #D8367D;' />
<rect x='179.10' y='94.51' width='6.95' height='16.89' style='stroke-width: 1.07; stroke: none; stroke-linecap: square; stroke-linejoin: miter; fill: #87194B;' />
<rect x='596.24' y='111.17' width='6.95' height='0.22' style='stroke-width: 1.07; stroke: none; stroke-linecap: square; stroke-linejoin: miter; fill: #87194B;' />
<rect x='439.81' y='103.59' width='6.95' height='7.80' style='stroke-width: 1.07; stroke: none; stroke-linecap: square; stroke-linejoin: miter; fill: #87194B;' />
<rect x='205.17' y='101.19' width='6.95' height='10.21' style='stroke-width: 1.07; stroke: none; stroke-linecap: square; stroke-linejoin: miter; fill: #87194B;' />
<rect x='518.03' y='111.37' width='6.95' height='0.027' style='stroke-width: 1.07; stroke: none; stroke-linecap: square; stroke-linejoin: miter; fill: #87194B;' />
<rect x='153.03' y='111.40' width='6.95' height='4.96' style='stroke-width: 1.07; stroke: none; stroke-linecap: square; stroke-linejoin: miter; fill: #87194B;' />
<rect x='48.74' y='109.99' width='6.95' height='1.41' style='stroke-width: 1.07; stroke: none; stroke-linecap: square; stroke-linejoin: miter; fill: #87194B;' />
<rect x='231.24' y='92.16' width='6.95' height='19.24' style='stroke-width: 1.07; stroke: none; stroke-linecap: square; stroke-linejoin: miter; fill: #87194B;' />
<rect x='257.31' y='87.69' width='6.95' height='23.70' style='stroke-width: 1.07; stroke: none; stroke-linecap: square; stroke-linejoin: miter; fill: #87194B;' />
<rect x='309.46' y='96.64' width='6.95' height='14.76' style='stroke-width: 1.07; stroke: none; stroke-linecap: square; stroke-linejoin: miter; fill: #87194B;' />
<rect x='283.38' y='91.84' width='6.95' height='19.55' style='stroke-width: 1.07; stroke: none; stroke-linecap: square; stroke-linejoin: miter; fill: #87194B;' />
<rect x='126.96' y='108.91' width='6.95' height='2.48' style='stroke-width: 1.07; stroke: none; stroke-linecap: square; stroke-linejoin: miter; fill: #87194B;' />
<rect x='100.89' y='111.40' width='6.95' height='1.95' style='stroke-width: 1.07; stroke: none; stroke-linecap: square; stroke-linejoin: miter; fill: #87194B;' />
<rect x='570.17' y='110.72' width='6.95' height='0.68' style='stroke-width: 1.07; stroke: none; stroke-linecap: square; stroke-linejoin: miter; fill: #87194B;' />
<rect x='544.10' y='84.28' width='6.95' height='27.11' style='stroke-width: 1.07; stroke: none; stroke-linecap: square; stroke-linejoin: miter; fill: #87194B;' />
<rect x='491.95' y='111.40' width='6.95' height='22.83' style='stroke-width: 1.07; stroke: none; stroke-linecap: square; stroke-linejoin: miter; fill: #87194B;' />
<rect x='413.74' y='95.43' width='6.95' height='15.97' style='stroke-width: 1.07; stroke: none; stroke-linecap: square; stroke-linejoin: miter; fill: #87194B;' />
<rect x='74.81' y='111.40' width='6.95' height='3.25' style='stroke-width: 1.07; stroke: none; stroke-linecap: square; stroke-linejoin: miter; fill: #87194B;' />
<rect x='361.60' y='111.40' width='6.95' height='0.93' style='stroke-width: 1.07; stroke: none; stroke-linecap: square; stroke-linejoin: miter; fill: #87194B;' />
<rect x='335.53' y='45.12' width='6.95' height='66.28' style='stroke-width: 1.07; stroke: none; stroke-linecap: square; stroke-linejoin: miter; fill: #87194B;' />
<rect x='465.88' y='111.40' width='6.95' height='14.95' style='stroke-width: 1.07; stroke: none; stroke-linecap: square; stroke-linejoin: miter; fill: #87194B;' />
<rect x='387.67' y='94.23' width='6.95' height='17.16' style='stroke-width: 1.07; stroke: none; stroke-linecap: square; stroke-linejoin: miter; fill: #87194B;' />
<polyline points='166.93,108.55 170.41,108.55 ' style='stroke-width: 1.07; stroke-linecap: butt;' />
<polyline points='168.67,108.55 168.67,116.15 ' style='stroke-width: 1.07; stroke-linecap: butt;' />
<polyline points='166.93,116.15 170.41,116.15 ' style='stroke-width: 1.07; stroke-linecap: butt;' />
<polyline points='584.07,112.93 587.55,112.93 ' style='stroke-width: 1.07; stroke-linecap: butt;' />
<polyline points='585.81,112.93 585.81,119.84 ' style='stroke-width: 1.07; stroke-linecap: butt;' />
<polyline points='584.07,119.84 587.55,119.84 ' style='stroke-width: 1.07; stroke-linecap: butt;' />
<polyline points='427.65,106.89 431.12,106.89 ' style='stroke-width: 1.07; stroke-linecap: butt;' />
<polyline points='429.38,106.89 429.38,121.76 ' style='stroke-width: 1.07; stroke-linecap: butt;' />
<polyline points='427.65,121.76 431.12,121.76 ' style='stroke-width: 1.07; stroke-linecap: butt;' />
<polyline points='193.00,93.28 196.48,93.28 ' style='stroke-width: 1.07; stroke-linecap: butt;' />
<polyline points='194.74,93.28 194.74,103.43 ' style='stroke-width: 1.07; stroke-linecap: butt;' />
<polyline points='193.00,103.43 196.48,103.43 ' style='stroke-width: 1.07; stroke-linecap: butt;' />
<polyline points='505.86,104.59 509.34,104.59 ' style='stroke-width: 1.07; stroke-linecap: butt;' />
<polyline points='507.60,104.59 507.60,116.11 ' style='stroke-width: 1.07; stroke-linecap: butt;' />
<polyline points='505.86,116.11 509.34,116.11 ' style='stroke-width: 1.07; stroke-linecap: butt;' />
<polyline points='140.86,107.88 144.34,107.88 ' style='stroke-width: 1.07; stroke-linecap: butt;' />
<polyline points='142.60,107.88 142.60,115.07 ' style='stroke-width: 1.07; stroke-linecap: butt;' />
<polyline points='140.86,115.07 144.34,115.07 ' style='stroke-width: 1.07; stroke-linecap: butt;' />
<polyline points='36.58,109.48 40.05,109.48 ' style='stroke-width: 1.07; stroke-linecap: butt;' />
<polyline points='38.31,109.48 38.31,118.82 ' style='stroke-width: 1.07; stroke-linecap: butt;' />
<polyline points='36.58,118.82 40.05,118.82 ' style='stroke-width: 1.07; stroke-linecap: butt;' />
<polyline points='219.08,100.71 222.55,100.71 ' style='stroke-width: 1.07; stroke-linecap: butt;' />
<polyline points='220.81,100.71 220.81,107.58 ' style='stroke-width: 1.07; stroke-linecap: butt;' />
<polyline points='219.08,107.58 222.55,107.58 ' style='stroke-width: 1.07; stroke-linecap: butt;' />
<polyline points='245.15,113.59 248.62,113.59 ' style='stroke-width: 1.07; stroke-linecap: butt;' />
<polyline points='246.88,113.59 246.88,119.10 ' style='stroke-width: 1.07; stroke-linecap: butt;' />
<polyline points='245.15,119.10 248.62,119.10 ' style='stroke-width: 1.07; stroke-linecap: butt;' />
<polyline points='297.29,95.79 300.77,95.79 ' style='stroke-width: 1.07; stroke-linecap: butt;' />
<polyline points='299.03,95.79 299.03,102.68 ' style='stroke-width: 1.07; stroke-linecap: butt;' />
<polyline points='297.29,102.68 300.77,102.68 ' style='stroke-width: 1.07; stroke-linecap: butt;' />
<polyline points='271.22,100.16 274.69,100.16 ' style='stroke-width: 1.07; stroke-linecap: butt;' />
<polyline points='272.96,100.16 272.96,106.11 ' style='stroke-width: 1.07; stroke-linecap: butt;' />
<polyline points='271.22,106.11 274.69,106.11 ' style='stroke-width: 1.07; stroke-linecap: butt;' />
<polyline points='114.79,111.20 118.27,111.20 ' style='stroke-width: 1.07; stroke-linecap: butt;' />
<polyline points='116.53,111.20 116.53,115.71 ' style='stroke-width: 1.07; stroke-linecap: butt;' />
<polyline points='114.79,115.71 118.27,115.71 ' style='stroke-width: 1.07; stroke-linecap: butt;' />
<polyline points='88.72,103.32 92.19,103.32 ' style='stroke-width: 1.07; stroke-linecap: butt;' />
<polyline points='90.46,103.32 90.46,107.75 ' style='stroke-width: 1.07; stroke-linecap: butt;' />
<polyline points='88.72,107.75 92.19,107.75 ' style='stroke-width: 1.07; stroke-linecap: butt;' />
<polyline points='558.00,106.19 561.48,106.19 ' style='stroke-width: 1.07; stroke-linecap: butt;' />
<polyline points='559.74,106.19 559.74,116.17 ' style='stroke-width: 1.07; stroke-linecap: butt;' />
<polyline points='558.00,116.17 561.48,116.17 ' style='stroke-width: 1.07; stroke-linecap: butt;' />
<polyline points='531.93,91.12 535.41,91.12 ' style='stroke-width: 1.07; stroke-linecap: butt;' />
<polyline points='533.67,91.12 533.67,97.59 ' style='stroke-width: 1.07; stroke-linecap: butt;' />
<polyline points='531.93,97.59 535.41,97.59 ' style='stroke-width: 1.07; stroke-linecap: butt;' />
<polyline points='479.79,117.23 483.26,117.23 ' style='stroke-width: 1.07; stroke-linecap: butt;' />
<polyline points='481.53,117.23 481.53,124.19 ' style='stroke-width: 1.07; stroke-linecap: butt;' />
<polyline points='479.79,124.19 483.26,124.19 ' style='stroke-width: 1.07; stroke-linecap: butt;' />
<polyline points='401.57,103.46 405.05,103.46 ' style='stroke-width: 1.07; stroke-linecap: butt;' />
<polyline points='403.31,103.46 403.31,110.17 ' style='stroke-width: 1.07; stroke-linecap: butt;' />
<polyline points='401.57,110.17 405.05,110.17 ' style='stroke-width: 1.07; stroke-linecap: butt;' />
<polyline points='62.65,116.64 66.12,116.64 ' style='stroke-width: 1.07; stroke-linecap: butt;' />
<polyline points='64.39,116.64 64.39,120.90 ' style='stroke-width: 1.07; stroke-linecap: butt;' />
<polyline points='62.65,120.90 66.12,120.90 ' style='stroke-width: 1.07; stroke-linecap: butt;' />
<polyline points='349.43,115.65 352.91,115.65 ' style='stroke-width: 1.07; stroke-linecap: butt;' />
<polyline points='351.17,115.65 351.17,122.46 ' style='stroke-width: 1.07; stroke-linecap: butt;' />
<polyline points='349.43,122.46 352.91,122.46 ' style='stroke-width: 1.07; stroke-linecap: butt;' />
<polyline points='323.36,85.22 326.84,85.22 ' style='stroke-width: 1.07; stroke-linecap: butt;' />
<polyline points='325.10,85.22 325.10,98.41 ' style='stroke-width: 1.07; stroke-linecap: butt;' />
<polyline points='323.36,98.41 326.84,98.41 ' style='stroke-width: 1.07; stroke-linecap: butt;' />
<polyline points='453.72,97.57 457.19,97.57 ' style='stroke-width: 1.07; stroke-linecap: butt;' />
<polyline points='455.45,97.57 455.45,107.78 ' style='stroke-width: 1.07; stroke-linecap: butt;' />
<polyline points='453.72,107.78 457.19,107.78 ' style='stroke-width: 1.07; stroke-linecap: butt;' />
<polyline points='375.50,105.89 378.98,105.89 ' style='stroke-width: 1.07; stroke-linecap: butt;' />
<polyline points='377.24,105.89 377.24,111.75 ' style='stroke-width: 1.07; stroke-linecap: butt;' />
<polyline points='375.50,111.75 378.98,111.75 ' style='stroke-width: 1.07; stroke-linecap: butt;' />
<polyline points='173.88,102.58 177.36,102.58 ' style='stroke-width: 1.07; stroke-linecap: butt;' />
<polyline points='175.62,102.58 175.62,110.17 ' style='stroke-width: 1.07; stroke-linecap: butt;' />
<polyline points='173.88,110.17 177.36,110.17 ' style='stroke-width: 1.07; stroke-linecap: butt;' />
<polyline points='591.03,117.69 594.50,117.69 ' style='stroke-width: 1.07; stroke-linecap: butt;' />
<polyline points='592.76,117.69 592.76,124.60 ' style='stroke-width: 1.07; stroke-linecap: butt;' />
<polyline points='591.03,124.60 594.50,124.60 ' style='stroke-width: 1.07; stroke-linecap: butt;' />
<polyline points='434.60,118.06 438.07,118.06 ' style='stroke-width: 1.07; stroke-linecap: butt;' />
<polyline points='436.34,118.06 436.34,132.93 ' style='stroke-width: 1.07; stroke-linecap: butt;' />
<polyline points='434.60,132.93 438.07,132.93 ' style='stroke-width: 1.07; stroke-linecap: butt;' />
<polyline points='199.96,91.54 203.43,91.54 ' style='stroke-width: 1.07; stroke-linecap: butt;' />
<polyline points='201.69,91.54 201.69,101.69 ' style='stroke-width: 1.07; stroke-linecap: butt;' />
<polyline points='199.96,101.69 203.43,101.69 ' style='stroke-width: 1.07; stroke-linecap: butt;' />
<polyline points='512.81,101.50 516.29,101.50 ' style='stroke-width: 1.07; stroke-linecap: butt;' />
<polyline points='514.55,101.50 514.55,113.02 ' style='stroke-width: 1.07; stroke-linecap: butt;' />
<polyline points='512.81,113.02 516.29,113.02 ' style='stroke-width: 1.07; stroke-linecap: butt;' />
<polyline points='147.81,109.27 151.29,109.27 ' style='stroke-width: 1.07; stroke-linecap: butt;' />
<polyline points='149.55,109.27 149.55,116.46 ' style='stroke-width: 1.07; stroke-linecap: butt;' />
<polyline points='147.81,116.46 151.29,116.46 ' style='stroke-width: 1.07; stroke-linecap: butt;' />
<polyline points='43.53,107.55 47.00,107.55 ' style='stroke-width: 1.07; stroke-linecap: butt;' />
<polyline points='45.27,107.55 45.27,116.89 ' style='stroke-width: 1.07; stroke-linecap: butt;' />
<polyline points='43.53,116.89 47.00,116.89 ' style='stroke-width: 1.07; stroke-linecap: butt;' />
<polyline points='226.03,96.16 229.50,96.16 ' style='stroke-width: 1.07; stroke-linecap: butt;' />
<polyline points='227.77,96.16 227.77,103.01 ' style='stroke-width: 1.07; stroke-linecap: butt;' />
<polyline points='226.03,103.01 229.50,103.01 ' style='stroke-width: 1.07; stroke-linecap: butt;' />
<polyline points='252.10,112.79 255.57,112.79 ' style='stroke-width: 1.07; stroke-linecap: butt;' />
<polyline points='253.84,112.79 253.84,118.30 ' style='stroke-width: 1.07; stroke-linecap: butt;' />
<polyline points='252.10,118.30 255.57,118.30 ' style='stroke-width: 1.07; stroke-linecap: butt;' />
<polyline points='304.24,97.86 307.72,97.86 ' style='stroke-width: 1.07; stroke-linecap: butt;' />
<polyline points='305.98,97.86 305.98,104.76 ' style='stroke-width: 1.07; stroke-linecap: butt;' />
<polyline points='304.24,104.76 307.72,104.76 ' style='stroke-width: 1.07; stroke-linecap: butt;' />
<polyline points='278.17,120.84 281.65,120.84 ' style='stroke-width: 1.07; stroke-linecap: butt;' />
<polyline points='279.91,120.84 279.91,126.85 ' style='stroke-width: 1.07; stroke-linecap: butt;' />
<polyline points='278.17,126.85 281.65,126.85 ' style='stroke-width: 1.07; stroke-linecap: butt;' />
<polyline points='121.74,114.61 125.22,114.61 ' style='stroke-width: 1.07; stroke-linecap: butt;' />
<polyline points='123.48,114.61 123.48,119.12 ' style='stroke-width: 1.07; stroke-linecap: butt;' />
<polyline points='121.74,119.12 125.22,119.12 ' style='stroke-width: 1.07; stroke-linecap: butt;' />
<polyline points='95.67,104.61 99.15,104.61 ' style='stroke-width: 1.07; stroke-linecap: butt;' />
<polyline points='97.41,104.61 97.41,109.04 ' style='stroke-width: 1.07; stroke-linecap: butt;' />
<polyline points='95.67,109.04 99.15,109.04 ' style='stroke-width: 1.07; stroke-linecap: butt;' />
<polyline points='564.95,109.10 568.43,109.10 ' style='stroke-width: 1.07; stroke-linecap: butt;' />
<polyline points='566.69,109.10 566.69,119.07 ' style='stroke-width: 1.07; stroke-linecap: butt;' />
<polyline points='564.95,119.07 568.43,119.07 ' style='stroke-width: 1.07; stroke-linecap: butt;' />
<polyline points='538.88,88.18 542.36,88.18 ' style='stroke-width: 1.07; stroke-linecap: butt;' />
<polyline points='540.62,88.18 540.62,94.63 ' style='stroke-width: 1.07; stroke-linecap: butt;' />
<polyline points='538.88,94.63 542.36,94.63 ' style='stroke-width: 1.07; stroke-linecap: butt;' />
<polyline points='486.74,117.51 490.22,117.51 ' style='stroke-width: 1.07; stroke-linecap: butt;' />
<polyline points='488.48,117.51 488.48,124.47 ' style='stroke-width: 1.07; stroke-linecap: butt;' />
<polyline points='486.74,124.47 490.22,124.47 ' style='stroke-width: 1.07; stroke-linecap: butt;' />
<polyline points='408.53,113.07 412.00,113.07 ' style='stroke-width: 1.07; stroke-linecap: butt;' />
<polyline points='410.26,113.07 410.26,119.78 ' style='stroke-width: 1.07; stroke-linecap: butt;' />
<polyline points='408.53,119.78 412.00,119.78 ' style='stroke-width: 1.07; stroke-linecap: butt;' />
<polyline points='69.60,113.27 73.08,113.27 ' style='stroke-width: 1.07; stroke-linecap: butt;' />
<polyline points='71.34,113.27 71.34,117.53 ' style='stroke-width: 1.07; stroke-linecap: butt;' />
<polyline points='69.60,117.53 73.08,117.53 ' style='stroke-width: 1.07; stroke-linecap: butt;' />
<polyline points='356.38,111.62 359.86,111.62 ' style='stroke-width: 1.07; stroke-linecap: butt;' />
<polyline points='358.12,111.62 358.12,118.43 ' style='stroke-width: 1.07; stroke-linecap: butt;' />
<polyline points='356.38,118.43 359.86,118.43 ' style='stroke-width: 1.07; stroke-linecap: butt;' />
<polyline points='330.31,70.33 333.79,70.33 ' style='stroke-width: 1.07; stroke-linecap: butt;' />
<polyline points='332.05,70.33 332.05,83.42 ' style='stroke-width: 1.07; stroke-linecap: butt;' />
<polyline points='330.31,83.42 333.79,83.42 ' style='stroke-width: 1.07; stroke-linecap: butt;' />
<polyline points='460.67,112.13 464.15,112.13 ' style='stroke-width: 1.07; stroke-linecap: butt;' />
<polyline points='462.41,112.13 462.41,122.35 ' style='stroke-width: 1.07; stroke-linecap: butt;' />
<polyline points='460.67,122.35 464.15,122.35 ' style='stroke-width: 1.07; stroke-linecap: butt;' />
<polyline points='382.46,99.34 385.93,99.34 ' style='stroke-width: 1.07; stroke-linecap: butt;' />
<polyline points='384.19,99.34 384.19,105.20 ' style='stroke-width: 1.07; stroke-linecap: butt;' />
<polyline points='382.46,105.20 385.93,105.20 ' style='stroke-width: 1.07; stroke-linecap: butt;' />
<polyline points='180.84,90.72 184.31,90.72 ' style='stroke-width: 1.07; stroke-linecap: butt;' />
<polyline points='182.58,90.72 182.58,98.30 ' style='stroke-width: 1.07; stroke-linecap: butt;' />
<polyline points='180.84,98.30 184.31,98.30 ' style='stroke-width: 1.07; stroke-linecap: butt;' />
<polyline points='597.98,107.72 601.45,107.72 ' style='stroke-width: 1.07; stroke-linecap: butt;' />
<polyline points='599.72,107.72 599.72,114.63 ' style='stroke-width: 1.07; stroke-linecap: butt;' />
<polyline points='597.98,114.63 601.45,114.63 ' style='stroke-width: 1.07; stroke-linecap: butt;' />
<polyline points='441.55,96.17 445.03,96.17 ' style='stroke-width: 1.07; stroke-linecap: butt;' />
<polyline points='443.29,96.17 443.29,111.02 ' style='stroke-width: 1.07; stroke-linecap: butt;' />
<polyline points='441.55,111.02 445.03,111.02 ' style='stroke-width: 1.07; stroke-linecap: butt;' />
<polyline points='206.91,96.11 210.38,96.11 ' style='stroke-width: 1.07; stroke-linecap: butt;' />
<polyline points='208.65,96.11 208.65,106.27 ' style='stroke-width: 1.07; stroke-linecap: butt;' />
<polyline points='206.91,106.27 210.38,106.27 ' style='stroke-width: 1.07; stroke-linecap: butt;' />
<polyline points='519.76,105.61 523.24,105.61 ' style='stroke-width: 1.07; stroke-linecap: butt;' />
<polyline points='521.50,105.61 521.50,117.13 ' style='stroke-width: 1.07; stroke-linecap: butt;' />
<polyline points='519.76,117.13 523.24,117.13 ' style='stroke-width: 1.07; stroke-linecap: butt;' />
<polyline points='154.77,112.76 158.24,112.76 ' style='stroke-width: 1.07; stroke-linecap: butt;' />
<polyline points='156.50,112.76 156.50,119.95 ' style='stroke-width: 1.07; stroke-linecap: butt;' />
<polyline points='154.77,119.95 158.24,119.95 ' style='stroke-width: 1.07; stroke-linecap: butt;' />
<polyline points='50.48,105.32 53.96,105.32 ' style='stroke-width: 1.07; stroke-linecap: butt;' />
<polyline points='52.22,105.32 52.22,114.66 ' style='stroke-width: 1.07; stroke-linecap: butt;' />
<polyline points='50.48,114.66 53.96,114.66 ' style='stroke-width: 1.07; stroke-linecap: butt;' />
<polyline points='232.98,88.73 236.46,88.73 ' style='stroke-width: 1.07; stroke-linecap: butt;' />
<polyline points='234.72,88.73 234.72,95.58 ' style='stroke-width: 1.07; stroke-linecap: butt;' />
<polyline points='232.98,95.58 236.46,95.58 ' style='stroke-width: 1.07; stroke-linecap: butt;' />
<polyline points='259.05,84.94 262.53,84.94 ' style='stroke-width: 1.07; stroke-linecap: butt;' />
<polyline points='260.79,84.94 260.79,90.45 ' style='stroke-width: 1.07; stroke-linecap: butt;' />
<polyline points='259.05,90.45 262.53,90.45 ' style='stroke-width: 1.07; stroke-linecap: butt;' />
<polyline points='311.19,93.20 314.67,93.20 ' style='stroke-width: 1.07; stroke-linecap: butt;' />
<polyline points='312.93,93.20 312.93,100.08 ' style='stroke-width: 1.07; stroke-linecap: butt;' />
<polyline points='311.19,100.08 314.67,100.08 ' style='stroke-width: 1.07; stroke-linecap: butt;' />
<polyline points='285.12,88.88 288.60,88.88 ' style='stroke-width: 1.07; stroke-linecap: butt;' />
<polyline points='286.86,88.88 286.86,94.81 ' style='stroke-width: 1.07; stroke-linecap: butt;' />
<polyline points='285.12,94.81 288.60,94.81 ' style='stroke-width: 1.07; stroke-linecap: butt;' />
<polyline points='128.69,106.66 132.17,106.66 ' style='stroke-width: 1.07; stroke-linecap: butt;' />
<polyline points='130.43,106.66 130.43,111.16 ' style='stroke-width: 1.07; stroke-linecap: butt;' />
<polyline points='128.69,111.16 132.17,111.16 ' style='stroke-width: 1.07; stroke-linecap: butt;' />
<polyline points='102.62,111.12 106.10,111.12 ' style='stroke-width: 1.07; stroke-linecap: butt;' />
<polyline points='104.36,111.12 104.36,115.57 ' style='stroke-width: 1.07; stroke-linecap: butt;' />
<polyline points='102.62,115.57 106.10,115.57 ' style='stroke-width: 1.07; stroke-linecap: butt;' />
<polyline points='571.91,105.73 575.38,105.73 ' style='stroke-width: 1.07; stroke-linecap: butt;' />
<polyline points='573.64,105.73 573.64,115.71 ' style='stroke-width: 1.07; stroke-linecap: butt;' />
<polyline points='571.91,115.71 575.38,115.71 ' style='stroke-width: 1.07; stroke-linecap: butt;' />
<polyline points='545.84,81.06 549.31,81.06 ' style='stroke-width: 1.07; stroke-linecap: butt;' />
<polyline points='547.57,81.06 547.57,87.51 ' style='stroke-width: 1.07; stroke-linecap: butt;' />
<polyline points='545.84,87.51 549.31,87.51 ' style='stroke-width: 1.07; stroke-linecap: butt;' />
<polyline points='493.69,130.74 497.17,130.74 ' style='stroke-width: 1.07; stroke-linecap: butt;' />
<polyline points='495.43,130.74 495.43,137.71 ' style='stroke-width: 1.07; stroke-linecap: butt;' />
<polyline points='493.69,137.71 497.17,137.71 ' style='stroke-width: 1.07; stroke-linecap: butt;' />
<polyline points='415.48,92.07 418.95,92.07 ' style='stroke-width: 1.07; stroke-linecap: butt;' />
<polyline points='417.22,92.07 417.22,98.78 ' style='stroke-width: 1.07; stroke-linecap: butt;' />
<polyline points='415.48,98.78 418.95,98.78 ' style='stroke-width: 1.07; stroke-linecap: butt;' />
<polyline points='76.55,112.51 80.03,112.51 ' style='stroke-width: 1.07; stroke-linecap: butt;' />
<polyline points='78.29,112.51 78.29,116.77 ' style='stroke-width: 1.07; stroke-linecap: butt;' />
<polyline points='76.55,116.77 80.03,116.77 ' style='stroke-width: 1.07; stroke-linecap: butt;' />
<polyline points='363.34,108.92 366.81,108.92 ' style='stroke-width: 1.07; stroke-linecap: butt;' />
<polyline points='365.07,108.92 365.07,115.73 ' style='stroke-width: 1.07; stroke-linecap: butt;' />
<polyline points='363.34,115.73 366.81,115.73 ' style='stroke-width: 1.07; stroke-linecap: butt;' />
<polyline points='337.26,38.61 340.74,38.61 ' style='stroke-width: 1.07; stroke-linecap: butt;' />
<polyline points='339.00,38.61 339.00,51.62 ' style='stroke-width: 1.07; stroke-linecap: butt;' />
<polyline points='337.26,51.62 340.74,51.62 ' style='stroke-width: 1.07; stroke-linecap: butt;' />
<polyline points='467.62,121.24 471.10,121.24 ' style='stroke-width: 1.07; stroke-linecap: butt;' />
<polyline points='469.36,121.24 469.36,131.46 ' style='stroke-width: 1.07; stroke-linecap: butt;' />
<polyline points='467.62,131.46 471.10,131.46 ' style='stroke-width: 1.07; stroke-linecap: butt;' />
<polyline points='389.41,91.31 392.88,91.31 ' style='stroke-width: 1.07; stroke-linecap: butt;' />
<polyline points='391.15,91.31 391.15,97.16 ' style='stroke-width: 1.07; stroke-linecap: butt;' />
<polyline points='389.41,97.16 392.88,97.16 ' style='stroke-width: 1.07; stroke-linecap: butt;' />
<text x='168.67' y='121.75' text-anchor='middle' style='font-size: 18.02px; font-family: Arial;' textLength='5.72px' lengthAdjust='spacingAndGlyphs'> </text>
<text x='585.81' y='125.44' text-anchor='middle' style='font-size: 18.02px; font-family: Arial;' textLength='5.72px' lengthAdjust='spacingAndGlyphs'> </text>
<text x='429.38' y='127.36' text-anchor='middle' style='font-size: 18.02px; font-family: Arial;' textLength='5.72px' lengthAdjust='spacingAndGlyphs'> </text>
<text x='194.74' y='96.94' text-anchor='middle' style='font-size: 18.02px; font-family: Arial;' textLength='9.01px' lengthAdjust='spacingAndGlyphs'>*</text>
<text x='507.60' y='98.98' text-anchor='middle' style='font-size: 18.02px; font-family: Arial;' textLength='5.72px' lengthAdjust='spacingAndGlyphs'> </text>
<text x='142.60' y='120.68' text-anchor='middle' style='font-size: 18.02px; font-family: Arial;' textLength='5.72px' lengthAdjust='spacingAndGlyphs'> </text>
<text x='38.31' y='124.43' text-anchor='middle' style='font-size: 18.02px; font-family: Arial;' textLength='5.72px' lengthAdjust='spacingAndGlyphs'> </text>
<text x='220.81' y='95.11' text-anchor='middle' style='font-size: 18.02px; font-family: Arial;' textLength='5.72px' lengthAdjust='spacingAndGlyphs'> </text>
<text x='246.88' y='124.70' text-anchor='middle' style='font-size: 18.02px; font-family: Arial;' textLength='5.72px' lengthAdjust='spacingAndGlyphs'> </text>
<text x='299.03' y='99.44' text-anchor='middle' style='font-size: 18.02px; font-family: Arial;' textLength='9.01px' lengthAdjust='spacingAndGlyphs'>*</text>
<text x='272.96' y='103.81' text-anchor='middle' style='font-size: 18.02px; font-family: Arial;' textLength='9.01px' lengthAdjust='spacingAndGlyphs'>*</text>
<text x='116.53' y='121.32' text-anchor='middle' style='font-size: 18.02px; font-family: Arial;' textLength='5.72px' lengthAdjust='spacingAndGlyphs'> </text>
<text x='90.46' y='106.97' text-anchor='middle' style='font-size: 18.02px; font-family: Arial;' textLength='9.01px' lengthAdjust='spacingAndGlyphs'>*</text>
<text x='559.74' y='100.58' text-anchor='middle' style='font-size: 18.02px; font-family: Arial;' textLength='5.72px' lengthAdjust='spacingAndGlyphs'> </text>
<text x='533.67' y='94.77' text-anchor='middle' style='font-size: 18.02px; font-family: Arial;' textLength='9.01px' lengthAdjust='spacingAndGlyphs'>*</text>
<text x='481.53' y='139.05' text-anchor='middle' style='font-size: 18.02px; font-family: Arial;' textLength='9.01px' lengthAdjust='spacingAndGlyphs'>*</text>
<text x='403.31' y='97.85' text-anchor='middle' style='font-size: 18.02px; font-family: Arial;' textLength='5.72px' lengthAdjust='spacingAndGlyphs'> </text>
<text x='64.39' y='135.77' text-anchor='middle' style='font-size: 18.02px; font-family: Arial;' textLength='9.01px' lengthAdjust='spacingAndGlyphs'>*</text>
<text x='351.17' y='128.07' text-anchor='middle' style='font-size: 18.02px; font-family: Arial;' textLength='5.72px' lengthAdjust='spacingAndGlyphs'> </text>
<text x='325.10' y='88.88' text-anchor='middle' style='font-size: 18.02px; font-family: Arial;' textLength='9.01px' lengthAdjust='spacingAndGlyphs'>*</text>
<text x='455.45' y='91.96' text-anchor='middle' style='font-size: 18.02px; font-family: Arial;' textLength='5.72px' lengthAdjust='spacingAndGlyphs'> </text>
<text x='377.24' y='100.28' text-anchor='middle' style='font-size: 18.02px; font-family: Arial;' textLength='5.72px' lengthAdjust='spacingAndGlyphs'> </text>
<text x='175.62' y='96.98' text-anchor='middle' style='font-size: 18.02px; font-family: Arial;' textLength='5.72px' lengthAdjust='spacingAndGlyphs'> </text>
<text x='592.76' y='139.46' text-anchor='middle' style='font-size: 18.02px; font-family: Arial;' textLength='9.01px' lengthAdjust='spacingAndGlyphs'>*</text>
<text x='436.34' y='138.53' text-anchor='middle' style='font-size: 18.02px; font-family: Arial;' textLength='5.72px' lengthAdjust='spacingAndGlyphs'> </text>
<text x='201.69' y='95.19' text-anchor='middle' style='font-size: 18.02px; font-family: Arial;' textLength='9.01px' lengthAdjust='spacingAndGlyphs'>*</text>
<text x='514.55' y='95.89' text-anchor='middle' style='font-size: 18.02px; font-family: Arial;' textLength='5.72px' lengthAdjust='spacingAndGlyphs'> </text>
<text x='149.55' y='122.06' text-anchor='middle' style='font-size: 18.02px; font-family: Arial;' textLength='5.72px' lengthAdjust='spacingAndGlyphs'> </text>
<text x='45.27' y='122.49' text-anchor='middle' style='font-size: 18.02px; font-family: Arial;' textLength='5.72px' lengthAdjust='spacingAndGlyphs'> </text>
<text x='227.77' y='99.81' text-anchor='middle' style='font-size: 18.02px; font-family: Arial;' textLength='9.01px' lengthAdjust='spacingAndGlyphs'>*</text>
<text x='253.84' y='123.90' text-anchor='middle' style='font-size: 18.02px; font-family: Arial;' textLength='5.72px' lengthAdjust='spacingAndGlyphs'> </text>
<text x='305.98' y='101.52' text-anchor='middle' style='font-size: 18.02px; font-family: Arial;' textLength='9.01px' lengthAdjust='spacingAndGlyphs'>*</text>
<text x='279.91' y='141.71' text-anchor='middle' style='font-size: 18.02px; font-family: Arial;' textLength='9.01px' lengthAdjust='spacingAndGlyphs'>*</text>
<text x='123.48' y='133.99' text-anchor='middle' style='font-size: 18.02px; font-family: Arial;' textLength='9.01px' lengthAdjust='spacingAndGlyphs'>*</text>
<text x='97.41' y='99.00' text-anchor='middle' style='font-size: 18.02px; font-family: Arial;' textLength='5.72px' lengthAdjust='spacingAndGlyphs'> </text>
<text x='566.69' y='124.68' text-anchor='middle' style='font-size: 18.02px; font-family: Arial;' textLength='5.72px' lengthAdjust='spacingAndGlyphs'> </text>
<text x='540.62' y='91.83' text-anchor='middle' style='font-size: 18.02px; font-family: Arial;' textLength='9.01px' lengthAdjust='spacingAndGlyphs'>*</text>
<text x='488.48' y='139.34' text-anchor='middle' style='font-size: 18.02px; font-family: Arial;' textLength='9.01px' lengthAdjust='spacingAndGlyphs'>*</text>
<text x='410.26' y='125.39' text-anchor='middle' style='font-size: 18.02px; font-family: Arial;' textLength='5.72px' lengthAdjust='spacingAndGlyphs'> </text>
<text x='71.34' y='123.13' text-anchor='middle' style='font-size: 18.02px; font-family: Arial;' textLength='5.72px' lengthAdjust='spacingAndGlyphs'> </text>
<text x='358.12' y='124.04' text-anchor='middle' style='font-size: 18.02px; font-family: Arial;' textLength='5.72px' lengthAdjust='spacingAndGlyphs'> </text>
<text x='332.05' y='73.98' text-anchor='middle' style='font-size: 18.02px; font-family: Arial;' textLength='9.01px' lengthAdjust='spacingAndGlyphs'>*</text>
<text x='462.41' y='127.95' text-anchor='middle' style='font-size: 18.02px; font-family: Arial;' textLength='5.72px' lengthAdjust='spacingAndGlyphs'> </text>
<text x='384.19' y='102.99' text-anchor='middle' style='font-size: 18.02px; font-family: Arial;' textLength='9.01px' lengthAdjust='spacingAndGlyphs'>*</text>
<text x='182.58' y='94.38' text-anchor='middle' style='font-size: 18.02px; font-family: Arial;' textLength='9.01px' lengthAdjust='spacingAndGlyphs'>*</text>
<text x='599.72' y='102.11' text-anchor='middle' style='font-size: 18.02px; font-family: Arial;' textLength='5.72px' lengthAdjust='spacingAndGlyphs'> </text>
<text x='443.29' y='90.57' text-anchor='middle' style='font-size: 18.02px; font-family: Arial;' textLength='5.72px' lengthAdjust='spacingAndGlyphs'> </text>
<text x='208.65' y='90.51' text-anchor='middle' style='font-size: 18.02px; font-family: Arial;' textLength='5.72px' lengthAdjust='spacingAndGlyphs'> </text>
<text x='521.50' y='100.00' text-anchor='middle' style='font-size: 18.02px; font-family: Arial;' textLength='5.72px' lengthAdjust='spacingAndGlyphs'> </text>
<text x='156.50' y='125.56' text-anchor='middle' style='font-size: 18.02px; font-family: Arial;' textLength='5.72px' lengthAdjust='spacingAndGlyphs'> </text>
<text x='52.22' y='99.71' text-anchor='middle' style='font-size: 18.02px; font-family: Arial;' textLength='5.72px' lengthAdjust='spacingAndGlyphs'> </text>
<text x='234.72' y='92.39' text-anchor='middle' style='font-size: 18.02px; font-family: Arial;' textLength='9.01px' lengthAdjust='spacingAndGlyphs'>*</text>
<text x='260.79' y='88.60' text-anchor='middle' style='font-size: 18.02px; font-family: Arial;' textLength='9.01px' lengthAdjust='spacingAndGlyphs'>*</text>
<text x='312.93' y='96.85' text-anchor='middle' style='font-size: 18.02px; font-family: Arial;' textLength='9.01px' lengthAdjust='spacingAndGlyphs'>*</text>
<text x='286.86' y='92.53' text-anchor='middle' style='font-size: 18.02px; font-family: Arial;' textLength='9.01px' lengthAdjust='spacingAndGlyphs'>*</text>
<text x='130.43' y='101.05' text-anchor='middle' style='font-size: 18.02px; font-family: Arial;' textLength='5.72px' lengthAdjust='spacingAndGlyphs'> </text>
<text x='104.36' y='121.18' text-anchor='middle' style='font-size: 18.02px; font-family: Arial;' textLength='5.72px' lengthAdjust='spacingAndGlyphs'> </text>
<text x='573.64' y='100.12' text-anchor='middle' style='font-size: 18.02px; font-family: Arial;' textLength='5.72px' lengthAdjust='spacingAndGlyphs'> </text>
<text x='547.57' y='84.71' text-anchor='middle' style='font-size: 18.02px; font-family: Arial;' textLength='9.01px' lengthAdjust='spacingAndGlyphs'>*</text>
<text x='495.43' y='152.57' text-anchor='middle' style='font-size: 18.02px; font-family: Arial;' textLength='9.01px' lengthAdjust='spacingAndGlyphs'>*</text>
<text x='417.22' y='95.73' text-anchor='middle' style='font-size: 18.02px; font-family: Arial;' textLength='9.01px' lengthAdjust='spacingAndGlyphs'>*</text>
<text x='78.29' y='122.38' text-anchor='middle' style='font-size: 18.02px; font-family: Arial;' textLength='5.72px' lengthAdjust='spacingAndGlyphs'> </text>
<text x='365.07' y='121.33' text-anchor='middle' style='font-size: 18.02px; font-family: Arial;' textLength='5.72px' lengthAdjust='spacingAndGlyphs'> </text>
<text x='339.00' y='42.26' text-anchor='middle' style='font-size: 18.02px; font-family: Arial;' textLength='9.01px' lengthAdjust='spacingAndGlyphs'>*</text>
<text x='469.36' y='146.32' text-anchor='middle' style='font-size: 18.02px; font-family: Arial;' textLength='9.01px' lengthAdjust='spacingAndGlyphs'>*</text>
<text x='391.15' y='94.96' text-anchor='middle' style='font-size: 18.02px; font-family: Arial;' textLength='9.01px' lengthAdjust='spacingAndGlyphs'>*</text>
</g>
<g clip-path='url(#cpMC4wMHw2NzMuOTJ8MC4wMHwyNTkuMjA=)'>
<polyline points='32.23,199.47 32.23,23.32 ' style='stroke-width: 1.07; stroke-linecap: butt;' />
<text x='27.30' y='158.74' text-anchor='end' style='font-size: 8.80px; fill: #4D4D4D; font-family: Arial;' textLength='8.77px' lengthAdjust='spacingAndGlyphs'>-3</text>
<text x='27.30' y='114.60' text-anchor='end' style='font-size: 8.80px; fill: #4D4D4D; font-family: Arial;' textLength='5.59px' lengthAdjust='spacingAndGlyphs'>0</text>
<text x='27.30' y='70.46' text-anchor='end' style='font-size: 8.80px; fill: #4D4D4D; font-family: Arial;' textLength='5.59px' lengthAdjust='spacingAndGlyphs'>3</text>
<polyline points='29.49,155.54 32.23,155.54 ' style='stroke-width: 1.07; stroke: #333333; stroke-linecap: butt;' />
<polyline points='29.49,111.40 32.23,111.40 ' style='stroke-width: 1.07; stroke: #333333; stroke-linecap: butt;' />
<polyline points='29.49,67.25 32.23,67.25 ' style='stroke-width: 1.07; stroke: #333333; stroke-linecap: butt;' />
<polyline points='32.23,199.47 605.80,199.47 ' style='stroke-width: 1.07; stroke-linecap: butt;' />
<polyline points='45.27,202.21 45.27,199.47 ' style='stroke-width: 1.07; stroke: #333333; stroke-linecap: butt;' />
<polyline points='71.34,202.21 71.34,199.47 ' style='stroke-width: 1.07; stroke: #333333; stroke-linecap: butt;' />
<polyline points='97.41,202.21 97.41,199.47 ' style='stroke-width: 1.07; stroke: #333333; stroke-linecap: butt;' />
<polyline points='123.48,202.21 123.48,199.47 ' style='stroke-width: 1.07; stroke: #333333; stroke-linecap: butt;' />
<polyline points='149.55,202.21 149.55,199.47 ' style='stroke-width: 1.07; stroke: #333333; stroke-linecap: butt;' />
<polyline points='175.62,202.21 175.62,199.47 ' style='stroke-width: 1.07; stroke: #333333; stroke-linecap: butt;' />
<polyline points='201.69,202.21 201.69,199.47 ' style='stroke-width: 1.07; stroke: #333333; stroke-linecap: butt;' />
<polyline points='227.77,202.21 227.77,199.47 ' style='stroke-width: 1.07; stroke: #333333; stroke-linecap: butt;' />
<polyline points='253.84,202.21 253.84,199.47 ' style='stroke-width: 1.07; stroke: #333333; stroke-linecap: butt;' />
<polyline points='279.91,202.21 279.91,199.47 ' style='stroke-width: 1.07; stroke: #333333; stroke-linecap: butt;' />
<polyline points='305.98,202.21 305.98,199.47 ' style='stroke-width: 1.07; stroke: #333333; stroke-linecap: butt;' />
<polyline points='332.05,202.21 332.05,199.47 ' style='stroke-width: 1.07; stroke: #333333; stroke-linecap: butt;' />
<polyline points='358.12,202.21 358.12,199.47 ' style='stroke-width: 1.07; stroke: #333333; stroke-linecap: butt;' />
<polyline points='384.19,202.21 384.19,199.47 ' style='stroke-width: 1.07; stroke: #333333; stroke-linecap: butt;' />
<polyline points='410.26,202.21 410.26,199.47 ' style='stroke-width: 1.07; stroke: #333333; stroke-linecap: butt;' />
<polyline points='436.34,202.21 436.34,199.47 ' style='stroke-width: 1.07; stroke: #333333; stroke-linecap: butt;' />
<polyline points='462.41,202.21 462.41,199.47 ' style='stroke-width: 1.07; stroke: #333333; stroke-linecap: butt;' />
<polyline points='488.48,202.21 488.48,199.47 ' style='stroke-width: 1.07; stroke: #333333; stroke-linecap: butt;' />
<polyline points='514.55,202.21 514.55,199.47 ' style='stroke-width: 1.07; stroke: #333333; stroke-linecap: butt;' />
<polyline points='540.62,202.21 540.62,199.47 ' style='stroke-width: 1.07; stroke: #333333; stroke-linecap: butt;' />
<polyline points='566.69,202.21 566.69,199.47 ' style='stroke-width: 1.07; stroke: #333333; stroke-linecap: butt;' />
<polyline points='592.76,202.21 592.76,199.47 ' style='stroke-width: 1.07; stroke: #333333; stroke-linecap: butt;' />
<text transform='translate(50.18,208.53) rotate(-50)' text-anchor='end' style='font-size: 8.80px; fill: #4D4D4D; font-family: Arial;' textLength='37.01px' lengthAdjust='spacingAndGlyphs'>AMBRA1</text>
<text transform='translate(76.25,208.53) rotate(-50)' text-anchor='end' style='font-size: 8.80px; fill: #4D4D4D; font-family: Arial;' textLength='28.71px' lengthAdjust='spacingAndGlyphs'>ATG13</text>
<text transform='translate(102.32,208.53) rotate(-50)' text-anchor='end' style='font-size: 8.80px; fill: #4D4D4D; font-family: Arial;' textLength='28.71px' lengthAdjust='spacingAndGlyphs'>ATG14</text>
<text transform='translate(128.39,208.53) rotate(-50)' text-anchor='end' style='font-size: 8.80px; fill: #4D4D4D; font-family: Arial;' textLength='29.91px' lengthAdjust='spacingAndGlyphs'>BECN1</text>
<text transform='translate(154.47,208.53) rotate(-50)' text-anchor='end' style='font-size: 8.80px; fill: #4D4D4D; font-family: Arial;' textLength='30.25px' lengthAdjust='spacingAndGlyphs'>CDC37</text>
<text transform='translate(180.54,208.53) rotate(-50)' text-anchor='end' style='font-size: 8.80px; fill: #4D4D4D; font-family: Arial;' textLength='39.95px' lengthAdjust='spacingAndGlyphs'>CLEC16A</text>
<text transform='translate(206.61,208.53) rotate(-50)' text-anchor='end' style='font-size: 8.80px; fill: #4D4D4D; font-family: Arial;' textLength='30.84px' lengthAdjust='spacingAndGlyphs'>HDAC6</text>
<text transform='translate(232.68,208.53) rotate(-50)' text-anchor='end' style='font-size: 8.80px; fill: #4D4D4D; font-family: Arial;' textLength='29.35px' lengthAdjust='spacingAndGlyphs'>HTRA2</text>
<text transform='translate(258.75,208.53) rotate(-50)' text-anchor='end' style='font-size: 8.80px; fill: #4D4D4D; font-family: Arial;' textLength='24.83px' lengthAdjust='spacingAndGlyphs'>MFN2</text>
<text transform='translate(284.82,208.53) rotate(-50)' text-anchor='end' style='font-size: 8.80px; fill: #4D4D4D; font-family: Arial;' textLength='24.18px' lengthAdjust='spacingAndGlyphs'>OPTN</text>
<text transform='translate(310.89,208.53) rotate(-50)' text-anchor='end' style='font-size: 8.80px; fill: #4D4D4D; font-family: Arial;' textLength='40.43px' lengthAdjust='spacingAndGlyphs'>PINK1-AS</text>
<text transform='translate(336.96,208.53) rotate(-50)' text-anchor='end' style='font-size: 8.80px; fill: #4D4D4D; font-family: Arial;' textLength='23.77px' lengthAdjust='spacingAndGlyphs'>PRKN</text>
<text transform='translate(363.04,208.53) rotate(-50)' text-anchor='end' style='font-size: 8.80px; fill: #4D4D4D; font-family: Arial;' textLength='28.94px' lengthAdjust='spacingAndGlyphs'>RNF41</text>
<text transform='translate(389.11,208.53) rotate(-50)' text-anchor='end' style='font-size: 8.80px; fill: #4D4D4D; font-family: Arial;' textLength='36.38px' lengthAdjust='spacingAndGlyphs'>SMURF1</text>
<text transform='translate(415.18,208.53) rotate(-50)' text-anchor='end' style='font-size: 8.80px; fill: #4D4D4D; font-family: Arial;' textLength='36.66px' lengthAdjust='spacingAndGlyphs'>SQSTM1</text>
<text transform='translate(441.25,208.53) rotate(-50)' text-anchor='end' style='font-size: 8.80px; fill: #4D4D4D; font-family: Arial;' textLength='26.91px' lengthAdjust='spacingAndGlyphs'>TIGAR</text>
<text transform='translate(467.32,208.53) rotate(-50)' text-anchor='end' style='font-size: 8.80px; fill: #4D4D4D; font-family: Arial;' textLength='33.07px' lengthAdjust='spacingAndGlyphs'>TOMM7</text>
<text transform='translate(493.39,208.53) rotate(-50)' text-anchor='end' style='font-size: 8.80px; fill: #4D4D4D; font-family: Arial;' textLength='21.87px' lengthAdjust='spacingAndGlyphs'>TP53</text>
<text transform='translate(519.46,208.53) rotate(-50)' text-anchor='end' style='font-size: 8.80px; fill: #4D4D4D; font-family: Arial;' textLength='22.69px' lengthAdjust='spacingAndGlyphs'>TSC2</text>
<text transform='translate(545.54,208.53) rotate(-50)' text-anchor='end' style='font-size: 8.80px; fill: #4D4D4D; font-family: Arial;' textLength='28.52px' lengthAdjust='spacingAndGlyphs'>USP30</text>
<text transform='translate(571.61,208.53) rotate(-50)' text-anchor='end' style='font-size: 8.80px; fill: #4D4D4D; font-family: Arial;' textLength='34.24px' lengthAdjust='spacingAndGlyphs'>VPS13C</text>
<text transform='translate(597.68,208.53) rotate(-50)' text-anchor='end' style='font-size: 8.80px; fill: #4D4D4D; font-family: Arial;' textLength='34.88px' lengthAdjust='spacingAndGlyphs'>VPS13D</text>
<text transform='translate(13.50,111.40) rotate(-90)' text-anchor='middle' style='font-size: 11.00px; font-family: Arial;' textLength='174.11px' lengthAdjust='spacingAndGlyphs'>log2 Fold Change relative to D0</text>
<rect x='616.76' y='72.10' width='51.68' height='78.59' style='stroke-width: 1.07; stroke: none; fill: #FFFFFF;' />
<text x='622.24' y='86.75' style='font-size: 11.00px; font-family: Arial;' textLength='20.23px' lengthAdjust='spacingAndGlyphs'>day</text>
<rect x='622.95' y='94.08' width='15.86' height='15.86' style='stroke-width: 1.07; stroke: none; stroke-linecap: square; stroke-linejoin: miter; fill: #FFB1C9;' />
<rect x='622.95' y='111.36' width='15.86' height='15.86' style='stroke-width: 1.07; stroke: none; stroke-linecap: square; stroke-linejoin: miter; fill: #D8367D;' />
<rect x='622.95' y='128.64' width='15.86' height='15.86' style='stroke-width: 1.07; stroke: none; stroke-linecap: square; stroke-linejoin: miter; fill: #87194B;' />
<text x='645.00' y='105.22' style='font-size: 8.80px; font-family: Arial;' textLength='12.37px' lengthAdjust='spacingAndGlyphs'>D2</text>
<text x='645.00' y='122.50' style='font-size: 8.80px; font-family: Arial;' textLength='12.37px' lengthAdjust='spacingAndGlyphs'>D5</text>
<text x='645.00' y='139.78' style='font-size: 8.80px; font-family: Arial;' textLength='17.96px' lengthAdjust='spacingAndGlyphs'>D15</text>
<text x='32.23' y='15.10' style='font-size: 13.20px; font-family: Arial;' textLength='70.75px' lengthAdjust='spacingAndGlyphs'>mitophagy</text>
</g>
</svg>
