<?xml version='1.0' encoding='UTF-8' ?>
<svg xmlns='http://www.w3.org/2000/svg' xmlns:xlink='http://www.w3.org/1999/xlink' class='svglite' width='276.48pt' height='259.20pt' viewBox='0 0 276.48 259.20'>
<defs>
  <style type='text/css'><![CDATA[
    .svglite line, .svglite polyline, .svglite polygon, .svglite path, .svglite rect, .svglite circle {
      fill: none;
      stroke: #000000;
      stroke-linecap: round;
      stroke-linejoin: round;
      stroke-miterlimit: 10.00;
    }
  ]]></style>
</defs>
<rect width='100%' height='100%' style='stroke: none; fill: #FFFFFF;'/>
<defs>
  <clipPath id='cpMC4wMHwyNzYuNDh8MC4wMHwyNTkuMjA='>
    <rect x='0.00' y='0.00' width='276.48' height='259.20' />
  </clipPath>
</defs>
<g clip-path='url(#cpMC4wMHwyNzYuNDh8MC4wMHwyNTkuMjA=)'>
<rect x='-0.000000000000032' y='0.00' width='276.48' height='259.20' style='stroke-width: 1.07; stroke: #FFFFFF; fill: #FFFFFF;' />
</g>
<defs>
  <clipPath id='cpMzIuMjN8MjEzLjk1fDIzLjMyfDIwMC43Nw=='>
    <rect x='32.23' y='23.32' width='181.72' height='177.44' />
  </clipPath>
</defs>
<g clip-path='url(#cpMzIuMjN8MjEzLjk1fDIzLjMyfDIwMC43Nw==)'>
<rect x='32.23' y='23.32' width='181.72' height='177.44' style='stroke-width: 1.07; stroke: none; fill: #FFFFFF;' />
<line x1='32.23' y1='112.04' x2='213.95' y2='112.04' style='stroke-width: 1.07; stroke: #333333; stroke-dasharray: 5.69,5.69; stroke-linecap: butt;' />
<rect x='52.22' y='112.04' width='14.54' height='7.99' style='stroke-width: 1.07; stroke: none; stroke-linecap: square; stroke-linejoin: miter; fill: #C73C95;' />
<rect x='143.08' y='112.04' width='14.54' height='63.12' style='stroke-width: 1.07; stroke: none; stroke-linecap: square; stroke-linejoin: miter; fill: #C73C95;' />
<rect x='161.25' y='112.04' width='14.54' height='28.89' style='stroke-width: 1.07; stroke: none; stroke-linecap: square; stroke-linejoin: miter; fill: #C73C95;' />
<rect x='197.60' y='112.04' width='14.54' height='18.36' style='stroke-width: 1.07; stroke: none; stroke-linecap: square; stroke-linejoin: miter; fill: #C73C95;' />
<rect x='179.43' y='112.04' width='14.54' height='17.41' style='stroke-width: 1.07; stroke: none; stroke-linecap: square; stroke-linejoin: miter; fill: #C73C95;' />
<rect x='70.39' y='112.04' width='14.54' height='17.03' style='stroke-width: 1.07; stroke: none; stroke-linecap: square; stroke-linejoin: miter; fill: #C73C95;' />
<rect x='34.05' y='112.04' width='14.54' height='27.18' style='stroke-width: 1.07; stroke: none; stroke-linecap: square; stroke-linejoin: miter; fill: #C73C95;' />
<rect x='88.56' y='103.34' width='14.54' height='8.70' style='stroke-width: 1.07; stroke: none; stroke-linecap: square; stroke-linejoin: miter; fill: #C73C95;' />
<rect x='124.91' y='101.62' width='14.54' height='10.42' style='stroke-width: 1.07; stroke: none; stroke-linecap: square; stroke-linejoin: miter; fill: #C73C95;' />
<rect x='106.74' y='112.04' width='14.54' height='1.83' style='stroke-width: 1.07; stroke: none; stroke-linecap: square; stroke-linejoin: miter; fill: #C73C95;' />
<polyline points='55.85,112.86 63.12,112.86 ' style='stroke-width: 1.07; stroke-linecap: butt;' />
<polyline points='59.49,112.86 59.49,127.21 ' style='stroke-width: 1.07; stroke-linecap: butt;' />
<polyline points='55.85,127.21 63.12,127.21 ' style='stroke-width: 1.07; stroke-linecap: butt;' />
<polyline points='146.72,164.97 153.99,164.97 ' style='stroke-width: 1.07; stroke-linecap: butt;' />
<polyline points='150.35,164.97 150.35,185.37 ' style='stroke-width: 1.07; stroke-linecap: butt;' />
<polyline points='146.72,185.37 153.99,185.37 ' style='stroke-width: 1.07; stroke-linecap: butt;' />
<polyline points='164.89,137.91 172.16,137.91 ' style='stroke-width: 1.07; stroke-linecap: butt;' />
<polyline points='168.52,137.91 168.52,143.95 ' style='stroke-width: 1.07; stroke-linecap: butt;' />
<polyline points='164.89,143.95 172.16,143.95 ' style='stroke-width: 1.07; stroke-linecap: butt;' />
<polyline points='201.23,124.92 208.50,124.92 ' style='stroke-width: 1.07; stroke-linecap: butt;' />
<polyline points='204.87,124.92 204.87,135.89 ' style='stroke-width: 1.07; stroke-linecap: butt;' />
<polyline points='201.23,135.89 208.50,135.89 ' style='stroke-width: 1.07; stroke-linecap: butt;' />
<polyline points='183.06,125.71 190.33,125.71 ' style='stroke-width: 1.07; stroke-linecap: butt;' />
<polyline points='186.70,125.71 186.70,133.19 ' style='stroke-width: 1.07; stroke-linecap: butt;' />
<polyline points='183.06,133.19 190.33,133.19 ' style='stroke-width: 1.07; stroke-linecap: butt;' />
<polyline points='74.03,126.49 81.30,126.49 ' style='stroke-width: 1.07; stroke-linecap: butt;' />
<polyline points='77.66,126.49 77.66,131.65 ' style='stroke-width: 1.07; stroke-linecap: butt;' />
<polyline points='74.03,131.65 81.30,131.65 ' style='stroke-width: 1.07; stroke-linecap: butt;' />
<polyline points='37.68,133.78 44.95,133.78 ' style='stroke-width: 1.07; stroke-linecap: butt;' />
<polyline points='41.32,133.78 41.32,144.67 ' style='stroke-width: 1.07; stroke-linecap: butt;' />
<polyline points='37.68,144.67 44.95,144.67 ' style='stroke-width: 1.07; stroke-linecap: butt;' />
<polyline points='92.20,97.12 99.47,97.12 ' style='stroke-width: 1.07; stroke-linecap: butt;' />
<polyline points='95.83,97.12 95.83,109.57 ' style='stroke-width: 1.07; stroke-linecap: butt;' />
<polyline points='92.20,109.57 99.47,109.57 ' style='stroke-width: 1.07; stroke-linecap: butt;' />
<polyline points='128.54,93.86 135.81,93.86 ' style='stroke-width: 1.07; stroke-linecap: butt;' />
<polyline points='132.18,93.86 132.18,109.39 ' style='stroke-width: 1.07; stroke-linecap: butt;' />
<polyline points='128.54,109.39 135.81,109.39 ' style='stroke-width: 1.07; stroke-linecap: butt;' />
<polyline points='110.37,108.91 117.64,108.91 ' style='stroke-width: 1.07; stroke-linecap: butt;' />
<polyline points='114.01,108.91 114.01,118.83 ' style='stroke-width: 1.07; stroke-linecap: butt;' />
<polyline points='110.37,118.83 117.64,118.83 ' style='stroke-width: 1.07; stroke-linecap: butt;' />
<text x='150.35' y='200.27' text-anchor='middle' style='font-size: 18.02px; font-family: Arial;' textLength='9.01px' lengthAdjust='spacingAndGlyphs'>*</text>
<text x='168.52' y='158.86' text-anchor='middle' style='font-size: 18.02px; font-family: Arial;' textLength='9.01px' lengthAdjust='spacingAndGlyphs'>*</text>
<text x='204.87' y='150.80' text-anchor='middle' style='font-size: 18.02px; font-family: Arial;' textLength='9.01px' lengthAdjust='spacingAndGlyphs'>*</text>
<text x='186.70' y='148.10' text-anchor='middle' style='font-size: 18.02px; font-family: Arial;' textLength='9.01px' lengthAdjust='spacingAndGlyphs'>*</text>
<text x='77.66' y='146.55' text-anchor='middle' style='font-size: 18.02px; font-family: Arial;' textLength='9.01px' lengthAdjust='spacingAndGlyphs'>*</text>
<text x='41.32' y='159.57' text-anchor='middle' style='font-size: 18.02px; font-family: Arial;' textLength='9.01px' lengthAdjust='spacingAndGlyphs'>*</text>
</g>
<g clip-path='url(#cpMC4wMHwyNzYuNDh8MC4wMHwyNTkuMjA=)'>
<polyline points='32.23,200.77 32.23,23.32 ' style='stroke-width: 1.07; stroke-linecap: butt;' />
<text x='27.30' y='200.77' text-anchor='end' style='font-size: 8.80px; fill: #4D4D4D; font-family: Arial;' textLength='8.77px' lengthAdjust='spacingAndGlyphs'>-3</text>
<text x='27.30' y='172.26' text-anchor='end' style='font-size: 8.80px; fill: #4D4D4D; font-family: Arial;' textLength='8.77px' lengthAdjust='spacingAndGlyphs'>-2</text>
<text x='27.30' y='143.76' text-anchor='end' style='font-size: 8.80px; fill: #4D4D4D; font-family: Arial;' textLength='8.77px' lengthAdjust='spacingAndGlyphs'>-1</text>
<text x='27.30' y='115.25' text-anchor='end' style='font-size: 8.80px; fill: #4D4D4D; font-family: Arial;' textLength='5.59px' lengthAdjust='spacingAndGlyphs'>0</text>
<text x='27.30' y='86.75' text-anchor='end' style='font-size: 8.80px; fill: #4D4D4D; font-family: Arial;' textLength='5.59px' lengthAdjust='spacingAndGlyphs'>1</text>
<text x='27.30' y='58.24' text-anchor='end' style='font-size: 8.80px; fill: #4D4D4D; font-family: Arial;' textLength='5.59px' lengthAdjust='spacingAndGlyphs'>2</text>
<text x='27.30' y='29.74' text-anchor='end' style='font-size: 8.80px; fill: #4D4D4D; font-family: Arial;' textLength='5.59px' lengthAdjust='spacingAndGlyphs'>3</text>
<polyline points='29.49,197.56 32.23,197.56 ' style='stroke-width: 1.07; stroke: #333333; stroke-linecap: butt;' />
<polyline points='29.49,169.05 32.23,169.05 ' style='stroke-width: 1.07; stroke: #333333; stroke-linecap: butt;' />
<polyline points='29.49,140.55 32.23,140.55 ' style='stroke-width: 1.07; stroke: #333333; stroke-linecap: butt;' />
<polyline points='29.49,112.04 32.23,112.04 ' style='stroke-width: 1.07; stroke: #333333; stroke-linecap: butt;' />
<polyline points='29.49,83.54 32.23,83.54 ' style='stroke-width: 1.07; stroke: #333333; stroke-linecap: butt;' />
<polyline points='29.49,55.03 32.23,55.03 ' style='stroke-width: 1.07; stroke: #333333; stroke-linecap: butt;' />
<polyline points='29.49,26.53 32.23,26.53 ' style='stroke-width: 1.07; stroke: #333333; stroke-linecap: butt;' />
<polyline points='32.23,200.77 213.95,200.77 ' style='stroke-width: 1.07; stroke-linecap: butt;' />
<polyline points='41.32,203.51 41.32,200.77 ' style='stroke-width: 1.07; stroke: #333333; stroke-linecap: butt;' />
<polyline points='59.49,203.51 59.49,200.77 ' style='stroke-width: 1.07; stroke: #333333; stroke-linecap: butt;' />
<polyline points='77.66,203.51 77.66,200.77 ' style='stroke-width: 1.07; stroke: #333333; stroke-linecap: butt;' />
<polyline points='95.83,203.51 95.83,200.77 ' style='stroke-width: 1.07; stroke: #333333; stroke-linecap: butt;' />
<polyline points='114.01,203.51 114.01,200.77 ' style='stroke-width: 1.07; stroke: #333333; stroke-linecap: butt;' />
<polyline points='132.18,203.51 132.18,200.77 ' style='stroke-width: 1.07; stroke: #333333; stroke-linecap: butt;' />
<polyline points='150.35,203.51 150.35,200.77 ' style='stroke-width: 1.07; stroke: #333333; stroke-linecap: butt;' />
<polyline points='168.52,203.51 168.52,200.77 ' style='stroke-width: 1.07; stroke: #333333; stroke-linecap: butt;' />
<polyline points='186.70,203.51 186.70,200.77 ' style='stroke-width: 1.07; stroke: #333333; stroke-linecap: butt;' />
<polyline points='204.87,203.51 204.87,200.77 ' style='stroke-width: 1.07; stroke: #333333; stroke-linecap: butt;' />
<text transform='translate(46.23,209.82) rotate(-50)' text-anchor='end' style='font-size: 8.80px; fill: #4D4D4D; font-family: Arial;' textLength='24.97px' lengthAdjust='spacingAndGlyphs'>DNA2</text>
<text transform='translate(64.40,209.82) rotate(-50)' text-anchor='end' style='font-size: 8.80px; fill: #4D4D4D; font-family: Arial;' textLength='19.91px' lengthAdjust='spacingAndGlyphs'>LIG3</text>
<text transform='translate(82.58,209.82) rotate(-50)' text-anchor='end' style='font-size: 8.80px; fill: #4D4D4D; font-family: Arial;' textLength='33.15px' lengthAdjust='spacingAndGlyphs'>MGME1</text>
<text transform='translate(100.75,209.82) rotate(-50)' text-anchor='end' style='font-size: 8.80px; fill: #4D4D4D; font-family: Arial;' textLength='23.95px' lengthAdjust='spacingAndGlyphs'>POLG</text>
<text transform='translate(118.92,209.82) rotate(-50)' text-anchor='end' style='font-size: 8.80px; fill: #4D4D4D; font-family: Arial;' textLength='29.55px' lengthAdjust='spacingAndGlyphs'>POLG2</text>
<text transform='translate(137.09,209.82) rotate(-50)' text-anchor='end' style='font-size: 8.80px; fill: #4D4D4D; font-family: Arial;' textLength='38.74px' lengthAdjust='spacingAndGlyphs'>PRIMPOL</text>
<text transform='translate(155.26,209.82) rotate(-50)' text-anchor='end' style='font-size: 8.80px; fill: #4D4D4D; font-family: Arial;' textLength='31.44px' lengthAdjust='spacingAndGlyphs'>RRM2B</text>
<text transform='translate(173.44,209.82) rotate(-50)' text-anchor='end' style='font-size: 8.80px; fill: #4D4D4D; font-family: Arial;' textLength='28.11px' lengthAdjust='spacingAndGlyphs'>SSBP1</text>
<text transform='translate(191.61,209.82) rotate(-50)' text-anchor='end' style='font-size: 8.80px; fill: #4D4D4D; font-family: Arial;' textLength='23.23px' lengthAdjust='spacingAndGlyphs'>TFAM</text>
<text transform='translate(209.78,209.82) rotate(-50)' text-anchor='end' style='font-size: 8.80px; fill: #4D4D4D; font-family: Arial;' textLength='26.42px' lengthAdjust='spacingAndGlyphs'>TWNK</text>
<text transform='translate(13.50,112.04) rotate(-90)' text-anchor='middle' style='font-size: 11.00px; font-family: Arial;' textLength='174.11px' lengthAdjust='spacingAndGlyphs'>log2 Fold Change relative to D0</text>
<rect x='224.91' y='90.03' width='46.09' height='44.03' style='stroke-width: 1.07; stroke: none; fill: #FFFFFF;' />
<text x='230.39' y='104.67' style='font-size: 11.00px; font-family: Arial;' textLength='20.23px' lengthAdjust='spacingAndGlyphs'>day</text>
<rect x='231.10' y='112.01' width='15.86' height='15.86' style='stroke-width: 1.07; stroke: none; stroke-linecap: square; stroke-linejoin: miter; fill: #C73C95;' />
<text x='253.15' y='123.15' style='font-size: 8.80px; font-family: Arial;' textLength='12.37px' lengthAdjust='spacingAndGlyphs'>D7</text>
<text x='32.23' y='15.10' style='font-size: 13.20px; font-family: Arial;' textLength='198.57px' lengthAdjust='spacingAndGlyphs'>mitochondrial_dna_replication</text>
</g>
</svg>
