<?xml version='1.0' encoding='UTF-8' ?>
<svg xmlns='http://www.w3.org/2000/svg' xmlns:xlink='http://www.w3.org/1999/xlink' class='svglite' width='293.76pt' height='259.20pt' viewBox='0 0 293.76 259.20'>
<defs>
  <style type='text/css'><![CDATA[
    .svglite line, .svglite polyline, .svglite polygon, .svglite path, .svglite rect, .svglite circle {
      fill: none;
      stroke: #000000;
      stroke-linecap: round;
      stroke-linejoin: round;
      stroke-miterlimit: 10.00;
    }
  ]]></style>
</defs>
<rect width='100%' height='100%' style='stroke: none; fill: #FFFFFF;'/>
<defs>
  <clipPath id='cpMC4wMHwyOTMuNzZ8MC4wMHwyNTkuMjA='>
    <rect x='0.00' y='0.00' width='293.76' height='259.20' />
  </clipPath>
</defs>
<g clip-path='url(#cpMC4wMHwyOTMuNzZ8MC4wMHwyNTkuMjA=)'>
<rect x='0.00' y='0.00' width='293.76' height='259.20' style='stroke-width: 1.07; stroke: #FFFFFF; fill: #FFFFFF;' />
</g>
<defs>
  <clipPath id='cpMzIuMjN8MjMxLjIzfDIzLjMyfDIwNy4yMg=='>
    <rect x='32.23' y='23.32' width='199.00' height='183.90' />
  </clipPath>
</defs>
<g clip-path='url(#cpMzIuMjN8MjMxLjIzfDIzLjMyfDIwNy4yMg==)'>
<rect x='32.23' y='23.32' width='199.00' height='183.90' style='stroke-width: 1.07; stroke: none; fill: #FFFFFF;' />
<line x1='32.23' y1='115.27' x2='231.23' y2='115.27' style='stroke-width: 1.07; stroke: #333333; stroke-dasharray: 5.69,5.69; stroke-linecap: butt;' />
<rect x='52.13' y='51.83' width='14.47' height='63.44' style='stroke-width: 1.07; stroke: none; stroke-linecap: square; stroke-linejoin: miter; fill: #648549;' />
<rect x='70.22' y='95.02' width='14.47' height='20.25' style='stroke-width: 1.07; stroke: none; stroke-linecap: square; stroke-linejoin: miter; fill: #648549;' />
<rect x='88.31' y='115.27' width='14.47' height='12.22' style='stroke-width: 1.07; stroke: none; stroke-linecap: square; stroke-linejoin: miter; fill: #648549;' />
<rect x='214.95' y='115.27' width='14.47' height='1.68' style='stroke-width: 1.07; stroke: none; stroke-linecap: square; stroke-linejoin: miter; fill: #648549;' />
<rect x='178.77' y='115.27' width='14.47' height='5.41' style='stroke-width: 1.07; stroke: none; stroke-linecap: square; stroke-linejoin: miter; fill: #648549;' />
<rect x='142.59' y='114.94' width='14.47' height='0.33' style='stroke-width: 1.07; stroke: none; stroke-linecap: square; stroke-linejoin: miter; fill: #648549;' />
<rect x='196.86' y='115.27' width='14.47' height='5.15' style='stroke-width: 1.07; stroke: none; stroke-linecap: square; stroke-linejoin: miter; fill: #648549;' />
<rect x='34.04' y='70.96' width='14.47' height='44.31' style='stroke-width: 1.07; stroke: none; stroke-linecap: square; stroke-linejoin: miter; fill: #648549;' />
<rect x='106.40' y='115.27' width='14.47' height='12.88' style='stroke-width: 1.07; stroke: none; stroke-linecap: square; stroke-linejoin: miter; fill: #648549;' />
<rect x='160.68' y='115.27' width='14.47' height='6.95' style='stroke-width: 1.07; stroke: none; stroke-linecap: square; stroke-linejoin: miter; fill: #648549;' />
<rect x='124.50' y='115.27' width='14.47' height='12.56' style='stroke-width: 1.07; stroke: none; stroke-linecap: square; stroke-linejoin: miter; fill: #648549;' />
<polyline points='55.75,39.28 62.99,39.28 ' style='stroke-width: 1.07; stroke-linecap: butt;' />
<polyline points='59.37,39.28 59.37,64.38 ' style='stroke-width: 1.07; stroke-linecap: butt;' />
<polyline points='55.75,64.38 62.99,64.38 ' style='stroke-width: 1.07; stroke-linecap: butt;' />
<polyline points='73.84,92.12 81.08,92.12 ' style='stroke-width: 1.07; stroke-linecap: butt;' />
<polyline points='77.46,92.12 77.46,97.92 ' style='stroke-width: 1.07; stroke-linecap: butt;' />
<polyline points='73.84,97.92 81.08,97.92 ' style='stroke-width: 1.07; stroke-linecap: butt;' />
<polyline points='91.93,125.76 99.17,125.76 ' style='stroke-width: 1.07; stroke-linecap: butt;' />
<polyline points='95.55,125.76 95.55,129.23 ' style='stroke-width: 1.07; stroke-linecap: butt;' />
<polyline points='91.93,129.23 99.17,129.23 ' style='stroke-width: 1.07; stroke-linecap: butt;' />
<polyline points='218.57,115.68 225.81,115.68 ' style='stroke-width: 1.07; stroke-linecap: butt;' />
<polyline points='222.19,115.68 222.19,118.22 ' style='stroke-width: 1.07; stroke-linecap: butt;' />
<polyline points='218.57,118.22 225.81,118.22 ' style='stroke-width: 1.07; stroke-linecap: butt;' />
<polyline points='182.39,118.80 189.62,118.80 ' style='stroke-width: 1.07; stroke-linecap: butt;' />
<polyline points='186.01,118.80 186.01,122.57 ' style='stroke-width: 1.07; stroke-linecap: butt;' />
<polyline points='182.39,122.57 189.62,122.57 ' style='stroke-width: 1.07; stroke-linecap: butt;' />
<polyline points='146.21,112.80 153.44,112.80 ' style='stroke-width: 1.07; stroke-linecap: butt;' />
<polyline points='149.82,112.80 149.82,117.08 ' style='stroke-width: 1.07; stroke-linecap: butt;' />
<polyline points='146.21,117.08 153.44,117.08 ' style='stroke-width: 1.07; stroke-linecap: butt;' />
<polyline points='200.48,117.67 207.72,117.67 ' style='stroke-width: 1.07; stroke-linecap: butt;' />
<polyline points='204.10,117.67 204.10,123.18 ' style='stroke-width: 1.07; stroke-linecap: butt;' />
<polyline points='200.48,123.18 207.72,123.18 ' style='stroke-width: 1.07; stroke-linecap: butt;' />
<polyline points='37.66,64.63 44.89,64.63 ' style='stroke-width: 1.07; stroke-linecap: butt;' />
<polyline points='41.28,64.63 41.28,77.29 ' style='stroke-width: 1.07; stroke-linecap: butt;' />
<polyline points='37.66,77.29 44.89,77.29 ' style='stroke-width: 1.07; stroke-linecap: butt;' />
<polyline points='110.02,124.48 117.26,124.48 ' style='stroke-width: 1.07; stroke-linecap: butt;' />
<polyline points='113.64,124.48 113.64,131.83 ' style='stroke-width: 1.07; stroke-linecap: butt;' />
<polyline points='110.02,131.83 117.26,131.83 ' style='stroke-width: 1.07; stroke-linecap: butt;' />
<polyline points='164.30,120.84 171.53,120.84 ' style='stroke-width: 1.07; stroke-linecap: butt;' />
<polyline points='167.91,120.84 167.91,123.60 ' style='stroke-width: 1.07; stroke-linecap: butt;' />
<polyline points='164.30,123.60 171.53,123.60 ' style='stroke-width: 1.07; stroke-linecap: butt;' />
<polyline points='128.11,124.68 135.35,124.68 ' style='stroke-width: 1.07; stroke-linecap: butt;' />
<polyline points='131.73,124.68 131.73,130.98 ' style='stroke-width: 1.07; stroke-linecap: butt;' />
<polyline points='128.11,130.98 135.35,130.98 ' style='stroke-width: 1.07; stroke-linecap: butt;' />
<text x='59.37' y='42.69' text-anchor='middle' style='font-size: 18.02px; font-family: Arial;' textLength='9.01px' lengthAdjust='spacingAndGlyphs'>*</text>
<text x='77.46' y='95.53' text-anchor='middle' style='font-size: 18.02px; font-family: Arial;' textLength='9.01px' lengthAdjust='spacingAndGlyphs'>*</text>
<text x='95.55' y='144.34' text-anchor='middle' style='font-size: 18.02px; font-family: Arial;' textLength='9.01px' lengthAdjust='spacingAndGlyphs'>*</text>
<text x='186.01' y='137.68' text-anchor='middle' style='font-size: 18.02px; font-family: Arial;' textLength='9.01px' lengthAdjust='spacingAndGlyphs'>*</text>
<text x='41.28' y='68.04' text-anchor='middle' style='font-size: 18.02px; font-family: Arial;' textLength='9.01px' lengthAdjust='spacingAndGlyphs'>*</text>
<text x='113.64' y='146.94' text-anchor='middle' style='font-size: 18.02px; font-family: Arial;' textLength='9.01px' lengthAdjust='spacingAndGlyphs'>*</text>
<text x='167.91' y='138.71' text-anchor='middle' style='font-size: 18.02px; font-family: Arial;' textLength='9.01px' lengthAdjust='spacingAndGlyphs'>*</text>
<text x='131.73' y='146.09' text-anchor='middle' style='font-size: 18.02px; font-family: Arial;' textLength='9.01px' lengthAdjust='spacingAndGlyphs'>*</text>
</g>
<g clip-path='url(#cpMC4wMHwyOTMuNzZ8MC4wMHwyNTkuMjA=)'>
<polyline points='32.23,207.22 32.23,23.32 ' style='stroke-width: 1.07; stroke-linecap: butt;' />
<text x='27.30' y='166.11' text-anchor='end' style='font-size: 8.80px; fill: #4D4D4D; font-family: Arial;' textLength='8.77px' lengthAdjust='spacingAndGlyphs'>-3</text>
<text x='27.30' y='118.48' text-anchor='end' style='font-size: 8.80px; fill: #4D4D4D; font-family: Arial;' textLength='5.59px' lengthAdjust='spacingAndGlyphs'>0</text>
<text x='27.30' y='70.85' text-anchor='end' style='font-size: 8.80px; fill: #4D4D4D; font-family: Arial;' textLength='5.59px' lengthAdjust='spacingAndGlyphs'>3</text>
<polyline points='29.49,162.90 32.23,162.90 ' style='stroke-width: 1.07; stroke: #333333; stroke-linecap: butt;' />
<polyline points='29.49,115.27 32.23,115.27 ' style='stroke-width: 1.07; stroke: #333333; stroke-linecap: butt;' />
<polyline points='29.49,67.64 32.23,67.64 ' style='stroke-width: 1.07; stroke: #333333; stroke-linecap: butt;' />
<polyline points='32.23,207.22 231.23,207.22 ' style='stroke-width: 1.07; stroke-linecap: butt;' />
<polyline points='41.28,209.96 41.28,207.22 ' style='stroke-width: 1.07; stroke: #333333; stroke-linecap: butt;' />
<polyline points='59.37,209.96 59.37,207.22 ' style='stroke-width: 1.07; stroke: #333333; stroke-linecap: butt;' />
<polyline points='77.46,209.96 77.46,207.22 ' style='stroke-width: 1.07; stroke: #333333; stroke-linecap: butt;' />
<polyline points='95.55,209.96 95.55,207.22 ' style='stroke-width: 1.07; stroke: #333333; stroke-linecap: butt;' />
<polyline points='113.64,209.96 113.64,207.22 ' style='stroke-width: 1.07; stroke: #333333; stroke-linecap: butt;' />
<polyline points='131.73,209.96 131.73,207.22 ' style='stroke-width: 1.07; stroke: #333333; stroke-linecap: butt;' />
<polyline points='149.82,209.96 149.82,207.22 ' style='stroke-width: 1.07; stroke: #333333; stroke-linecap: butt;' />
<polyline points='167.91,209.96 167.91,207.22 ' style='stroke-width: 1.07; stroke: #333333; stroke-linecap: butt;' />
<polyline points='186.01,209.96 186.01,207.22 ' style='stroke-width: 1.07; stroke: #333333; stroke-linecap: butt;' />
<polyline points='204.10,209.96 204.10,207.22 ' style='stroke-width: 1.07; stroke: #333333; stroke-linecap: butt;' />
<polyline points='222.19,209.96 222.19,207.22 ' style='stroke-width: 1.07; stroke: #333333; stroke-linecap: butt;' />
<text transform='translate(46.19,216.27) rotate(-50)' text-anchor='end' style='font-size: 8.80px; fill: #4D4D4D; font-family: Arial;' textLength='23.44px' lengthAdjust='spacingAndGlyphs'>PDK1</text>
<text transform='translate(64.28,216.27) rotate(-50)' text-anchor='end' style='font-size: 8.80px; fill: #4D4D4D; font-family: Arial;' textLength='23.44px' lengthAdjust='spacingAndGlyphs'>PDK4</text>
<text transform='translate(82.37,216.27) rotate(-50)' text-anchor='end' style='font-size: 8.80px; fill: #4D4D4D; font-family: Arial;' textLength='23.44px' lengthAdjust='spacingAndGlyphs'>PDK2</text>
<text transform='translate(100.46,216.27) rotate(-50)' text-anchor='end' style='font-size: 8.80px; fill: #4D4D4D; font-family: Arial;' textLength='23.44px' lengthAdjust='spacingAndGlyphs'>PDK3</text>
<text transform='translate(118.56,216.27) rotate(-50)' text-anchor='end' style='font-size: 8.80px; fill: #4D4D4D; font-family: Arial;' textLength='22.98px' lengthAdjust='spacingAndGlyphs'>PDP1</text>
<text transform='translate(136.65,216.27) rotate(-50)' text-anchor='end' style='font-size: 8.80px; fill: #4D4D4D; font-family: Arial;' textLength='22.98px' lengthAdjust='spacingAndGlyphs'>PDP2</text>
<text transform='translate(154.74,216.27) rotate(-50)' text-anchor='end' style='font-size: 8.80px; fill: #4D4D4D; font-family: Arial;' textLength='30.31px' lengthAdjust='spacingAndGlyphs'>PDHA1</text>
<text transform='translate(172.83,216.27) rotate(-50)' text-anchor='end' style='font-size: 8.80px; fill: #4D4D4D; font-family: Arial;' textLength='24.73px' lengthAdjust='spacingAndGlyphs'>PDHB</text>
<text transform='translate(190.92,216.27) rotate(-50)' text-anchor='end' style='font-size: 8.80px; fill: #4D4D4D; font-family: Arial;' textLength='24.72px' lengthAdjust='spacingAndGlyphs'>PDHX</text>
<text transform='translate(209.01,216.27) rotate(-50)' text-anchor='end' style='font-size: 8.80px; fill: #4D4D4D; font-family: Arial;' textLength='22.59px' lengthAdjust='spacingAndGlyphs'>DLAT</text>
<text transform='translate(227.10,216.27) rotate(-50)' text-anchor='end' style='font-size: 8.80px; fill: #4D4D4D; font-family: Arial;' textLength='18.45px' lengthAdjust='spacingAndGlyphs'>DLD</text>
<text transform='translate(13.50,115.27) rotate(-90)' text-anchor='middle' style='font-size: 11.00px; font-family: Arial;' textLength='174.11px' lengthAdjust='spacingAndGlyphs'>log2 Fold Change relative to D0</text>
<rect x='242.19' y='93.26' width='46.09' height='44.03' style='stroke-width: 1.07; stroke: none; fill: #FFFFFF;' />
<text x='247.67' y='107.90' style='font-size: 11.00px; font-family: Arial;' textLength='20.23px' lengthAdjust='spacingAndGlyphs'>day</text>
<rect x='248.38' y='115.23' width='15.86' height='15.86' style='stroke-width: 1.07; stroke: none; stroke-linecap: square; stroke-linejoin: miter; fill: #648549;' />
<text x='270.43' y='126.37' style='font-size: 8.80px; font-family: Arial;' textLength='12.37px' lengthAdjust='spacingAndGlyphs'>D7</text>
<text x='32.23' y='15.10' style='font-size: 13.20px; font-family: Arial;' textLength='241.47px' lengthAdjust='spacingAndGlyphs'>pyruvate_dehydrogenase_regulation</text>
</g>
</svg>
