<?xml version='1.0' encoding='UTF-8' ?>
<svg xmlns='http://www.w3.org/2000/svg' xmlns:xlink='http://www.w3.org/1999/xlink' viewBox='0 0 311.04 259.20'>
<defs>
  <style type='text/css'><![CDATA[
    line, polyline, polygon, path, rect, circle {
      fill: none;
      stroke: #000000;
      stroke-linecap: round;
      stroke-linejoin: round;
      stroke-miterlimit: 10.00;
    }
  ]]></style>
</defs>
<rect width='100%' height='100%' style='stroke: none; fill: #FFFFFF;'/>
<rect x='0.00' y='0.000000000000057' width='311.04' height='259.20' style='stroke-width: 1.07; stroke: #FFFFFF; fill: #FFFFFF;' />
<defs>
  <clipPath id='cpMzguNTB8MjQ5LjYzfDIwMC42NHwyMy4xOQ=='>
    <rect x='38.50' y='23.19' width='211.13' height='177.46' />
  </clipPath>
</defs>
<rect x='38.50' y='23.19' width='211.13' height='177.46' style='stroke-width: 1.07; stroke: none; fill: #FFFFFF;' clip-path='url(#cpMzguNTB8MjQ5LjYzfDIwMC42NHwyMy4xOQ==)' />
<line x1='38.50' y1='111.91' x2='249.63' y2='111.91' style='stroke-width: 1.07; stroke: #333333; stroke-dasharray: 5.69,5.69; stroke-linecap: butt;' clip-path='url(#cpMzguNTB8MjQ5LjYzfDIwMC42NHwyMy4xOQ==)' />
<rect x='57.86' y='111.91' width='14.08' height='9.74' style='stroke-width: 1.07; stroke: none; stroke-linecap: square; stroke-linejoin: miter; fill: #C8611F;' clip-path='url(#cpMzguNTB8MjQ5LjYzfDIwMC42NHwyMy4xOQ==)' />
<rect x='93.05' y='104.37' width='14.08' height='7.54' style='stroke-width: 1.07; stroke: none; stroke-linecap: square; stroke-linejoin: miter; fill: #C8611F;' clip-path='url(#cpMzguNTB8MjQ5LjYzfDIwMC42NHwyMy4xOQ==)' />
<rect x='181.02' y='105.65' width='14.08' height='6.26' style='stroke-width: 1.07; stroke: none; stroke-linecap: square; stroke-linejoin: miter; fill: #C8611F;' clip-path='url(#cpMzguNTB8MjQ5LjYzfDIwMC42NHwyMy4xOQ==)' />
<rect x='163.42' y='111.91' width='14.08' height='28.39' style='stroke-width: 1.07; stroke: none; stroke-linecap: square; stroke-linejoin: miter; fill: #C8611F;' clip-path='url(#cpMzguNTB8MjQ5LjYzfDIwMC42NHwyMy4xOQ==)' />
<rect x='128.23' y='111.91' width='14.08' height='24.78' style='stroke-width: 1.07; stroke: none; stroke-linecap: square; stroke-linejoin: miter; fill: #C8611F;' clip-path='url(#cpMzguNTB8MjQ5LjYzfDIwMC42NHwyMy4xOQ==)' />
<rect x='233.80' y='50.87' width='14.08' height='61.04' style='stroke-width: 1.07; stroke: none; stroke-linecap: square; stroke-linejoin: miter; fill: #C8611F;' clip-path='url(#cpMzguNTB8MjQ5LjYzfDIwMC42NHwyMy4xOQ==)' />
<rect x='75.45' y='111.91' width='14.08' height='1.49' style='stroke-width: 1.07; stroke: none; stroke-linecap: square; stroke-linejoin: miter; fill: #C8611F;' clip-path='url(#cpMzguNTB8MjQ5LjYzfDIwMC42NHwyMy4xOQ==)' />
<rect x='145.83' y='111.91' width='14.08' height='17.38' style='stroke-width: 1.07; stroke: none; stroke-linecap: square; stroke-linejoin: miter; fill: #C8611F;' clip-path='url(#cpMzguNTB8MjQ5LjYzfDIwMC42NHwyMy4xOQ==)' />
<rect x='40.26' y='111.91' width='14.08' height='25.24' style='stroke-width: 1.07; stroke: none; stroke-linecap: square; stroke-linejoin: miter; fill: #C8611F;' clip-path='url(#cpMzguNTB8MjQ5LjYzfDIwMC42NHwyMy4xOQ==)' />
<rect x='110.64' y='103.12' width='14.08' height='8.80' style='stroke-width: 1.07; stroke: none; stroke-linecap: square; stroke-linejoin: miter; fill: #C8611F;' clip-path='url(#cpMzguNTB8MjQ5LjYzfDIwMC42NHwyMy4xOQ==)' />
<rect x='198.61' y='83.40' width='14.08' height='28.51' style='stroke-width: 1.07; stroke: none; stroke-linecap: square; stroke-linejoin: miter; fill: #C8611F;' clip-path='url(#cpMzguNTB8MjQ5LjYzfDIwMC42NHwyMy4xOQ==)' />
<rect x='216.21' y='56.65' width='14.08' height='55.26' style='stroke-width: 1.07; stroke: none; stroke-linecap: square; stroke-linejoin: miter; fill: #C8611F;' clip-path='url(#cpMzguNTB8MjQ5LjYzfDIwMC42NHwyMy4xOQ==)' />
<polyline points='61.38,117.35 68.41,117.35 ' style='stroke-width: 1.07; stroke-linecap: butt;' clip-path='url(#cpMzguNTB8MjQ5LjYzfDIwMC42NHwyMy4xOQ==)' />
<polyline points='64.89,117.35 64.89,125.95 ' style='stroke-width: 1.07; stroke-linecap: butt;' clip-path='url(#cpMzguNTB8MjQ5LjYzfDIwMC42NHwyMy4xOQ==)' />
<polyline points='61.38,125.95 68.41,125.95 ' style='stroke-width: 1.07; stroke-linecap: butt;' clip-path='url(#cpMzguNTB8MjQ5LjYzfDIwMC42NHwyMy4xOQ==)' />
<polyline points='96.56,100.63 103.60,100.63 ' style='stroke-width: 1.07; stroke-linecap: butt;' clip-path='url(#cpMzguNTB8MjQ5LjYzfDIwMC42NHwyMy4xOQ==)' />
<polyline points='100.08,100.63 100.08,108.11 ' style='stroke-width: 1.07; stroke-linecap: butt;' clip-path='url(#cpMzguNTB8MjQ5LjYzfDIwMC42NHwyMy4xOQ==)' />
<polyline points='96.56,108.11 103.60,108.11 ' style='stroke-width: 1.07; stroke-linecap: butt;' clip-path='url(#cpMzguNTB8MjQ5LjYzfDIwMC42NHwyMy4xOQ==)' />
<polyline points='184.54,96.50 191.57,96.50 ' style='stroke-width: 1.07; stroke-linecap: butt;' clip-path='url(#cpMzguNTB8MjQ5LjYzfDIwMC42NHwyMy4xOQ==)' />
<polyline points='188.05,96.50 188.05,114.81 ' style='stroke-width: 1.07; stroke-linecap: butt;' clip-path='url(#cpMzguNTB8MjQ5LjYzfDIwMC42NHwyMy4xOQ==)' />
<polyline points='184.54,114.81 191.57,114.81 ' style='stroke-width: 1.07; stroke-linecap: butt;' clip-path='url(#cpMzguNTB8MjQ5LjYzfDIwMC42NHwyMy4xOQ==)' />
<polyline points='166.94,132.44 173.98,132.44 ' style='stroke-width: 1.07; stroke-linecap: butt;' clip-path='url(#cpMzguNTB8MjQ5LjYzfDIwMC42NHwyMy4xOQ==)' />
<polyline points='170.46,132.44 170.46,148.17 ' style='stroke-width: 1.07; stroke-linecap: butt;' clip-path='url(#cpMzguNTB8MjQ5LjYzfDIwMC42NHwyMy4xOQ==)' />
<polyline points='166.94,148.17 173.98,148.17 ' style='stroke-width: 1.07; stroke-linecap: butt;' clip-path='url(#cpMzguNTB8MjQ5LjYzfDIwMC42NHwyMy4xOQ==)' />
<polyline points='131.75,122.76 138.79,122.76 ' style='stroke-width: 1.07; stroke-linecap: butt;' clip-path='url(#cpMzguNTB8MjQ5LjYzfDIwMC42NHwyMy4xOQ==)' />
<polyline points='135.27,122.76 135.27,150.63 ' style='stroke-width: 1.07; stroke-linecap: butt;' clip-path='url(#cpMzguNTB8MjQ5LjYzfDIwMC42NHwyMy4xOQ==)' />
<polyline points='131.75,150.63 138.79,150.63 ' style='stroke-width: 1.07; stroke-linecap: butt;' clip-path='url(#cpMzguNTB8MjQ5LjYzfDIwMC42NHwyMy4xOQ==)' />
<polyline points='237.32,38.58 244.36,38.58 ' style='stroke-width: 1.07; stroke-linecap: butt;' clip-path='url(#cpMzguNTB8MjQ5LjYzfDIwMC42NHwyMy4xOQ==)' />
<polyline points='240.84,38.58 240.84,63.16 ' style='stroke-width: 1.07; stroke-linecap: butt;' clip-path='url(#cpMzguNTB8MjQ5LjYzfDIwMC42NHwyMy4xOQ==)' />
<polyline points='237.32,63.16 244.36,63.16 ' style='stroke-width: 1.07; stroke-linecap: butt;' clip-path='url(#cpMzguNTB8MjQ5LjYzfDIwMC42NHwyMy4xOQ==)' />
<polyline points='78.97,107.31 86.01,107.31 ' style='stroke-width: 1.07; stroke-linecap: butt;' clip-path='url(#cpMzguNTB8MjQ5LjYzfDIwMC42NHwyMy4xOQ==)' />
<polyline points='82.49,107.31 82.49,119.49 ' style='stroke-width: 1.07; stroke-linecap: butt;' clip-path='url(#cpMzguNTB8MjQ5LjYzfDIwMC42NHwyMy4xOQ==)' />
<polyline points='78.97,119.49 86.01,119.49 ' style='stroke-width: 1.07; stroke-linecap: butt;' clip-path='url(#cpMzguNTB8MjQ5LjYzfDIwMC42NHwyMy4xOQ==)' />
<polyline points='149.35,124.43 156.38,124.43 ' style='stroke-width: 1.07; stroke-linecap: butt;' clip-path='url(#cpMzguNTB8MjQ5LjYzfDIwMC42NHwyMy4xOQ==)' />
<polyline points='152.87,124.43 152.87,134.15 ' style='stroke-width: 1.07; stroke-linecap: butt;' clip-path='url(#cpMzguNTB8MjQ5LjYzfDIwMC42NHwyMy4xOQ==)' />
<polyline points='149.35,134.15 156.38,134.15 ' style='stroke-width: 1.07; stroke-linecap: butt;' clip-path='url(#cpMzguNTB8MjQ5LjYzfDIwMC42NHwyMy4xOQ==)' />
<polyline points='43.78,132.50 50.82,132.50 ' style='stroke-width: 1.07; stroke-linecap: butt;' clip-path='url(#cpMzguNTB8MjQ5LjYzfDIwMC42NHwyMy4xOQ==)' />
<polyline points='47.30,132.50 47.30,141.80 ' style='stroke-width: 1.07; stroke-linecap: butt;' clip-path='url(#cpMzguNTB8MjQ5LjYzfDIwMC42NHwyMy4xOQ==)' />
<polyline points='43.78,141.80 50.82,141.80 ' style='stroke-width: 1.07; stroke-linecap: butt;' clip-path='url(#cpMzguNTB8MjQ5LjYzfDIwMC42NHwyMy4xOQ==)' />
<polyline points='114.16,71.86 121.20,71.86 ' style='stroke-width: 1.07; stroke-linecap: butt;' clip-path='url(#cpMzguNTB8MjQ5LjYzfDIwMC42NHwyMy4xOQ==)' />
<polyline points='117.68,71.86 117.68,134.37 ' style='stroke-width: 1.07; stroke-linecap: butt;' clip-path='url(#cpMzguNTB8MjQ5LjYzfDIwMC42NHwyMy4xOQ==)' />
<polyline points='114.16,134.37 121.20,134.37 ' style='stroke-width: 1.07; stroke-linecap: butt;' clip-path='url(#cpMzguNTB8MjQ5LjYzfDIwMC42NHwyMy4xOQ==)' />
<polyline points='202.13,72.74 209.17,72.74 ' style='stroke-width: 1.07; stroke-linecap: butt;' clip-path='url(#cpMzguNTB8MjQ5LjYzfDIwMC42NHwyMy4xOQ==)' />
<polyline points='205.65,72.74 205.65,94.06 ' style='stroke-width: 1.07; stroke-linecap: butt;' clip-path='url(#cpMzguNTB8MjQ5LjYzfDIwMC42NHwyMy4xOQ==)' />
<polyline points='202.13,94.06 209.17,94.06 ' style='stroke-width: 1.07; stroke-linecap: butt;' clip-path='url(#cpMzguNTB8MjQ5LjYzfDIwMC42NHwyMy4xOQ==)' />
<polyline points='219.72,44.07 226.76,44.07 ' style='stroke-width: 1.07; stroke-linecap: butt;' clip-path='url(#cpMzguNTB8MjQ5LjYzfDIwMC42NHwyMy4xOQ==)' />
<polyline points='223.24,44.07 223.24,69.23 ' style='stroke-width: 1.07; stroke-linecap: butt;' clip-path='url(#cpMzguNTB8MjQ5LjYzfDIwMC42NHwyMy4xOQ==)' />
<polyline points='219.72,69.23 226.76,69.23 ' style='stroke-width: 1.07; stroke-linecap: butt;' clip-path='url(#cpMzguNTB8MjQ5LjYzfDIwMC42NHwyMy4xOQ==)' />
<g clip-path='url(#cpMzguNTB8MjQ5LjYzfDIwMC42NHwyMy4xOQ==)'><text x='61.39' y='141.97' style='font-size: 18.02px; font-family: Arial;' textLength='7.01px' lengthAdjust='spacingAndGlyphs'>*</text></g>
<g clip-path='url(#cpMzguNTB8MjQ5LjYzfDIwMC42NHwyMy4xOQ==)'><text x='166.95' y='164.19' style='font-size: 18.02px; font-family: Arial;' textLength='7.01px' lengthAdjust='spacingAndGlyphs'>*</text></g>
<g clip-path='url(#cpMzguNTB8MjQ5LjYzfDIwMC42NHwyMy4xOQ==)'><text x='237.33' y='43.31' style='font-size: 18.02px; font-family: Arial;' textLength='7.01px' lengthAdjust='spacingAndGlyphs'>*</text></g>
<g clip-path='url(#cpMzguNTB8MjQ5LjYzfDIwMC42NHwyMy4xOQ==)'><text x='149.36' y='150.17' style='font-size: 18.02px; font-family: Arial;' textLength='7.01px' lengthAdjust='spacingAndGlyphs'>*</text></g>
<g clip-path='url(#cpMzguNTB8MjQ5LjYzfDIwMC42NHwyMy4xOQ==)'><text x='43.79' y='157.81' style='font-size: 18.02px; font-family: Arial;' textLength='7.01px' lengthAdjust='spacingAndGlyphs'>*</text></g>
<g clip-path='url(#cpMzguNTB8MjQ5LjYzfDIwMC42NHwyMy4xOQ==)'><text x='202.14' y='77.46' style='font-size: 18.02px; font-family: Arial;' textLength='7.01px' lengthAdjust='spacingAndGlyphs'>*</text></g>
<g clip-path='url(#cpMzguNTB8MjQ5LjYzfDIwMC42NHwyMy4xOQ==)'><text x='219.74' y='48.79' style='font-size: 18.02px; font-family: Arial;' textLength='7.01px' lengthAdjust='spacingAndGlyphs'>*</text></g>
<defs>
  <clipPath id='cpMC4wMHwzMTEuMDR8MjU5LjIwfDAuMDA='>
    <rect x='0.00' y='0.00' width='311.04' height='259.20' />
  </clipPath>
</defs>
<polyline points='38.50,200.64 38.50,23.19 ' style='stroke-width: 1.07; stroke-linecap: butt;' clip-path='url(#cpMC4wMHwzMTEuMDR8MjU5LjIwfDAuMDA=)' />
<g clip-path='url(#cpMC4wMHwzMTEuMDR8MjU5LjIwfDAuMDA=)'><text x='18.41' y='202.13' style='font-size: 8.80px; fill: #4D4D4D; font-family: Arial;' textLength='15.16px' lengthAdjust='spacingAndGlyphs'>-1.5</text></g>
<g clip-path='url(#cpMC4wMHwzMTEuMDR8MjU5LjIwfDAuMDA=)'><text x='18.41' y='173.11' style='font-size: 8.80px; fill: #4D4D4D; font-family: Arial;' textLength='15.16px' lengthAdjust='spacingAndGlyphs'>-1.0</text></g>
<g clip-path='url(#cpMC4wMHwzMTEuMDR8MjU5LjIwfDAuMDA=)'><text x='18.41' y='144.09' style='font-size: 8.80px; fill: #4D4D4D; font-family: Arial;' textLength='15.16px' lengthAdjust='spacingAndGlyphs'>-0.5</text></g>
<g clip-path='url(#cpMC4wMHwzMTEuMDR8MjU5LjIwfDAuMDA=)'><text x='21.34' y='115.06' style='font-size: 8.80px; fill: #4D4D4D; font-family: Arial;' textLength='12.23px' lengthAdjust='spacingAndGlyphs'>0.0</text></g>
<g clip-path='url(#cpMC4wMHwzMTEuMDR8MjU5LjIwfDAuMDA=)'><text x='21.34' y='86.04' style='font-size: 8.80px; fill: #4D4D4D; font-family: Arial;' textLength='12.23px' lengthAdjust='spacingAndGlyphs'>0.5</text></g>
<g clip-path='url(#cpMC4wMHwzMTEuMDR8MjU5LjIwfDAuMDA=)'><text x='21.34' y='57.02' style='font-size: 8.80px; fill: #4D4D4D; font-family: Arial;' textLength='12.23px' lengthAdjust='spacingAndGlyphs'>1.0</text></g>
<g clip-path='url(#cpMC4wMHwzMTEuMDR8MjU5LjIwfDAuMDA=)'><text x='21.34' y='28.00' style='font-size: 8.80px; fill: #4D4D4D; font-family: Arial;' textLength='12.23px' lengthAdjust='spacingAndGlyphs'>1.5</text></g>
<polyline points='35.76,198.98 38.50,198.98 ' style='stroke-width: 1.07; stroke: #333333; stroke-linecap: butt;' clip-path='url(#cpMC4wMHwzMTEuMDR8MjU5LjIwfDAuMDA=)' />
<polyline points='35.76,169.96 38.50,169.96 ' style='stroke-width: 1.07; stroke: #333333; stroke-linecap: butt;' clip-path='url(#cpMC4wMHwzMTEuMDR8MjU5LjIwfDAuMDA=)' />
<polyline points='35.76,140.94 38.50,140.94 ' style='stroke-width: 1.07; stroke: #333333; stroke-linecap: butt;' clip-path='url(#cpMC4wMHwzMTEuMDR8MjU5LjIwfDAuMDA=)' />
<polyline points='35.76,111.91 38.50,111.91 ' style='stroke-width: 1.07; stroke: #333333; stroke-linecap: butt;' clip-path='url(#cpMC4wMHwzMTEuMDR8MjU5LjIwfDAuMDA=)' />
<polyline points='35.76,82.89 38.50,82.89 ' style='stroke-width: 1.07; stroke: #333333; stroke-linecap: butt;' clip-path='url(#cpMC4wMHwzMTEuMDR8MjU5LjIwfDAuMDA=)' />
<polyline points='35.76,53.87 38.50,53.87 ' style='stroke-width: 1.07; stroke: #333333; stroke-linecap: butt;' clip-path='url(#cpMC4wMHwzMTEuMDR8MjU5LjIwfDAuMDA=)' />
<polyline points='35.76,24.85 38.50,24.85 ' style='stroke-width: 1.07; stroke: #333333; stroke-linecap: butt;' clip-path='url(#cpMC4wMHwzMTEuMDR8MjU5LjIwfDAuMDA=)' />
<polyline points='38.50,200.64 249.63,200.64 ' style='stroke-width: 1.07; stroke-linecap: butt;' clip-path='url(#cpMC4wMHwzMTEuMDR8MjU5LjIwfDAuMDA=)' />
<polyline points='47.30,203.38 47.30,200.64 ' style='stroke-width: 1.07; stroke: #333333; stroke-linecap: butt;' clip-path='url(#cpMC4wMHwzMTEuMDR8MjU5LjIwfDAuMDA=)' />
<polyline points='64.89,203.38 64.89,200.64 ' style='stroke-width: 1.07; stroke: #333333; stroke-linecap: butt;' clip-path='url(#cpMC4wMHwzMTEuMDR8MjU5LjIwfDAuMDA=)' />
<polyline points='82.49,203.38 82.49,200.64 ' style='stroke-width: 1.07; stroke: #333333; stroke-linecap: butt;' clip-path='url(#cpMC4wMHwzMTEuMDR8MjU5LjIwfDAuMDA=)' />
<polyline points='100.08,203.38 100.08,200.64 ' style='stroke-width: 1.07; stroke: #333333; stroke-linecap: butt;' clip-path='url(#cpMC4wMHwzMTEuMDR8MjU5LjIwfDAuMDA=)' />
<polyline points='117.68,203.38 117.68,200.64 ' style='stroke-width: 1.07; stroke: #333333; stroke-linecap: butt;' clip-path='url(#cpMC4wMHwzMTEuMDR8MjU5LjIwfDAuMDA=)' />
<polyline points='135.27,203.38 135.27,200.64 ' style='stroke-width: 1.07; stroke: #333333; stroke-linecap: butt;' clip-path='url(#cpMC4wMHwzMTEuMDR8MjU5LjIwfDAuMDA=)' />
<polyline points='152.87,203.38 152.87,200.64 ' style='stroke-width: 1.07; stroke: #333333; stroke-linecap: butt;' clip-path='url(#cpMC4wMHwzMTEuMDR8MjU5LjIwfDAuMDA=)' />
<polyline points='170.46,203.38 170.46,200.64 ' style='stroke-width: 1.07; stroke: #333333; stroke-linecap: butt;' clip-path='url(#cpMC4wMHwzMTEuMDR8MjU5LjIwfDAuMDA=)' />
<polyline points='188.05,203.38 188.05,200.64 ' style='stroke-width: 1.07; stroke: #333333; stroke-linecap: butt;' clip-path='url(#cpMC4wMHwzMTEuMDR8MjU5LjIwfDAuMDA=)' />
<polyline points='205.65,203.38 205.65,200.64 ' style='stroke-width: 1.07; stroke: #333333; stroke-linecap: butt;' clip-path='url(#cpMC4wMHwzMTEuMDR8MjU5LjIwfDAuMDA=)' />
<polyline points='223.24,203.38 223.24,200.64 ' style='stroke-width: 1.07; stroke: #333333; stroke-linecap: butt;' clip-path='url(#cpMC4wMHwzMTEuMDR8MjU5LjIwfDAuMDA=)' />
<polyline points='240.84,203.38 240.84,200.64 ' style='stroke-width: 1.07; stroke: #333333; stroke-linecap: butt;' clip-path='url(#cpMC4wMHwzMTEuMDR8MjU5LjIwfDAuMDA=)' />
<g clip-path='url(#cpMC4wMHwzMTEuMDR8MjU5LjIwfDAuMDA=)'><text transform='translate(29.49,236.59) rotate(-50)' style='font-size: 8.80px; fill: #4D4D4D; font-family: Arial;' textLength='35.21px' lengthAdjust='spacingAndGlyphs'>STOML2</text></g>
<g clip-path='url(#cpMC4wMHwzMTEuMDR8MjU5LjIwfDAuMDA=)'><text transform='translate(49.92,233.22) rotate(-50)' style='font-size: 8.80px; fill: #4D4D4D; font-family: Arial;' textLength='30.80px' lengthAdjust='spacingAndGlyphs'>HADHA</text></g>
<g clip-path='url(#cpMC4wMHwzMTEuMDR8MjU5LjIwfDAuMDA=)'><text transform='translate(67.51,233.22) rotate(-50)' style='font-size: 8.80px; fill: #4D4D4D; font-family: Arial;' textLength='30.80px' lengthAdjust='spacingAndGlyphs'>HADHB</text></g>
<g clip-path='url(#cpMC4wMHwzMTEuMDR8MjU5LjIwfDAuMDA=)'><text transform='translate(89.82,227.61) rotate(-50)' style='font-size: 8.80px; fill: #4D4D4D; font-family: Arial;' textLength='23.48px' lengthAdjust='spacingAndGlyphs'>PGS1</text></g>
<g clip-path='url(#cpMC4wMHwzMTEuMDR8MjU5LjIwfDAuMDA=)'><text transform='translate(103.01,232.85) rotate(-50)' style='font-size: 8.80px; fill: #4D4D4D; font-family: Arial;' textLength='30.32px' lengthAdjust='spacingAndGlyphs'>MECP2</text></g>
<g clip-path='url(#cpMC4wMHwzMTEuMDR8MjU5LjIwfDAuMDA=)'><text transform='translate(114.94,239.60) rotate(-50)' style='font-size: 8.80px; fill: #4D4D4D; font-family: Arial;' textLength='39.14px' lengthAdjust='spacingAndGlyphs'>PLA2G4A</text></g>
<g clip-path='url(#cpMC4wMHwzMTEuMDR8MjU5LjIwfDAuMDA=)'><text transform='translate(134.75,236.96) rotate(-50)' style='font-size: 8.80px; fill: #4D4D4D; font-family: Arial;' textLength='35.69px' lengthAdjust='spacingAndGlyphs'>TAMM41</text></g>
<g clip-path='url(#cpMC4wMHwzMTEuMDR8MjU5LjIwfDAuMDA=)'><text transform='translate(152.97,236.21) rotate(-50)' style='font-size: 8.80px; fill: #4D4D4D; font-family: Arial;' textLength='34.71px' lengthAdjust='spacingAndGlyphs'>PTPMT1</text></g>
<g clip-path='url(#cpMC4wMHwzMTEuMDR8MjU5LjIwfDAuMDA=)'><text transform='translate(182.20,222.35) rotate(-50)' style='font-size: 8.80px; fill: #4D4D4D; font-family: Arial;' textLength='16.62px' lengthAdjust='spacingAndGlyphs'>TAZ</text></g>
<g clip-path='url(#cpMC4wMHwzMTEuMDR8MjU5LjIwfDAuMDA=)'><text transform='translate(189.72,234.35) rotate(-50)' style='font-size: 8.80px; fill: #4D4D4D; font-family: Arial;' textLength='32.28px' lengthAdjust='spacingAndGlyphs'>LCLAT1</text></g>
<g clip-path='url(#cpMC4wMHwzMTEuMDR8MjU5LjIwfDAuMDA=)'><text transform='translate(206.68,235.11) rotate(-50)' style='font-size: 8.80px; fill: #4D4D4D; font-family: Arial;' textLength='33.27px' lengthAdjust='spacingAndGlyphs'>PLA2G6</text></g>
<g clip-path='url(#cpMC4wMHwzMTEuMDR8MjU5LjIwfDAuMDA=)'><text transform='translate(221.45,238.48) rotate(-50)' style='font-size: 8.80px; fill: #4D4D4D; font-family: Arial;' textLength='37.67px' lengthAdjust='spacingAndGlyphs'>SLC27A1</text></g>
<g clip-path='url(#cpMC4wMHwzMTEuMDR8MjU5LjIwfDAuMDA=)'><text transform='translate(13.35,189.27) rotate(-90)' style='font-size: 11.00px; font-family: Arial;' textLength='154.70px' lengthAdjust='spacingAndGlyphs'>log2 Fold Change relative to D0</text></g>
<rect x='260.59' y='89.96' width='44.97' height='43.91' style='stroke-width: 1.07; stroke: none; fill: #FFFFFF;' clip-path='url(#cpMC4wMHwzMTEuMDR8MjU5LjIwfDAuMDA=)' />
<g clip-path='url(#cpMC4wMHwzMTEuMDR8MjU5LjIwfDAuMDA=)'><text x='266.07' y='104.47' style='font-size: 11.00px; font-family: Arial;' textLength='17.74px' lengthAdjust='spacingAndGlyphs'>day</text></g>
<rect x='266.78' y='111.82' width='15.86' height='15.86' style='stroke-width: 1.07; stroke: none; stroke-linecap: square; stroke-linejoin: miter; fill: #C8611F;' clip-path='url(#cpMC4wMHwzMTEuMDR8MjU5LjIwfDAuMDA=)' />
<g clip-path='url(#cpMC4wMHwzMTEuMDR8MjU5LjIwfDAuMDA=)'><text x='288.83' y='122.90' style='font-size: 8.80px; font-family: Arial;' textLength='11.25px' lengthAdjust='spacingAndGlyphs'>D7</text></g>
<g clip-path='url(#cpMC4wMHwzMTEuMDR8MjU5LjIwfDAuMDA=)'><text x='38.50' y='14.93' style='font-size: 13.20px; font-family: Arial;' textLength='176.83px' lengthAdjust='spacingAndGlyphs'>cardiolipin_metabolic_process</text></g>
</svg>
