<?xml version='1.0' encoding='UTF-8' ?>
<svg xmlns='http://www.w3.org/2000/svg' xmlns:xlink='http://www.w3.org/1999/xlink' viewBox='0 0 345.60 259.20'>
<defs>
  <style type='text/css'><![CDATA[
    line, polyline, polygon, path, rect, circle {
      fill: none;
      stroke: #000000;
      stroke-linecap: round;
      stroke-linejoin: round;
      stroke-miterlimit: 10.00;
    }
  ]]></style>
</defs>
<rect width='100%' height='100%' style='stroke: none; fill: #FFFFFF;'/>
<rect x='0.000000000000032' y='0.00' width='345.60' height='259.20' style='stroke-width: 1.07; stroke: #FFFFFF; fill: #FFFFFF;' />
<defs>
  <clipPath id='cpMzguMDJ8Mjg0LjE5fDIwMy4yOHwyMy4xOQ=='>
    <rect x='38.02' y='23.19' width='246.17' height='180.09' />
  </clipPath>
</defs>
<rect x='38.02' y='23.19' width='246.17' height='180.09' style='stroke-width: 1.07; stroke: none; fill: #FFFFFF;' clip-path='url(#cpMzguMDJ8Mjg0LjE5fDIwMy4yOHwyMy4xOQ==)' />
<rect x='39.78' y='138.45' width='7.03' height='64.83' style='stroke-width: 1.07; stroke: none; stroke-linecap: square; stroke-linejoin: miter; fill: #FFE7CB;' clip-path='url(#cpMzguMDJ8Mjg0LjE5fDIwMy4yOHwyMy4xOQ==)' />
<rect x='46.81' y='123.02' width='7.03' height='80.25' style='stroke-width: 1.07; stroke: none; stroke-linecap: square; stroke-linejoin: miter; fill: #C9930D;' clip-path='url(#cpMzguMDJ8Mjg0LjE5fDIwMy4yOHwyMy4xOQ==)' />
<rect x='57.36' y='182.92' width='7.03' height='20.35' style='stroke-width: 1.07; stroke: none; stroke-linecap: square; stroke-linejoin: miter; fill: #FFE7CB;' clip-path='url(#cpMzguMDJ8Mjg0LjE5fDIwMy4yOHwyMy4xOQ==)' />
<rect x='64.40' y='187.60' width='7.03' height='15.68' style='stroke-width: 1.07; stroke: none; stroke-linecap: square; stroke-linejoin: miter; fill: #C9930D;' clip-path='url(#cpMzguMDJ8Mjg0LjE5fDIwMy4yOHwyMy4xOQ==)' />
<rect x='74.95' y='199.01' width='7.03' height='4.27' style='stroke-width: 1.07; stroke: none; stroke-linecap: square; stroke-linejoin: miter; fill: #FFE7CB;' clip-path='url(#cpMzguMDJ8Mjg0LjE5fDIwMy4yOHwyMy4xOQ==)' />
<rect x='81.98' y='192.37' width='7.03' height='10.91' style='stroke-width: 1.07; stroke: none; stroke-linecap: square; stroke-linejoin: miter; fill: #C9930D;' clip-path='url(#cpMzguMDJ8Mjg0LjE5fDIwMy4yOHwyMy4xOQ==)' />
<rect x='92.53' y='195.21' width='7.03' height='8.07' style='stroke-width: 1.07; stroke: none; stroke-linecap: square; stroke-linejoin: miter; fill: #FFE7CB;' clip-path='url(#cpMzguMDJ8Mjg0LjE5fDIwMy4yOHwyMy4xOQ==)' />
<rect x='99.57' y='185.31' width='7.03' height='17.97' style='stroke-width: 1.07; stroke: none; stroke-linecap: square; stroke-linejoin: miter; fill: #C9930D;' clip-path='url(#cpMzguMDJ8Mjg0LjE5fDIwMy4yOHwyMy4xOQ==)' />
<rect x='110.12' y='197.12' width='7.03' height='6.16' style='stroke-width: 1.07; stroke: none; stroke-linecap: square; stroke-linejoin: miter; fill: #FFE7CB;' clip-path='url(#cpMzguMDJ8Mjg0LjE5fDIwMy4yOHwyMy4xOQ==)' />
<rect x='117.15' y='200.41' width='7.03' height='2.87' style='stroke-width: 1.07; stroke: none; stroke-linecap: square; stroke-linejoin: miter; fill: #C9930D;' clip-path='url(#cpMzguMDJ8Mjg0LjE5fDIwMy4yOHwyMy4xOQ==)' />
<rect x='127.70' y='178.89' width='7.03' height='24.39' style='stroke-width: 1.07; stroke: none; stroke-linecap: square; stroke-linejoin: miter; fill: #FFE7CB;' clip-path='url(#cpMzguMDJ8Mjg0LjE5fDIwMy4yOHwyMy4xOQ==)' />
<rect x='134.73' y='179.60' width='7.03' height='23.68' style='stroke-width: 1.07; stroke: none; stroke-linecap: square; stroke-linejoin: miter; fill: #C9930D;' clip-path='url(#cpMzguMDJ8Mjg0LjE5fDIwMy4yOHwyMy4xOQ==)' />
<rect x='145.28' y='166.11' width='7.03' height='37.16' style='stroke-width: 1.07; stroke: none; stroke-linecap: square; stroke-linejoin: miter; fill: #FFE7CB;' clip-path='url(#cpMzguMDJ8Mjg0LjE5fDIwMy4yOHwyMy4xOQ==)' />
<rect x='152.32' y='159.62' width='7.03' height='43.66' style='stroke-width: 1.07; stroke: none; stroke-linecap: square; stroke-linejoin: miter; fill: #C9930D;' clip-path='url(#cpMzguMDJ8Mjg0LjE5fDIwMy4yOHwyMy4xOQ==)' />
<rect x='162.87' y='196.01' width='7.03' height='7.27' style='stroke-width: 1.07; stroke: none; stroke-linecap: square; stroke-linejoin: miter; fill: #FFE7CB;' clip-path='url(#cpMzguMDJ8Mjg0LjE5fDIwMy4yOHwyMy4xOQ==)' />
<rect x='169.90' y='194.65' width='7.03' height='8.63' style='stroke-width: 1.07; stroke: none; stroke-linecap: square; stroke-linejoin: miter; fill: #C9930D;' clip-path='url(#cpMzguMDJ8Mjg0LjE5fDIwMy4yOHwyMy4xOQ==)' />
<rect x='180.45' y='197.77' width='7.03' height='5.51' style='stroke-width: 1.07; stroke: none; stroke-linecap: square; stroke-linejoin: miter; fill: #FFE7CB;' clip-path='url(#cpMzguMDJ8Mjg0LjE5fDIwMy4yOHwyMy4xOQ==)' />
<rect x='187.48' y='194.55' width='7.03' height='8.73' style='stroke-width: 1.07; stroke: none; stroke-linecap: square; stroke-linejoin: miter; fill: #C9930D;' clip-path='url(#cpMzguMDJ8Mjg0LjE5fDIwMy4yOHwyMy4xOQ==)' />
<rect x='198.03' y='175.02' width='7.03' height='28.26' style='stroke-width: 1.07; stroke: none; stroke-linecap: square; stroke-linejoin: miter; fill: #FFE7CB;' clip-path='url(#cpMzguMDJ8Mjg0LjE5fDIwMy4yOHwyMy4xOQ==)' />
<rect x='205.07' y='168.72' width='7.03' height='34.56' style='stroke-width: 1.07; stroke: none; stroke-linecap: square; stroke-linejoin: miter; fill: #C9930D;' clip-path='url(#cpMzguMDJ8Mjg0LjE5fDIwMy4yOHwyMy4xOQ==)' />
<rect x='215.62' y='180.85' width='7.03' height='22.43' style='stroke-width: 1.07; stroke: none; stroke-linecap: square; stroke-linejoin: miter; fill: #FFE7CB;' clip-path='url(#cpMzguMDJ8Mjg0LjE5fDIwMy4yOHwyMy4xOQ==)' />
<rect x='222.65' y='185.59' width='7.03' height='17.69' style='stroke-width: 1.07; stroke: none; stroke-linecap: square; stroke-linejoin: miter; fill: #C9930D;' clip-path='url(#cpMzguMDJ8Mjg0LjE5fDIwMy4yOHwyMy4xOQ==)' />
<rect x='233.20' y='29.47' width='7.03' height='173.80' style='stroke-width: 1.07; stroke: none; stroke-linecap: square; stroke-linejoin: miter; fill: #FFE7CB;' clip-path='url(#cpMzguMDJ8Mjg0LjE5fDIwMy4yOHwyMy4xOQ==)' />
<rect x='240.23' y='60.31' width='7.03' height='142.97' style='stroke-width: 1.07; stroke: none; stroke-linecap: square; stroke-linejoin: miter; fill: #C9930D;' clip-path='url(#cpMzguMDJ8Mjg0LjE5fDIwMy4yOHwyMy4xOQ==)' />
<rect x='250.79' y='185.29' width='7.03' height='17.99' style='stroke-width: 1.07; stroke: none; stroke-linecap: square; stroke-linejoin: miter; fill: #FFE7CB;' clip-path='url(#cpMzguMDJ8Mjg0LjE5fDIwMy4yOHwyMy4xOQ==)' />
<rect x='257.82' y='187.08' width='7.03' height='16.20' style='stroke-width: 1.07; stroke: none; stroke-linecap: square; stroke-linejoin: miter; fill: #C9930D;' clip-path='url(#cpMzguMDJ8Mjg0LjE5fDIwMy4yOHwyMy4xOQ==)' />
<rect x='268.37' y='173.35' width='7.03' height='29.92' style='stroke-width: 1.07; stroke: none; stroke-linecap: square; stroke-linejoin: miter; fill: #FFE7CB;' clip-path='url(#cpMzguMDJ8Mjg0LjE5fDIwMy4yOHwyMy4xOQ==)' />
<rect x='275.40' y='168.09' width='7.03' height='35.18' style='stroke-width: 1.07; stroke: none; stroke-linecap: square; stroke-linejoin: miter; fill: #C9930D;' clip-path='url(#cpMzguMDJ8Mjg0LjE5fDIwMy4yOHwyMy4xOQ==)' />
<polyline points='41.10,135.06 45.50,135.06 ' style='stroke-width: 1.07; stroke-linecap: butt;' clip-path='url(#cpMzguMDJ8Mjg0LjE5fDIwMy4yOHwyMy4xOQ==)' />
<polyline points='43.30,135.06 43.30,141.83 ' style='stroke-width: 1.07; stroke-linecap: butt;' clip-path='url(#cpMzguMDJ8Mjg0LjE5fDIwMy4yOHwyMy4xOQ==)' />
<polyline points='41.10,141.83 45.50,141.83 ' style='stroke-width: 1.07; stroke-linecap: butt;' clip-path='url(#cpMzguMDJ8Mjg0LjE5fDIwMy4yOHwyMy4xOQ==)' />
<polyline points='48.13,114.56 52.53,114.56 ' style='stroke-width: 1.07; stroke-linecap: butt;' clip-path='url(#cpMzguMDJ8Mjg0LjE5fDIwMy4yOHwyMy4xOQ==)' />
<polyline points='50.33,114.56 50.33,131.48 ' style='stroke-width: 1.07; stroke-linecap: butt;' clip-path='url(#cpMzguMDJ8Mjg0LjE5fDIwMy4yOHwyMy4xOQ==)' />
<polyline points='48.13,131.48 52.53,131.48 ' style='stroke-width: 1.07; stroke-linecap: butt;' clip-path='url(#cpMzguMDJ8Mjg0LjE5fDIwMy4yOHwyMy4xOQ==)' />
<polyline points='58.68,180.50 63.08,180.50 ' style='stroke-width: 1.07; stroke-linecap: butt;' clip-path='url(#cpMzguMDJ8Mjg0LjE5fDIwMy4yOHwyMy4xOQ==)' />
<polyline points='60.88,180.50 60.88,185.35 ' style='stroke-width: 1.07; stroke-linecap: butt;' clip-path='url(#cpMzguMDJ8Mjg0LjE5fDIwMy4yOHwyMy4xOQ==)' />
<polyline points='58.68,185.35 63.08,185.35 ' style='stroke-width: 1.07; stroke-linecap: butt;' clip-path='url(#cpMzguMDJ8Mjg0LjE5fDIwMy4yOHwyMy4xOQ==)' />
<polyline points='65.72,183.53 70.11,183.53 ' style='stroke-width: 1.07; stroke-linecap: butt;' clip-path='url(#cpMzguMDJ8Mjg0LjE5fDIwMy4yOHwyMy4xOQ==)' />
<polyline points='67.91,183.53 67.91,191.67 ' style='stroke-width: 1.07; stroke-linecap: butt;' clip-path='url(#cpMzguMDJ8Mjg0LjE5fDIwMy4yOHwyMy4xOQ==)' />
<polyline points='65.72,191.67 70.11,191.67 ' style='stroke-width: 1.07; stroke-linecap: butt;' clip-path='url(#cpMzguMDJ8Mjg0LjE5fDIwMy4yOHwyMy4xOQ==)' />
<polyline points='76.27,197.85 80.66,197.85 ' style='stroke-width: 1.07; stroke-linecap: butt;' clip-path='url(#cpMzguMDJ8Mjg0LjE5fDIwMy4yOHwyMy4xOQ==)' />
<polyline points='78.46,197.85 78.46,200.17 ' style='stroke-width: 1.07; stroke-linecap: butt;' clip-path='url(#cpMzguMDJ8Mjg0LjE5fDIwMy4yOHwyMy4xOQ==)' />
<polyline points='76.27,200.17 80.66,200.17 ' style='stroke-width: 1.07; stroke-linecap: butt;' clip-path='url(#cpMzguMDJ8Mjg0LjE5fDIwMy4yOHwyMy4xOQ==)' />
<polyline points='83.30,189.45 87.70,189.45 ' style='stroke-width: 1.07; stroke-linecap: butt;' clip-path='url(#cpMzguMDJ8Mjg0LjE5fDIwMy4yOHwyMy4xOQ==)' />
<polyline points='85.50,189.45 85.50,195.28 ' style='stroke-width: 1.07; stroke-linecap: butt;' clip-path='url(#cpMzguMDJ8Mjg0LjE5fDIwMy4yOHwyMy4xOQ==)' />
<polyline points='83.30,195.28 87.70,195.28 ' style='stroke-width: 1.07; stroke-linecap: butt;' clip-path='url(#cpMzguMDJ8Mjg0LjE5fDIwMy4yOHwyMy4xOQ==)' />
<polyline points='93.85,194.16 98.25,194.16 ' style='stroke-width: 1.07; stroke-linecap: butt;' clip-path='url(#cpMzguMDJ8Mjg0LjE5fDIwMy4yOHwyMy4xOQ==)' />
<polyline points='96.05,194.16 96.05,196.25 ' style='stroke-width: 1.07; stroke-linecap: butt;' clip-path='url(#cpMzguMDJ8Mjg0LjE5fDIwMy4yOHwyMy4xOQ==)' />
<polyline points='93.85,196.25 98.25,196.25 ' style='stroke-width: 1.07; stroke-linecap: butt;' clip-path='url(#cpMzguMDJ8Mjg0LjE5fDIwMy4yOHwyMy4xOQ==)' />
<polyline points='100.88,182.00 105.28,182.00 ' style='stroke-width: 1.07; stroke-linecap: butt;' clip-path='url(#cpMzguMDJ8Mjg0LjE5fDIwMy4yOHwyMy4xOQ==)' />
<polyline points='103.08,182.00 103.08,188.63 ' style='stroke-width: 1.07; stroke-linecap: butt;' clip-path='url(#cpMzguMDJ8Mjg0LjE5fDIwMy4yOHwyMy4xOQ==)' />
<polyline points='100.88,188.63 105.28,188.63 ' style='stroke-width: 1.07; stroke-linecap: butt;' clip-path='url(#cpMzguMDJ8Mjg0LjE5fDIwMy4yOHwyMy4xOQ==)' />
<polyline points='111.43,196.66 115.83,196.66 ' style='stroke-width: 1.07; stroke-linecap: butt;' clip-path='url(#cpMzguMDJ8Mjg0LjE5fDIwMy4yOHwyMy4xOQ==)' />
<polyline points='113.63,196.66 113.63,197.58 ' style='stroke-width: 1.07; stroke-linecap: butt;' clip-path='url(#cpMzguMDJ8Mjg0LjE5fDIwMy4yOHwyMy4xOQ==)' />
<polyline points='111.43,197.58 115.83,197.58 ' style='stroke-width: 1.07; stroke-linecap: butt;' clip-path='url(#cpMzguMDJ8Mjg0LjE5fDIwMy4yOHwyMy4xOQ==)' />
<polyline points='118.47,199.80 122.86,199.80 ' style='stroke-width: 1.07; stroke-linecap: butt;' clip-path='url(#cpMzguMDJ8Mjg0LjE5fDIwMy4yOHwyMy4xOQ==)' />
<polyline points='120.67,199.80 120.67,201.01 ' style='stroke-width: 1.07; stroke-linecap: butt;' clip-path='url(#cpMzguMDJ8Mjg0LjE5fDIwMy4yOHwyMy4xOQ==)' />
<polyline points='118.47,201.01 122.86,201.01 ' style='stroke-width: 1.07; stroke-linecap: butt;' clip-path='url(#cpMzguMDJ8Mjg0LjE5fDIwMy4yOHwyMy4xOQ==)' />
<polyline points='129.02,177.31 133.41,177.31 ' style='stroke-width: 1.07; stroke-linecap: butt;' clip-path='url(#cpMzguMDJ8Mjg0LjE5fDIwMy4yOHwyMy4xOQ==)' />
<polyline points='131.22,177.31 131.22,180.46 ' style='stroke-width: 1.07; stroke-linecap: butt;' clip-path='url(#cpMzguMDJ8Mjg0LjE5fDIwMy4yOHwyMy4xOQ==)' />
<polyline points='129.02,180.46 133.41,180.46 ' style='stroke-width: 1.07; stroke-linecap: butt;' clip-path='url(#cpMzguMDJ8Mjg0LjE5fDIwMy4yOHwyMy4xOQ==)' />
<polyline points='136.05,177.06 140.45,177.06 ' style='stroke-width: 1.07; stroke-linecap: butt;' clip-path='url(#cpMzguMDJ8Mjg0LjE5fDIwMy4yOHwyMy4xOQ==)' />
<polyline points='138.25,177.06 138.25,182.14 ' style='stroke-width: 1.07; stroke-linecap: butt;' clip-path='url(#cpMzguMDJ8Mjg0LjE5fDIwMy4yOHwyMy4xOQ==)' />
<polyline points='136.05,182.14 140.45,182.14 ' style='stroke-width: 1.07; stroke-linecap: butt;' clip-path='url(#cpMzguMDJ8Mjg0LjE5fDIwMy4yOHwyMy4xOQ==)' />
<polyline points='146.60,163.61 151.00,163.61 ' style='stroke-width: 1.07; stroke-linecap: butt;' clip-path='url(#cpMzguMDJ8Mjg0LjE5fDIwMy4yOHwyMy4xOQ==)' />
<polyline points='148.80,163.61 148.80,168.62 ' style='stroke-width: 1.07; stroke-linecap: butt;' clip-path='url(#cpMzguMDJ8Mjg0LjE5fDIwMy4yOHwyMy4xOQ==)' />
<polyline points='146.60,168.62 151.00,168.62 ' style='stroke-width: 1.07; stroke-linecap: butt;' clip-path='url(#cpMzguMDJ8Mjg0LjE5fDIwMy4yOHwyMy4xOQ==)' />
<polyline points='153.63,152.57 158.03,152.57 ' style='stroke-width: 1.07; stroke-linecap: butt;' clip-path='url(#cpMzguMDJ8Mjg0LjE5fDIwMy4yOHwyMy4xOQ==)' />
<polyline points='155.83,152.57 155.83,166.66 ' style='stroke-width: 1.07; stroke-linecap: butt;' clip-path='url(#cpMzguMDJ8Mjg0LjE5fDIwMy4yOHwyMy4xOQ==)' />
<polyline points='153.63,166.66 158.03,166.66 ' style='stroke-width: 1.07; stroke-linecap: butt;' clip-path='url(#cpMzguMDJ8Mjg0LjE5fDIwMy4yOHwyMy4xOQ==)' />
<polyline points='164.19,195.15 168.58,195.15 ' style='stroke-width: 1.07; stroke-linecap: butt;' clip-path='url(#cpMzguMDJ8Mjg0LjE5fDIwMy4yOHwyMy4xOQ==)' />
<polyline points='166.38,195.15 166.38,196.86 ' style='stroke-width: 1.07; stroke-linecap: butt;' clip-path='url(#cpMzguMDJ8Mjg0LjE5fDIwMy4yOHwyMy4xOQ==)' />
<polyline points='164.19,196.86 168.58,196.86 ' style='stroke-width: 1.07; stroke-linecap: butt;' clip-path='url(#cpMzguMDJ8Mjg0LjE5fDIwMy4yOHwyMy4xOQ==)' />
<polyline points='171.22,193.41 175.61,193.41 ' style='stroke-width: 1.07; stroke-linecap: butt;' clip-path='url(#cpMzguMDJ8Mjg0LjE5fDIwMy4yOHwyMy4xOQ==)' />
<polyline points='173.42,193.41 173.42,195.89 ' style='stroke-width: 1.07; stroke-linecap: butt;' clip-path='url(#cpMzguMDJ8Mjg0LjE5fDIwMy4yOHwyMy4xOQ==)' />
<polyline points='171.22,195.89 175.61,195.89 ' style='stroke-width: 1.07; stroke-linecap: butt;' clip-path='url(#cpMzguMDJ8Mjg0LjE5fDIwMy4yOHwyMy4xOQ==)' />
<polyline points='181.77,196.75 186.16,196.75 ' style='stroke-width: 1.07; stroke-linecap: butt;' clip-path='url(#cpMzguMDJ8Mjg0LjE5fDIwMy4yOHwyMy4xOQ==)' />
<polyline points='183.97,196.75 183.97,198.79 ' style='stroke-width: 1.07; stroke-linecap: butt;' clip-path='url(#cpMzguMDJ8Mjg0LjE5fDIwMy4yOHwyMy4xOQ==)' />
<polyline points='181.77,198.79 186.16,198.79 ' style='stroke-width: 1.07; stroke-linecap: butt;' clip-path='url(#cpMzguMDJ8Mjg0LjE5fDIwMy4yOHwyMy4xOQ==)' />
<polyline points='188.80,192.67 193.20,192.67 ' style='stroke-width: 1.07; stroke-linecap: butt;' clip-path='url(#cpMzguMDJ8Mjg0LjE5fDIwMy4yOHwyMy4xOQ==)' />
<polyline points='191.00,192.67 191.00,196.43 ' style='stroke-width: 1.07; stroke-linecap: butt;' clip-path='url(#cpMzguMDJ8Mjg0LjE5fDIwMy4yOHwyMy4xOQ==)' />
<polyline points='188.80,196.43 193.20,196.43 ' style='stroke-width: 1.07; stroke-linecap: butt;' clip-path='url(#cpMzguMDJ8Mjg0LjE5fDIwMy4yOHwyMy4xOQ==)' />
<polyline points='199.35,173.34 203.75,173.34 ' style='stroke-width: 1.07; stroke-linecap: butt;' clip-path='url(#cpMzguMDJ8Mjg0LjE5fDIwMy4yOHwyMy4xOQ==)' />
<polyline points='201.55,173.34 201.55,176.71 ' style='stroke-width: 1.07; stroke-linecap: butt;' clip-path='url(#cpMzguMDJ8Mjg0LjE5fDIwMy4yOHwyMy4xOQ==)' />
<polyline points='199.35,176.71 203.75,176.71 ' style='stroke-width: 1.07; stroke-linecap: butt;' clip-path='url(#cpMzguMDJ8Mjg0LjE5fDIwMy4yOHwyMy4xOQ==)' />
<polyline points='206.39,164.81 210.78,164.81 ' style='stroke-width: 1.07; stroke-linecap: butt;' clip-path='url(#cpMzguMDJ8Mjg0LjE5fDIwMy4yOHwyMy4xOQ==)' />
<polyline points='208.58,164.81 208.58,172.62 ' style='stroke-width: 1.07; stroke-linecap: butt;' clip-path='url(#cpMzguMDJ8Mjg0LjE5fDIwMy4yOHwyMy4xOQ==)' />
<polyline points='206.39,172.62 210.78,172.62 ' style='stroke-width: 1.07; stroke-linecap: butt;' clip-path='url(#cpMzguMDJ8Mjg0LjE5fDIwMy4yOHwyMy4xOQ==)' />
<polyline points='216.94,178.42 221.33,178.42 ' style='stroke-width: 1.07; stroke-linecap: butt;' clip-path='url(#cpMzguMDJ8Mjg0LjE5fDIwMy4yOHwyMy4xOQ==)' />
<polyline points='219.13,178.42 219.13,183.28 ' style='stroke-width: 1.07; stroke-linecap: butt;' clip-path='url(#cpMzguMDJ8Mjg0LjE5fDIwMy4yOHwyMy4xOQ==)' />
<polyline points='216.94,183.28 221.33,183.28 ' style='stroke-width: 1.07; stroke-linecap: butt;' clip-path='url(#cpMzguMDJ8Mjg0LjE5fDIwMy4yOHwyMy4xOQ==)' />
<polyline points='223.97,182.72 228.37,182.72 ' style='stroke-width: 1.07; stroke-linecap: butt;' clip-path='url(#cpMzguMDJ8Mjg0LjE5fDIwMy4yOHwyMy4xOQ==)' />
<polyline points='226.17,182.72 226.17,188.46 ' style='stroke-width: 1.07; stroke-linecap: butt;' clip-path='url(#cpMzguMDJ8Mjg0LjE5fDIwMy4yOHwyMy4xOQ==)' />
<polyline points='223.97,188.46 228.37,188.46 ' style='stroke-width: 1.07; stroke-linecap: butt;' clip-path='url(#cpMzguMDJ8Mjg0LjE5fDIwMy4yOHwyMy4xOQ==)' />
<polyline points='234.52,23.19 238.92,23.19 ' style='stroke-width: 1.07; stroke-linecap: butt;' clip-path='url(#cpMzguMDJ8Mjg0LjE5fDIwMy4yOHwyMy4xOQ==)' />
<polyline points='236.72,23.19 236.72,35.76 ' style='stroke-width: 1.07; stroke-linecap: butt;' clip-path='url(#cpMzguMDJ8Mjg0LjE5fDIwMy4yOHwyMy4xOQ==)' />
<polyline points='234.52,35.76 238.92,35.76 ' style='stroke-width: 1.07; stroke-linecap: butt;' clip-path='url(#cpMzguMDJ8Mjg0LjE5fDIwMy4yOHwyMy4xOQ==)' />
<polyline points='241.55,51.91 245.95,51.91 ' style='stroke-width: 1.07; stroke-linecap: butt;' clip-path='url(#cpMzguMDJ8Mjg0LjE5fDIwMy4yOHwyMy4xOQ==)' />
<polyline points='243.75,51.91 243.75,68.70 ' style='stroke-width: 1.07; stroke-linecap: butt;' clip-path='url(#cpMzguMDJ8Mjg0LjE5fDIwMy4yOHwyMy4xOQ==)' />
<polyline points='241.55,68.70 245.95,68.70 ' style='stroke-width: 1.07; stroke-linecap: butt;' clip-path='url(#cpMzguMDJ8Mjg0LjE5fDIwMy4yOHwyMy4xOQ==)' />
<polyline points='252.10,183.91 256.50,183.91 ' style='stroke-width: 1.07; stroke-linecap: butt;' clip-path='url(#cpMzguMDJ8Mjg0LjE5fDIwMy4yOHwyMy4xOQ==)' />
<polyline points='254.30,183.91 254.30,186.67 ' style='stroke-width: 1.07; stroke-linecap: butt;' clip-path='url(#cpMzguMDJ8Mjg0LjE5fDIwMy4yOHwyMy4xOQ==)' />
<polyline points='252.10,186.67 256.50,186.67 ' style='stroke-width: 1.07; stroke-linecap: butt;' clip-path='url(#cpMzguMDJ8Mjg0LjE5fDIwMy4yOHwyMy4xOQ==)' />
<polyline points='259.14,185.62 263.53,185.62 ' style='stroke-width: 1.07; stroke-linecap: butt;' clip-path='url(#cpMzguMDJ8Mjg0LjE5fDIwMy4yOHwyMy4xOQ==)' />
<polyline points='261.34,185.62 261.34,188.53 ' style='stroke-width: 1.07; stroke-linecap: butt;' clip-path='url(#cpMzguMDJ8Mjg0LjE5fDIwMy4yOHwyMy4xOQ==)' />
<polyline points='259.14,188.53 263.53,188.53 ' style='stroke-width: 1.07; stroke-linecap: butt;' clip-path='url(#cpMzguMDJ8Mjg0LjE5fDIwMy4yOHwyMy4xOQ==)' />
<polyline points='269.69,168.62 274.08,168.62 ' style='stroke-width: 1.07; stroke-linecap: butt;' clip-path='url(#cpMzguMDJ8Mjg0LjE5fDIwMy4yOHwyMy4xOQ==)' />
<polyline points='271.89,168.62 271.89,178.08 ' style='stroke-width: 1.07; stroke-linecap: butt;' clip-path='url(#cpMzguMDJ8Mjg0LjE5fDIwMy4yOHwyMy4xOQ==)' />
<polyline points='269.69,178.08 274.08,178.08 ' style='stroke-width: 1.07; stroke-linecap: butt;' clip-path='url(#cpMzguMDJ8Mjg0LjE5fDIwMy4yOHwyMy4xOQ==)' />
<polyline points='276.72,163.12 281.12,163.12 ' style='stroke-width: 1.07; stroke-linecap: butt;' clip-path='url(#cpMzguMDJ8Mjg0LjE5fDIwMy4yOHwyMy4xOQ==)' />
<polyline points='278.92,163.12 278.92,173.07 ' style='stroke-width: 1.07; stroke-linecap: butt;' clip-path='url(#cpMzguMDJ8Mjg0LjE5fDIwMy4yOHwyMy4xOQ==)' />
<polyline points='276.72,173.07 281.12,173.07 ' style='stroke-width: 1.07; stroke-linecap: butt;' clip-path='url(#cpMzguMDJ8Mjg0LjE5fDIwMy4yOHwyMy4xOQ==)' />
<defs>
  <clipPath id='cpMC4wMHwzNDUuNjB8MjU5LjIwfDAuMDA='>
    <rect x='0.00' y='0.00' width='345.60' height='259.20' />
  </clipPath>
</defs>
<polyline points='38.02,203.28 38.02,23.19 ' style='stroke-width: 1.07; stroke-linecap: butt;' clip-path='url(#cpMC4wMHwzNDUuNjB8MjU5LjIwfDAuMDA=)' />
<g clip-path='url(#cpMC4wMHwzNDUuNjB8MjU5LjIwfDAuMDA=)'><text x='28.20' y='206.43' style='font-size: 8.80px; fill: #4D4D4D; font-family: Arial;' textLength='4.89px' lengthAdjust='spacingAndGlyphs'>0</text></g>
<g clip-path='url(#cpMC4wMHwzNDUuNjB8MjU5LjIwfDAuMDA=)'><text x='23.30' y='145.69' style='font-size: 8.80px; fill: #4D4D4D; font-family: Arial;' textLength='9.79px' lengthAdjust='spacingAndGlyphs'>50</text></g>
<g clip-path='url(#cpMC4wMHwzNDUuNjB8MjU5LjIwfDAuMDA=)'><text x='18.41' y='84.95' style='font-size: 8.80px; fill: #4D4D4D; font-family: Arial;' textLength='14.68px' lengthAdjust='spacingAndGlyphs'>100</text></g>
<polyline points='35.28,203.28 38.02,203.28 ' style='stroke-width: 1.07; stroke: #333333; stroke-linecap: butt;' clip-path='url(#cpMC4wMHwzNDUuNjB8MjU5LjIwfDAuMDA=)' />
<polyline points='35.28,142.54 38.02,142.54 ' style='stroke-width: 1.07; stroke: #333333; stroke-linecap: butt;' clip-path='url(#cpMC4wMHwzNDUuNjB8MjU5LjIwfDAuMDA=)' />
<polyline points='35.28,81.80 38.02,81.80 ' style='stroke-width: 1.07; stroke: #333333; stroke-linecap: butt;' clip-path='url(#cpMC4wMHwzNDUuNjB8MjU5LjIwfDAuMDA=)' />
<polyline points='38.02,203.28 284.19,203.28 ' style='stroke-width: 1.07; stroke-linecap: butt;' clip-path='url(#cpMC4wMHwzNDUuNjB8MjU5LjIwfDAuMDA=)' />
<polyline points='46.81,206.02 46.81,203.28 ' style='stroke-width: 1.07; stroke: #333333; stroke-linecap: butt;' clip-path='url(#cpMC4wMHwzNDUuNjB8MjU5LjIwfDAuMDA=)' />
<polyline points='64.40,206.02 64.40,203.28 ' style='stroke-width: 1.07; stroke: #333333; stroke-linecap: butt;' clip-path='url(#cpMC4wMHwzNDUuNjB8MjU5LjIwfDAuMDA=)' />
<polyline points='81.98,206.02 81.98,203.28 ' style='stroke-width: 1.07; stroke: #333333; stroke-linecap: butt;' clip-path='url(#cpMC4wMHwzNDUuNjB8MjU5LjIwfDAuMDA=)' />
<polyline points='99.57,206.02 99.57,203.28 ' style='stroke-width: 1.07; stroke: #333333; stroke-linecap: butt;' clip-path='url(#cpMC4wMHwzNDUuNjB8MjU5LjIwfDAuMDA=)' />
<polyline points='117.15,206.02 117.15,203.28 ' style='stroke-width: 1.07; stroke: #333333; stroke-linecap: butt;' clip-path='url(#cpMC4wMHwzNDUuNjB8MjU5LjIwfDAuMDA=)' />
<polyline points='134.73,206.02 134.73,203.28 ' style='stroke-width: 1.07; stroke: #333333; stroke-linecap: butt;' clip-path='url(#cpMC4wMHwzNDUuNjB8MjU5LjIwfDAuMDA=)' />
<polyline points='152.32,206.02 152.32,203.28 ' style='stroke-width: 1.07; stroke: #333333; stroke-linecap: butt;' clip-path='url(#cpMC4wMHwzNDUuNjB8MjU5LjIwfDAuMDA=)' />
<polyline points='169.90,206.02 169.90,203.28 ' style='stroke-width: 1.07; stroke: #333333; stroke-linecap: butt;' clip-path='url(#cpMC4wMHwzNDUuNjB8MjU5LjIwfDAuMDA=)' />
<polyline points='187.48,206.02 187.48,203.28 ' style='stroke-width: 1.07; stroke: #333333; stroke-linecap: butt;' clip-path='url(#cpMC4wMHwzNDUuNjB8MjU5LjIwfDAuMDA=)' />
<polyline points='205.07,206.02 205.07,203.28 ' style='stroke-width: 1.07; stroke: #333333; stroke-linecap: butt;' clip-path='url(#cpMC4wMHwzNDUuNjB8MjU5LjIwfDAuMDA=)' />
<polyline points='222.65,206.02 222.65,203.28 ' style='stroke-width: 1.07; stroke: #333333; stroke-linecap: butt;' clip-path='url(#cpMC4wMHwzNDUuNjB8MjU5LjIwfDAuMDA=)' />
<polyline points='240.23,206.02 240.23,203.28 ' style='stroke-width: 1.07; stroke: #333333; stroke-linecap: butt;' clip-path='url(#cpMC4wMHwzNDUuNjB8MjU5LjIwfDAuMDA=)' />
<polyline points='257.82,206.02 257.82,203.28 ' style='stroke-width: 1.07; stroke: #333333; stroke-linecap: butt;' clip-path='url(#cpMC4wMHwzNDUuNjB8MjU5LjIwfDAuMDA=)' />
<polyline points='275.40,206.02 275.40,203.28 ' style='stroke-width: 1.07; stroke: #333333; stroke-linecap: butt;' clip-path='url(#cpMC4wMHwzNDUuNjB8MjU5LjIwfDAuMDA=)' />
<g clip-path='url(#cpMC4wMHwzNDUuNjB8MjU5LjIwfDAuMDA=)'><text transform='translate(29.32,238.86) rotate(-50)' style='font-size: 8.80px; fill: #4D4D4D; font-family: Arial;' textLength='34.72px' lengthAdjust='spacingAndGlyphs'>AGPAT1</text></g>
<g clip-path='url(#cpMC4wMHwzNDUuNjB8MjU5LjIwfDAuMDA=)'><text transform='translate(46.90,238.86) rotate(-50)' style='font-size: 8.80px; fill: #4D4D4D; font-family: Arial;' textLength='34.72px' lengthAdjust='spacingAndGlyphs'>AGPAT2</text></g>
<g clip-path='url(#cpMC4wMHwzNDUuNjB8MjU5LjIwfDAuMDA=)'><text transform='translate(64.49,238.86) rotate(-50)' style='font-size: 8.80px; fill: #4D4D4D; font-family: Arial;' textLength='34.72px' lengthAdjust='spacingAndGlyphs'>AGPAT3</text></g>
<g clip-path='url(#cpMC4wMHwzNDUuNjB8MjU5LjIwfDAuMDA=)'><text transform='translate(82.07,238.86) rotate(-50)' style='font-size: 8.80px; fill: #4D4D4D; font-family: Arial;' textLength='34.72px' lengthAdjust='spacingAndGlyphs'>AGPAT4</text></g>
<g clip-path='url(#cpMC4wMHwzNDUuNjB8MjU5LjIwfDAuMDA=)'><text transform='translate(106.89,230.24) rotate(-50)' style='font-size: 8.80px; fill: #4D4D4D; font-family: Arial;' textLength='23.47px' lengthAdjust='spacingAndGlyphs'>CDS1</text></g>
<g clip-path='url(#cpMC4wMHwzNDUuNjB8MjU5LjIwfDAuMDA=)'><text transform='translate(124.47,230.24) rotate(-50)' style='font-size: 8.80px; fill: #4D4D4D; font-family: Arial;' textLength='23.47px' lengthAdjust='spacingAndGlyphs'>CDS2</text></g>
<g clip-path='url(#cpMC4wMHwzNDUuNjB8MjU5LjIwfDAuMDA=)'><text transform='translate(138.91,233.99) rotate(-50)' style='font-size: 8.80px; fill: #4D4D4D; font-family: Arial;' textLength='28.37px' lengthAdjust='spacingAndGlyphs'>CRLS1</text></g>
<g clip-path='url(#cpMC4wMHwzNDUuNjB8MjU5LjIwfDAuMDA=)'><text transform='translate(158.07,232.11) rotate(-50)' style='font-size: 8.80px; fill: #4D4D4D; font-family: Arial;' textLength='25.91px' lengthAdjust='spacingAndGlyphs'>GPAM</text></g>
<g clip-path='url(#cpMC4wMHwzNDUuNjB8MjU5LjIwfDAuMDA=)'><text transform='translate(171.56,236.99) rotate(-50)' style='font-size: 8.80px; fill: #4D4D4D; font-family: Arial;' textLength='32.28px' lengthAdjust='spacingAndGlyphs'>LCLAT1</text></g>
<g clip-path='url(#cpMC4wMHwzNDUuNjB8MjU5LjIwfDAuMDA=)'><text transform='translate(194.80,230.24) rotate(-50)' style='font-size: 8.80px; fill: #4D4D4D; font-family: Arial;' textLength='23.48px' lengthAdjust='spacingAndGlyphs'>PGS1</text></g>
<g clip-path='url(#cpMC4wMHwzNDUuNjB8MjU5LjIwfDAuMDA=)'><text transform='translate(205.16,238.85) rotate(-50)' style='font-size: 8.80px; fill: #4D4D4D; font-family: Arial;' textLength='34.71px' lengthAdjust='spacingAndGlyphs'>PTPMT1</text></g>
<g clip-path='url(#cpMC4wMHwzNDUuNjB8MjU5LjIwfDAuMDA=)'><text transform='translate(222.43,239.23) rotate(-50)' style='font-size: 8.80px; fill: #4D4D4D; font-family: Arial;' textLength='35.21px' lengthAdjust='spacingAndGlyphs'>STOML2</text></g>
<g clip-path='url(#cpMC4wMHwzNDUuNjB8MjU5LjIwfDAuMDA=)'><text transform='translate(239.70,239.60) rotate(-50)' style='font-size: 8.80px; fill: #4D4D4D; font-family: Arial;' textLength='35.69px' lengthAdjust='spacingAndGlyphs'>TAMM41</text></g>
<g clip-path='url(#cpMC4wMHwzNDUuNjB8MjU5LjIwfDAuMDA=)'><text transform='translate(269.54,224.99) rotate(-50)' style='font-size: 8.80px; fill: #4D4D4D; font-family: Arial;' textLength='16.62px' lengthAdjust='spacingAndGlyphs'>TAZ</text></g>
<g clip-path='url(#cpMC4wMHwzNDUuNjB8MjU5LjIwfDAuMDA=)'><text transform='translate(13.35,124.84) rotate(-90)' style='font-size: 11.00px; font-family: Arial;' textLength='23.22px' lengthAdjust='spacingAndGlyphs'>TPM</text></g>
<rect x='295.15' y='82.64' width='44.97' height='61.19' style='stroke-width: 1.07; stroke: none; fill: #FFFFFF;' clip-path='url(#cpMC4wMHwzNDUuNjB8MjU5LjIwfDAuMDA=)' />
<g clip-path='url(#cpMC4wMHwzNDUuNjB8MjU5LjIwfDAuMDA=)'><text x='300.63' y='97.15' style='font-size: 11.00px; font-family: Arial;' textLength='17.74px' lengthAdjust='spacingAndGlyphs'>day</text></g>
<rect x='301.34' y='104.49' width='15.86' height='15.86' style='stroke-width: 1.07; stroke: none; stroke-linecap: square; stroke-linejoin: miter; fill: #FFE7CB;' clip-path='url(#cpMC4wMHwzNDUuNjB8MjU5LjIwfDAuMDA=)' />
<rect x='301.34' y='121.77' width='15.86' height='15.86' style='stroke-width: 1.07; stroke: none; stroke-linecap: square; stroke-linejoin: miter; fill: #C9930D;' clip-path='url(#cpMC4wMHwzNDUuNjB8MjU5LjIwfDAuMDA=)' />
<g clip-path='url(#cpMC4wMHwzNDUuNjB8MjU5LjIwfDAuMDA=)'><text x='323.39' y='115.58' style='font-size: 8.80px; font-family: Arial;' textLength='11.25px' lengthAdjust='spacingAndGlyphs'>D0</text></g>
<g clip-path='url(#cpMC4wMHwzNDUuNjB8MjU5LjIwfDAuMDA=)'><text x='323.39' y='132.86' style='font-size: 8.80px; font-family: Arial;' textLength='11.25px' lengthAdjust='spacingAndGlyphs'>D7</text></g>
<g clip-path='url(#cpMC4wMHwzNDUuNjB8MjU5LjIwfDAuMDA=)'><text x='38.02' y='14.93' style='font-size: 13.20px; font-family: Arial;' textLength='121.80px' lengthAdjust='spacingAndGlyphs'>cardiolipin_synthesis</text></g>
</svg>
