<?xml version='1.0' encoding='UTF-8' ?>
<svg xmlns='http://www.w3.org/2000/svg' xmlns:xlink='http://www.w3.org/1999/xlink' viewBox='0 0 207.36 259.20'>
<defs>
  <style type='text/css'><![CDATA[
    line, polyline, polygon, path, rect, circle {
      fill: none;
      stroke: #000000;
      stroke-linecap: round;
      stroke-linejoin: round;
      stroke-miterlimit: 10.00;
    }
  ]]></style>
</defs>
<rect width='100%' height='100%' style='stroke: none; fill: #FFFFFF;'/>
<rect x='0.000000000000016' y='0.00' width='207.36' height='259.20' style='stroke-width: 1.07; stroke: #FFFFFF; fill: #FFFFFF;' />
<defs>
  <clipPath id='cpMzEuMTZ8MTQxLjA2fDIxMS41MnwyMy4xOQ=='>
    <rect x='31.16' y='23.19' width='109.90' height='188.33' />
  </clipPath>
</defs>
<rect x='31.16' y='23.19' width='109.90' height='188.33' style='stroke-width: 1.07; stroke: none; fill: #FFFFFF;' clip-path='url(#cpMzEuMTZ8MTQxLjA2fDIxMS41MnwyMy4xOQ==)' />
<line x1='31.16' y1='117.35' x2='141.06' y2='117.35' style='stroke-width: 1.07; stroke: #333333; stroke-dasharray: 5.69,5.69; stroke-linecap: butt;' clip-path='url(#cpMzEuMTZ8MTQxLjA2fDIxMS41MnwyMy4xOQ==)' />
<rect x='33.91' y='117.35' width='7.33' height='53.03' style='stroke-width: 1.07; stroke: none; stroke-linecap: square; stroke-linejoin: miter; fill: #F0DD68;' clip-path='url(#cpMzEuMTZ8MTQxLjA2fDIxMS41MnwyMy4xOQ==)' />
<rect x='61.39' y='117.35' width='7.33' height='17.13' style='stroke-width: 1.07; stroke: none; stroke-linecap: square; stroke-linejoin: miter; fill: #F0DD68;' clip-path='url(#cpMzEuMTZ8MTQxLjA2fDIxMS41MnwyMy4xOQ==)' />
<rect x='116.33' y='94.88' width='7.33' height='22.47' style='stroke-width: 1.07; stroke: none; stroke-linecap: square; stroke-linejoin: miter; fill: #F0DD68;' clip-path='url(#cpMzEuMTZ8MTQxLjA2fDIxMS41MnwyMy4xOQ==)' />
<rect x='88.86' y='117.35' width='7.33' height='11.08' style='stroke-width: 1.07; stroke: none; stroke-linecap: square; stroke-linejoin: miter; fill: #F0DD68;' clip-path='url(#cpMzEuMTZ8MTQxLjA2fDIxMS41MnwyMy4xOQ==)' />
<rect x='41.24' y='117.35' width='7.33' height='53.93' style='stroke-width: 1.07; stroke: none; stroke-linecap: square; stroke-linejoin: miter; fill: #BBA90B;' clip-path='url(#cpMzEuMTZ8MTQxLjA2fDIxMS41MnwyMy4xOQ==)' />
<rect x='68.71' y='117.35' width='7.33' height='50.67' style='stroke-width: 1.07; stroke: none; stroke-linecap: square; stroke-linejoin: miter; fill: #BBA90B;' clip-path='url(#cpMzEuMTZ8MTQxLjA2fDIxMS41MnwyMy4xOQ==)' />
<rect x='123.66' y='117.35' width='7.33' height='6.79' style='stroke-width: 1.07; stroke: none; stroke-linecap: square; stroke-linejoin: miter; fill: #BBA90B;' clip-path='url(#cpMzEuMTZ8MTQxLjA2fDIxMS41MnwyMy4xOQ==)' />
<rect x='96.19' y='117.35' width='7.33' height='36.58' style='stroke-width: 1.07; stroke: none; stroke-linecap: square; stroke-linejoin: miter; fill: #BBA90B;' clip-path='url(#cpMzEuMTZ8MTQxLjA2fDIxMS41MnwyMy4xOQ==)' />
<rect x='48.56' y='50.33' width='7.33' height='67.02' style='stroke-width: 1.07; stroke: none; stroke-linecap: square; stroke-linejoin: miter; fill: #6D6205;' clip-path='url(#cpMzEuMTZ8MTQxLjA2fDIxMS41MnwyMy4xOQ==)' />
<rect x='76.04' y='95.37' width='7.33' height='21.98' style='stroke-width: 1.07; stroke: none; stroke-linecap: square; stroke-linejoin: miter; fill: #6D6205;' clip-path='url(#cpMzEuMTZ8MTQxLjA2fDIxMS41MnwyMy4xOQ==)' />
<rect x='130.99' y='117.35' width='7.33' height='8.58' style='stroke-width: 1.07; stroke: none; stroke-linecap: square; stroke-linejoin: miter; fill: #6D6205;' clip-path='url(#cpMzEuMTZ8MTQxLjA2fDIxMS41MnwyMy4xOQ==)' />
<rect x='103.51' y='114.57' width='7.33' height='2.78' style='stroke-width: 1.07; stroke: none; stroke-linecap: square; stroke-linejoin: miter; fill: #6D6205;' clip-path='url(#cpMzEuMTZ8MTQxLjA2fDIxMS41MnwyMy4xOQ==)' />
<polyline points='35.74,159.56 39.41,159.56 ' style='stroke-width: 1.07; stroke-linecap: butt;' clip-path='url(#cpMzEuMTZ8MTQxLjA2fDIxMS41MnwyMy4xOQ==)' />
<polyline points='37.57,159.56 37.57,181.21 ' style='stroke-width: 1.07; stroke-linecap: butt;' clip-path='url(#cpMzEuMTZ8MTQxLjA2fDIxMS41MnwyMy4xOQ==)' />
<polyline points='35.74,181.21 39.41,181.21 ' style='stroke-width: 1.07; stroke-linecap: butt;' clip-path='url(#cpMzEuMTZ8MTQxLjA2fDIxMS41MnwyMy4xOQ==)' />
<polyline points='63.22,121.83 66.88,121.83 ' style='stroke-width: 1.07; stroke-linecap: butt;' clip-path='url(#cpMzEuMTZ8MTQxLjA2fDIxMS41MnwyMy4xOQ==)' />
<polyline points='65.05,121.83 65.05,147.13 ' style='stroke-width: 1.07; stroke-linecap: butt;' clip-path='url(#cpMzEuMTZ8MTQxLjA2fDIxMS41MnwyMy4xOQ==)' />
<polyline points='63.22,147.13 66.88,147.13 ' style='stroke-width: 1.07; stroke-linecap: butt;' clip-path='url(#cpMzEuMTZ8MTQxLjA2fDIxMS41MnwyMy4xOQ==)' />
<polyline points='118.16,80.20 121.83,80.20 ' style='stroke-width: 1.07; stroke-linecap: butt;' clip-path='url(#cpMzEuMTZ8MTQxLjA2fDIxMS41MnwyMy4xOQ==)' />
<polyline points='120.00,80.20 120.00,109.57 ' style='stroke-width: 1.07; stroke-linecap: butt;' clip-path='url(#cpMzEuMTZ8MTQxLjA2fDIxMS41MnwyMy4xOQ==)' />
<polyline points='118.16,109.57 121.83,109.57 ' style='stroke-width: 1.07; stroke-linecap: butt;' clip-path='url(#cpMzEuMTZ8MTQxLjA2fDIxMS41MnwyMy4xOQ==)' />
<polyline points='90.69,112.67 94.35,112.67 ' style='stroke-width: 1.07; stroke-linecap: butt;' clip-path='url(#cpMzEuMTZ8MTQxLjA2fDIxMS41MnwyMy4xOQ==)' />
<polyline points='92.52,112.67 92.52,144.20 ' style='stroke-width: 1.07; stroke-linecap: butt;' clip-path='url(#cpMzEuMTZ8MTQxLjA2fDIxMS41MnwyMy4xOQ==)' />
<polyline points='90.69,144.20 94.35,144.20 ' style='stroke-width: 1.07; stroke-linecap: butt;' clip-path='url(#cpMzEuMTZ8MTQxLjA2fDIxMS41MnwyMy4xOQ==)' />
<polyline points='43.07,160.46 46.73,160.46 ' style='stroke-width: 1.07; stroke-linecap: butt;' clip-path='url(#cpMzEuMTZ8MTQxLjA2fDIxMS41MnwyMy4xOQ==)' />
<polyline points='44.90,160.46 44.90,182.10 ' style='stroke-width: 1.07; stroke-linecap: butt;' clip-path='url(#cpMzEuMTZ8MTQxLjA2fDIxMS41MnwyMy4xOQ==)' />
<polyline points='43.07,182.10 46.73,182.10 ' style='stroke-width: 1.07; stroke-linecap: butt;' clip-path='url(#cpMzEuMTZ8MTQxLjA2fDIxMS41MnwyMy4xOQ==)' />
<polyline points='70.54,155.35 74.21,155.35 ' style='stroke-width: 1.07; stroke-linecap: butt;' clip-path='url(#cpMzEuMTZ8MTQxLjA2fDIxMS41MnwyMy4xOQ==)' />
<polyline points='72.38,155.35 72.38,180.69 ' style='stroke-width: 1.07; stroke-linecap: butt;' clip-path='url(#cpMzEuMTZ8MTQxLjA2fDIxMS41MnwyMy4xOQ==)' />
<polyline points='70.54,180.69 74.21,180.69 ' style='stroke-width: 1.07; stroke-linecap: butt;' clip-path='url(#cpMzEuMTZ8MTQxLjA2fDIxMS41MnwyMy4xOQ==)' />
<polyline points='125.49,109.46 129.15,109.46 ' style='stroke-width: 1.07; stroke-linecap: butt;' clip-path='url(#cpMzEuMTZ8MTQxLjA2fDIxMS41MnwyMy4xOQ==)' />
<polyline points='127.32,109.46 127.32,138.82 ' style='stroke-width: 1.07; stroke-linecap: butt;' clip-path='url(#cpMzEuMTZ8MTQxLjA2fDIxMS41MnwyMy4xOQ==)' />
<polyline points='125.49,138.82 129.15,138.82 ' style='stroke-width: 1.07; stroke-linecap: butt;' clip-path='url(#cpMzEuMTZ8MTQxLjA2fDIxMS41MnwyMy4xOQ==)' />
<polyline points='98.02,138.16 101.68,138.16 ' style='stroke-width: 1.07; stroke-linecap: butt;' clip-path='url(#cpMzEuMTZ8MTQxLjA2fDIxMS41MnwyMy4xOQ==)' />
<polyline points='99.85,138.16 99.85,169.70 ' style='stroke-width: 1.07; stroke-linecap: butt;' clip-path='url(#cpMzEuMTZ8MTQxLjA2fDIxMS41MnwyMy4xOQ==)' />
<polyline points='98.02,169.70 101.68,169.70 ' style='stroke-width: 1.07; stroke-linecap: butt;' clip-path='url(#cpMzEuMTZ8MTQxLjA2fDIxMS41MnwyMy4xOQ==)' />
<polyline points='50.40,39.53 54.06,39.53 ' style='stroke-width: 1.07; stroke-linecap: butt;' clip-path='url(#cpMzEuMTZ8MTQxLjA2fDIxMS41MnwyMy4xOQ==)' />
<polyline points='52.23,39.53 52.23,61.14 ' style='stroke-width: 1.07; stroke-linecap: butt;' clip-path='url(#cpMzEuMTZ8MTQxLjA2fDIxMS41MnwyMy4xOQ==)' />
<polyline points='50.40,61.14 54.06,61.14 ' style='stroke-width: 1.07; stroke-linecap: butt;' clip-path='url(#cpMzEuMTZ8MTQxLjA2fDIxMS41MnwyMy4xOQ==)' />
<polyline points='77.87,82.74 81.53,82.74 ' style='stroke-width: 1.07; stroke-linecap: butt;' clip-path='url(#cpMzEuMTZ8MTQxLjA2fDIxMS41MnwyMy4xOQ==)' />
<polyline points='79.70,82.74 79.70,108.00 ' style='stroke-width: 1.07; stroke-linecap: butt;' clip-path='url(#cpMzEuMTZ8MTQxLjA2fDIxMS41MnwyMy4xOQ==)' />
<polyline points='77.87,108.00 81.53,108.00 ' style='stroke-width: 1.07; stroke-linecap: butt;' clip-path='url(#cpMzEuMTZ8MTQxLjA2fDIxMS41MnwyMy4xOQ==)' />
<polyline points='132.82,111.24 136.48,111.24 ' style='stroke-width: 1.07; stroke-linecap: butt;' clip-path='url(#cpMzEuMTZ8MTQxLjA2fDIxMS41MnwyMy4xOQ==)' />
<polyline points='134.65,111.24 134.65,140.62 ' style='stroke-width: 1.07; stroke-linecap: butt;' clip-path='url(#cpMzEuMTZ8MTQxLjA2fDIxMS41MnwyMy4xOQ==)' />
<polyline points='132.82,140.62 136.48,140.62 ' style='stroke-width: 1.07; stroke-linecap: butt;' clip-path='url(#cpMzEuMTZ8MTQxLjA2fDIxMS41MnwyMy4xOQ==)' />
<polyline points='105.34,98.81 109.01,98.81 ' style='stroke-width: 1.07; stroke-linecap: butt;' clip-path='url(#cpMzEuMTZ8MTQxLjA2fDIxMS41MnwyMy4xOQ==)' />
<polyline points='107.18,98.81 107.18,130.33 ' style='stroke-width: 1.07; stroke-linecap: butt;' clip-path='url(#cpMzEuMTZ8MTQxLjA2fDIxMS41MnwyMy4xOQ==)' />
<polyline points='105.34,130.33 109.01,130.33 ' style='stroke-width: 1.07; stroke-linecap: butt;' clip-path='url(#cpMzEuMTZ8MTQxLjA2fDIxMS41MnwyMy4xOQ==)' />
<g clip-path='url(#cpMzEuMTZ8MTQxLjA2fDIxMS41MnwyMy4xOQ==)'><text x='34.07' y='197.57' style='font-size: 18.02px; font-family: Arial;' textLength='7.01px' lengthAdjust='spacingAndGlyphs'>*</text></g>
<g clip-path='url(#cpMzEuMTZ8MTQxLjA2fDIxMS41MnwyMy4xOQ==)'><text x='62.55' y='153.12' style='font-size: 18.02px; font-family: Arial;' textLength='5.01px' lengthAdjust='spacingAndGlyphs'> </text></g>
<g clip-path='url(#cpMzEuMTZ8MTQxLjA2fDIxMS41MnwyMy4xOQ==)'><text x='117.49' y='74.21' style='font-size: 18.02px; font-family: Arial;' textLength='5.01px' lengthAdjust='spacingAndGlyphs'> </text></g>
<g clip-path='url(#cpMzEuMTZ8MTQxLjA2fDIxMS41MnwyMy4xOQ==)'><text x='90.02' y='150.19' style='font-size: 18.02px; font-family: Arial;' textLength='5.01px' lengthAdjust='spacingAndGlyphs'> </text></g>
<g clip-path='url(#cpMzEuMTZ8MTQxLjA2fDIxMS41MnwyMy4xOQ==)'><text x='41.40' y='198.47' style='font-size: 18.02px; font-family: Arial;' textLength='7.01px' lengthAdjust='spacingAndGlyphs'>*</text></g>
<g clip-path='url(#cpMzEuMTZ8MTQxLjA2fDIxMS41MnwyMy4xOQ==)'><text x='68.87' y='197.05' style='font-size: 18.02px; font-family: Arial;' textLength='7.01px' lengthAdjust='spacingAndGlyphs'>*</text></g>
<g clip-path='url(#cpMzEuMTZ8MTQxLjA2fDIxMS41MnwyMy4xOQ==)'><text x='124.82' y='144.82' style='font-size: 18.02px; font-family: Arial;' textLength='5.01px' lengthAdjust='spacingAndGlyphs'> </text></g>
<g clip-path='url(#cpMzEuMTZ8MTQxLjA2fDIxMS41MnwyMy4xOQ==)'><text x='97.35' y='175.69' style='font-size: 18.02px; font-family: Arial;' textLength='5.01px' lengthAdjust='spacingAndGlyphs'> </text></g>
<g clip-path='url(#cpMzEuMTZ8MTQxLjA2fDIxMS41MnwyMy4xOQ==)'><text x='48.72' y='43.91' style='font-size: 18.02px; font-family: Arial;' textLength='7.01px' lengthAdjust='spacingAndGlyphs'>*</text></g>
<g clip-path='url(#cpMzEuMTZ8MTQxLjA2fDIxMS41MnwyMy4xOQ==)'><text x='77.20' y='76.74' style='font-size: 18.02px; font-family: Arial;' textLength='5.01px' lengthAdjust='spacingAndGlyphs'> </text></g>
<g clip-path='url(#cpMzEuMTZ8MTQxLjA2fDIxMS41MnwyMy4xOQ==)'><text x='132.15' y='146.61' style='font-size: 18.02px; font-family: Arial;' textLength='5.01px' lengthAdjust='spacingAndGlyphs'> </text></g>
<g clip-path='url(#cpMzEuMTZ8MTQxLjA2fDIxMS41MnwyMy4xOQ==)'><text x='104.67' y='92.81' style='font-size: 18.02px; font-family: Arial;' textLength='5.01px' lengthAdjust='spacingAndGlyphs'> </text></g>
<defs>
  <clipPath id='cpMC4wMHwyMDcuMzZ8MjU5LjIwfDAuMDA='>
    <rect x='0.00' y='0.00' width='207.36' height='259.20' />
  </clipPath>
</defs>
<polyline points='31.16,211.52 31.16,23.19 ' style='stroke-width: 1.07; stroke-linecap: butt;' clip-path='url(#cpMC4wMHwyMDcuMzZ8MjU5LjIwfDAuMDA=)' />
<g clip-path='url(#cpMC4wMHwyMDcuMzZ8MjU5LjIwfDAuMDA=)'><text x='18.41' y='168.03' style='font-size: 8.80px; fill: #4D4D4D; font-family: Arial;' textLength='7.82px' lengthAdjust='spacingAndGlyphs'>-1</text></g>
<g clip-path='url(#cpMC4wMHwyMDcuMzZ8MjU5LjIwfDAuMDA=)'><text x='21.34' y='120.50' style='font-size: 8.80px; fill: #4D4D4D; font-family: Arial;' textLength='4.89px' lengthAdjust='spacingAndGlyphs'>0</text></g>
<g clip-path='url(#cpMC4wMHwyMDcuMzZ8MjU5LjIwfDAuMDA=)'><text x='21.34' y='72.97' style='font-size: 8.80px; fill: #4D4D4D; font-family: Arial;' textLength='4.89px' lengthAdjust='spacingAndGlyphs'>1</text></g>
<polyline points='28.42,164.88 31.16,164.88 ' style='stroke-width: 1.07; stroke: #333333; stroke-linecap: butt;' clip-path='url(#cpMC4wMHwyMDcuMzZ8MjU5LjIwfDAuMDA=)' />
<polyline points='28.42,117.35 31.16,117.35 ' style='stroke-width: 1.07; stroke: #333333; stroke-linecap: butt;' clip-path='url(#cpMC4wMHwyMDcuMzZ8MjU5LjIwfDAuMDA=)' />
<polyline points='28.42,69.82 31.16,69.82 ' style='stroke-width: 1.07; stroke: #333333; stroke-linecap: butt;' clip-path='url(#cpMC4wMHwyMDcuMzZ8MjU5LjIwfDAuMDA=)' />
<polyline points='31.16,211.52 141.06,211.52 ' style='stroke-width: 1.07; stroke-linecap: butt;' clip-path='url(#cpMC4wMHwyMDcuMzZ8MjU5LjIwfDAuMDA=)' />
<polyline points='44.90,214.26 44.90,211.52 ' style='stroke-width: 1.07; stroke: #333333; stroke-linecap: butt;' clip-path='url(#cpMC4wMHwyMDcuMzZ8MjU5LjIwfDAuMDA=)' />
<polyline points='72.38,214.26 72.38,211.52 ' style='stroke-width: 1.07; stroke: #333333; stroke-linecap: butt;' clip-path='url(#cpMC4wMHwyMDcuMzZ8MjU5LjIwfDAuMDA=)' />
<polyline points='99.85,214.26 99.85,211.52 ' style='stroke-width: 1.07; stroke: #333333; stroke-linecap: butt;' clip-path='url(#cpMC4wMHwyMDcuMzZ8MjU5LjIwfDAuMDA=)' />
<polyline points='127.32,214.26 127.32,211.52 ' style='stroke-width: 1.07; stroke: #333333; stroke-linecap: butt;' clip-path='url(#cpMC4wMHwyMDcuMzZ8MjU5LjIwfDAuMDA=)' />
<g clip-path='url(#cpMC4wMHwyMDcuMzZ8MjU5LjIwfDAuMDA=)'><text transform='translate(34.01,239.23) rotate(-50)' style='font-size: 8.80px; fill: #4D4D4D; font-family: Arial;' textLength='24.45px' lengthAdjust='spacingAndGlyphs'>SDHA</text></g>
<g clip-path='url(#cpMC4wMHwyMDcuMzZ8MjU5LjIwfDAuMDA=)'><text transform='translate(61.48,239.23) rotate(-50)' style='font-size: 8.80px; fill: #4D4D4D; font-family: Arial;' textLength='24.45px' lengthAdjust='spacingAndGlyphs'>SDHB</text></g>
<g clip-path='url(#cpMC4wMHwyMDcuMzZ8MjU5LjIwfDAuMDA=)'><text transform='translate(88.65,239.60) rotate(-50)' style='font-size: 8.80px; fill: #4D4D4D; font-family: Arial;' textLength='24.93px' lengthAdjust='spacingAndGlyphs'>SDHD</text></g>
<g clip-path='url(#cpMC4wMHwyMDcuMzZ8MjU5LjIwfDAuMDA=)'><text transform='translate(116.12,239.60) rotate(-50)' style='font-size: 8.80px; fill: #4D4D4D; font-family: Arial;' textLength='24.93px' lengthAdjust='spacingAndGlyphs'>SDHC</text></g>
<g clip-path='url(#cpMC4wMHwyMDcuMzZ8MjU5LjIwfDAuMDA=)'><text transform='translate(13.35,194.70) rotate(-90)' style='font-size: 11.00px; font-family: Arial;' textLength='154.70px' lengthAdjust='spacingAndGlyphs'>log2 Fold Change relative to D0</text></g>
<rect x='152.02' y='78.12' width='49.86' height='78.47' style='stroke-width: 1.07; stroke: none; fill: #FFFFFF;' clip-path='url(#cpMC4wMHwyMDcuMzZ8MjU5LjIwfDAuMDA=)' />
<g clip-path='url(#cpMC4wMHwyMDcuMzZ8MjU5LjIwfDAuMDA=)'><text x='157.50' y='92.63' style='font-size: 11.00px; font-family: Arial;' textLength='17.74px' lengthAdjust='spacingAndGlyphs'>day</text></g>
<rect x='158.21' y='99.98' width='15.86' height='15.86' style='stroke-width: 1.07; stroke: none; stroke-linecap: square; stroke-linejoin: miter; fill: #F0DD68;' clip-path='url(#cpMC4wMHwyMDcuMzZ8MjU5LjIwfDAuMDA=)' />
<rect x='158.21' y='117.26' width='15.86' height='15.86' style='stroke-width: 1.07; stroke: none; stroke-linecap: square; stroke-linejoin: miter; fill: #BBA90B;' clip-path='url(#cpMC4wMHwyMDcuMzZ8MjU5LjIwfDAuMDA=)' />
<rect x='158.21' y='134.54' width='15.86' height='15.86' style='stroke-width: 1.07; stroke: none; stroke-linecap: square; stroke-linejoin: miter; fill: #6D6205;' clip-path='url(#cpMC4wMHwyMDcuMzZ8MjU5LjIwfDAuMDA=)' />
<g clip-path='url(#cpMC4wMHwyMDcuMzZ8MjU5LjIwfDAuMDA=)'><text x='180.26' y='111.06' style='font-size: 8.80px; font-family: Arial;' textLength='11.25px' lengthAdjust='spacingAndGlyphs'>D2</text></g>
<g clip-path='url(#cpMC4wMHwyMDcuMzZ8MjU5LjIwfDAuMDA=)'><text x='180.26' y='128.34' style='font-size: 8.80px; font-family: Arial;' textLength='11.25px' lengthAdjust='spacingAndGlyphs'>D5</text></g>
<g clip-path='url(#cpMC4wMHwyMDcuMzZ8MjU5LjIwfDAuMDA=)'><text x='180.26' y='145.62' style='font-size: 8.80px; font-family: Arial;' textLength='16.14px' lengthAdjust='spacingAndGlyphs'>D15</text></g>
<g clip-path='url(#cpMC4wMHwyMDcuMzZ8MjU5LjIwfDAuMDA=)'><text x='31.16' y='14.93' style='font-size: 13.20px; font-family: Arial;' textLength='66.76px' lengthAdjust='spacingAndGlyphs'>Complex_II</text></g>
</svg>
