<?xml version='1.0' encoding='UTF-8' ?>
<svg xmlns='http://www.w3.org/2000/svg' xmlns:xlink='http://www.w3.org/1999/xlink' viewBox='0 0 466.56 259.20'>
<defs>
  <style type='text/css'><![CDATA[
    line, polyline, polygon, path, rect, circle {
      fill: none;
      stroke: #000000;
      stroke-linecap: round;
      stroke-linejoin: round;
      stroke-miterlimit: 10.00;
    }
  ]]></style>
</defs>
<rect width='100%' height='100%' style='stroke: none; fill: #FFFFFF;'/>
<rect x='0.00' y='0.00' width='466.56' height='259.20' style='stroke-width: 1.07; stroke: #FFFFFF; fill: #FFFFFF;' />
<defs>
  <clipPath id='cpNDIuOTJ8NDA1LjE1fDIwMS43NnwyMy4xOQ=='>
    <rect x='42.92' y='23.19' width='362.24' height='178.58' />
  </clipPath>
</defs>
<rect x='42.92' y='23.19' width='362.24' height='178.58' style='stroke-width: 1.07; stroke: none; fill: #FFFFFF;' clip-path='url(#cpNDIuOTJ8NDA1LjE1fDIwMS43NnwyMy4xOQ==)' />
<rect x='44.64' y='168.63' width='6.90' height='33.13' style='stroke-width: 1.07; stroke: none; stroke-linecap: square; stroke-linejoin: miter; fill: #FFDBD2;' clip-path='url(#cpNDIuOTJ8NDA1LjE1fDIwMS43NnwyMy4xOQ==)' />
<rect x='51.54' y='174.96' width='6.90' height='26.80' style='stroke-width: 1.07; stroke: none; stroke-linecap: square; stroke-linejoin: miter; fill: #A66753;' clip-path='url(#cpNDIuOTJ8NDA1LjE1fDIwMS43NnwyMy4xOQ==)' />
<rect x='61.89' y='199.49' width='6.90' height='2.27' style='stroke-width: 1.07; stroke: none; stroke-linecap: square; stroke-linejoin: miter; fill: #FFDBD2;' clip-path='url(#cpNDIuOTJ8NDA1LjE1fDIwMS43NnwyMy4xOQ==)' />
<rect x='68.79' y='200.87' width='6.90' height='0.90' style='stroke-width: 1.07; stroke: none; stroke-linecap: square; stroke-linejoin: miter; fill: #A66753;' clip-path='url(#cpNDIuOTJ8NDA1LjE1fDIwMS43NnwyMy4xOQ==)' />
<rect x='79.14' y='129.77' width='6.90' height='72.00' style='stroke-width: 1.07; stroke: none; stroke-linecap: square; stroke-linejoin: miter; fill: #FFDBD2;' clip-path='url(#cpNDIuOTJ8NDA1LjE1fDIwMS43NnwyMy4xOQ==)' />
<rect x='86.04' y='155.71' width='6.90' height='46.05' style='stroke-width: 1.07; stroke: none; stroke-linecap: square; stroke-linejoin: miter; fill: #A66753;' clip-path='url(#cpNDIuOTJ8NDA1LjE1fDIwMS43NnwyMy4xOQ==)' />
<rect x='96.39' y='197.35' width='6.90' height='4.41' style='stroke-width: 1.07; stroke: none; stroke-linecap: square; stroke-linejoin: miter; fill: #FFDBD2;' clip-path='url(#cpNDIuOTJ8NDA1LjE1fDIwMS43NnwyMy4xOQ==)' />
<rect x='103.29' y='198.88' width='6.90' height='2.89' style='stroke-width: 1.07; stroke: none; stroke-linecap: square; stroke-linejoin: miter; fill: #A66753;' clip-path='url(#cpNDIuOTJ8NDA1LjE1fDIwMS43NnwyMy4xOQ==)' />
<rect x='113.64' y='37.44' width='6.90' height='164.33' style='stroke-width: 1.07; stroke: none; stroke-linecap: square; stroke-linejoin: miter; fill: #FFDBD2;' clip-path='url(#cpNDIuOTJ8NDA1LjE1fDIwMS43NnwyMy4xOQ==)' />
<rect x='120.54' y='83.70' width='6.90' height='118.07' style='stroke-width: 1.07; stroke: none; stroke-linecap: square; stroke-linejoin: miter; fill: #A66753;' clip-path='url(#cpNDIuOTJ8NDA1LjE1fDIwMS43NnwyMy4xOQ==)' />
<rect x='130.89' y='190.59' width='6.90' height='11.18' style='stroke-width: 1.07; stroke: none; stroke-linecap: square; stroke-linejoin: miter; fill: #FFDBD2;' clip-path='url(#cpNDIuOTJ8NDA1LjE1fDIwMS43NnwyMy4xOQ==)' />
<rect x='137.79' y='195.02' width='6.90' height='6.74' style='stroke-width: 1.07; stroke: none; stroke-linecap: square; stroke-linejoin: miter; fill: #A66753;' clip-path='url(#cpNDIuOTJ8NDA1LjE1fDIwMS43NnwyMy4xOQ==)' />
<rect x='148.14' y='196.31' width='6.90' height='5.45' style='stroke-width: 1.07; stroke: none; stroke-linecap: square; stroke-linejoin: miter; fill: #FFDBD2;' clip-path='url(#cpNDIuOTJ8NDA1LjE1fDIwMS43NnwyMy4xOQ==)' />
<rect x='155.04' y='199.63' width='6.90' height='2.13' style='stroke-width: 1.07; stroke: none; stroke-linecap: square; stroke-linejoin: miter; fill: #A66753;' clip-path='url(#cpNDIuOTJ8NDA1LjE1fDIwMS43NnwyMy4xOQ==)' />
<rect x='165.39' y='200.65' width='6.90' height='1.11' style='stroke-width: 1.07; stroke: none; stroke-linecap: square; stroke-linejoin: miter; fill: #FFDBD2;' clip-path='url(#cpNDIuOTJ8NDA1LjE1fDIwMS43NnwyMy4xOQ==)' />
<rect x='172.29' y='200.91' width='6.90' height='0.85' style='stroke-width: 1.07; stroke: none; stroke-linecap: square; stroke-linejoin: miter; fill: #A66753;' clip-path='url(#cpNDIuOTJ8NDA1LjE1fDIwMS43NnwyMy4xOQ==)' />
<rect x='182.64' y='177.04' width='6.90' height='24.72' style='stroke-width: 1.07; stroke: none; stroke-linecap: square; stroke-linejoin: miter; fill: #FFDBD2;' clip-path='url(#cpNDIuOTJ8NDA1LjE1fDIwMS43NnwyMy4xOQ==)' />
<rect x='189.54' y='185.01' width='6.90' height='16.75' style='stroke-width: 1.07; stroke: none; stroke-linecap: square; stroke-linejoin: miter; fill: #A66753;' clip-path='url(#cpNDIuOTJ8NDA1LjE1fDIwMS43NnwyMy4xOQ==)' />
<rect x='199.89' y='109.86' width='6.90' height='91.90' style='stroke-width: 1.07; stroke: none; stroke-linecap: square; stroke-linejoin: miter; fill: #FFDBD2;' clip-path='url(#cpNDIuOTJ8NDA1LjE1fDIwMS43NnwyMy4xOQ==)' />
<rect x='206.79' y='137.21' width='6.90' height='64.55' style='stroke-width: 1.07; stroke: none; stroke-linecap: square; stroke-linejoin: miter; fill: #A66753;' clip-path='url(#cpNDIuOTJ8NDA1LjE1fDIwMS43NnwyMy4xOQ==)' />
<rect x='217.14' y='201.63' width='6.90' height='0.13' style='stroke-width: 1.07; stroke: none; stroke-linecap: square; stroke-linejoin: miter; fill: #FFDBD2;' clip-path='url(#cpNDIuOTJ8NDA1LjE1fDIwMS43NnwyMy4xOQ==)' />
<rect x='224.04' y='201.73' width='6.90' height='0.036' style='stroke-width: 1.07; stroke: none; stroke-linecap: square; stroke-linejoin: miter; fill: #A66753;' clip-path='url(#cpNDIuOTJ8NDA1LjE1fDIwMS43NnwyMy4xOQ==)' />
<rect x='234.38' y='197.59' width='6.90' height='4.17' style='stroke-width: 1.07; stroke: none; stroke-linecap: square; stroke-linejoin: miter; fill: #FFDBD2;' clip-path='url(#cpNDIuOTJ8NDA1LjE1fDIwMS43NnwyMy4xOQ==)' />
<rect x='241.28' y='196.62' width='6.90' height='5.14' style='stroke-width: 1.07; stroke: none; stroke-linecap: square; stroke-linejoin: miter; fill: #A66753;' clip-path='url(#cpNDIuOTJ8NDA1LjE1fDIwMS43NnwyMy4xOQ==)' />
<rect x='251.63' y='199.45' width='6.90' height='2.31' style='stroke-width: 1.07; stroke: none; stroke-linecap: square; stroke-linejoin: miter; fill: #FFDBD2;' clip-path='url(#cpNDIuOTJ8NDA1LjE1fDIwMS43NnwyMy4xOQ==)' />
<rect x='258.53' y='197.34' width='6.90' height='4.42' style='stroke-width: 1.07; stroke: none; stroke-linecap: square; stroke-linejoin: miter; fill: #A66753;' clip-path='url(#cpNDIuOTJ8NDA1LjE1fDIwMS43NnwyMy4xOQ==)' />
<rect x='268.88' y='198.42' width='6.90' height='3.35' style='stroke-width: 1.07; stroke: none; stroke-linecap: square; stroke-linejoin: miter; fill: #FFDBD2;' clip-path='url(#cpNDIuOTJ8NDA1LjE1fDIwMS43NnwyMy4xOQ==)' />
<rect x='275.78' y='195.14' width='6.90' height='6.62' style='stroke-width: 1.07; stroke: none; stroke-linecap: square; stroke-linejoin: miter; fill: #A66753;' clip-path='url(#cpNDIuOTJ8NDA1LjE1fDIwMS43NnwyMy4xOQ==)' />
<rect x='286.13' y='175.65' width='6.90' height='26.11' style='stroke-width: 1.07; stroke: none; stroke-linecap: square; stroke-linejoin: miter; fill: #FFDBD2;' clip-path='url(#cpNDIuOTJ8NDA1LjE1fDIwMS43NnwyMy4xOQ==)' />
<rect x='293.03' y='188.45' width='6.90' height='13.31' style='stroke-width: 1.07; stroke: none; stroke-linecap: square; stroke-linejoin: miter; fill: #A66753;' clip-path='url(#cpNDIuOTJ8NDA1LjE1fDIwMS43NnwyMy4xOQ==)' />
<rect x='303.38' y='155.10' width='6.90' height='46.66' style='stroke-width: 1.07; stroke: none; stroke-linecap: square; stroke-linejoin: miter; fill: #FFDBD2;' clip-path='url(#cpNDIuOTJ8NDA1LjE1fDIwMS43NnwyMy4xOQ==)' />
<rect x='310.28' y='174.75' width='6.90' height='27.02' style='stroke-width: 1.07; stroke: none; stroke-linecap: square; stroke-linejoin: miter; fill: #A66753;' clip-path='url(#cpNDIuOTJ8NDA1LjE1fDIwMS43NnwyMy4xOQ==)' />
<rect x='320.63' y='201.72' width='6.90' height='0.041' style='stroke-width: 1.07; stroke: none; stroke-linecap: square; stroke-linejoin: miter; fill: #FFDBD2;' clip-path='url(#cpNDIuOTJ8NDA1LjE1fDIwMS43NnwyMy4xOQ==)' />
<rect x='327.53' y='201.76' width='6.90' height='0.0019' style='stroke-width: 1.07; stroke: none; stroke-linecap: square; stroke-linejoin: miter; fill: #A66753;' clip-path='url(#cpNDIuOTJ8NDA1LjE1fDIwMS43NnwyMy4xOQ==)' />
<rect x='337.88' y='154.31' width='6.90' height='47.45' style='stroke-width: 1.07; stroke: none; stroke-linecap: square; stroke-linejoin: miter; fill: #FFDBD2;' clip-path='url(#cpNDIuOTJ8NDA1LjE1fDIwMS43NnwyMy4xOQ==)' />
<rect x='344.78' y='167.36' width='6.90' height='34.40' style='stroke-width: 1.07; stroke: none; stroke-linecap: square; stroke-linejoin: miter; fill: #A66753;' clip-path='url(#cpNDIuOTJ8NDA1LjE1fDIwMS43NnwyMy4xOQ==)' />
<rect x='355.13' y='201.49' width='6.90' height='0.28' style='stroke-width: 1.07; stroke: none; stroke-linecap: square; stroke-linejoin: miter; fill: #FFDBD2;' clip-path='url(#cpNDIuOTJ8NDA1LjE1fDIwMS43NnwyMy4xOQ==)' />
<rect x='362.03' y='201.32' width='6.90' height='0.44' style='stroke-width: 1.07; stroke: none; stroke-linecap: square; stroke-linejoin: miter; fill: #A66753;' clip-path='url(#cpNDIuOTJ8NDA1LjE1fDIwMS43NnwyMy4xOQ==)' />
<rect x='372.38' y='201.64' width='6.90' height='0.12' style='stroke-width: 1.07; stroke: none; stroke-linecap: square; stroke-linejoin: miter; fill: #FFDBD2;' clip-path='url(#cpNDIuOTJ8NDA1LjE1fDIwMS43NnwyMy4xOQ==)' />
<rect x='379.28' y='201.43' width='6.90' height='0.34' style='stroke-width: 1.07; stroke: none; stroke-linecap: square; stroke-linejoin: miter; fill: #A66753;' clip-path='url(#cpNDIuOTJ8NDA1LjE1fDIwMS43NnwyMy4xOQ==)' />
<rect x='389.63' y='156.71' width='6.90' height='45.06' style='stroke-width: 1.07; stroke: none; stroke-linecap: square; stroke-linejoin: miter; fill: #FFDBD2;' clip-path='url(#cpNDIuOTJ8NDA1LjE1fDIwMS43NnwyMy4xOQ==)' />
<rect x='396.53' y='166.81' width='6.90' height='34.96' style='stroke-width: 1.07; stroke: none; stroke-linecap: square; stroke-linejoin: miter; fill: #A66753;' clip-path='url(#cpNDIuOTJ8NDA1LjE1fDIwMS43NnwyMy4xOQ==)' />
<polyline points='45.93,166.04 50.25,166.04 ' style='stroke-width: 1.07; stroke-linecap: butt;' clip-path='url(#cpNDIuOTJ8NDA1LjE1fDIwMS43NnwyMy4xOQ==)' />
<polyline points='48.09,166.04 48.09,171.23 ' style='stroke-width: 1.07; stroke-linecap: butt;' clip-path='url(#cpNDIuOTJ8NDA1LjE1fDIwMS43NnwyMy4xOQ==)' />
<polyline points='45.93,171.23 50.25,171.23 ' style='stroke-width: 1.07; stroke-linecap: butt;' clip-path='url(#cpNDIuOTJ8NDA1LjE1fDIwMS43NnwyMy4xOQ==)' />
<polyline points='52.83,168.70 57.15,168.70 ' style='stroke-width: 1.07; stroke-linecap: butt;' clip-path='url(#cpNDIuOTJ8NDA1LjE1fDIwMS43NnwyMy4xOQ==)' />
<polyline points='54.99,168.70 54.99,181.22 ' style='stroke-width: 1.07; stroke-linecap: butt;' clip-path='url(#cpNDIuOTJ8NDA1LjE1fDIwMS43NnwyMy4xOQ==)' />
<polyline points='52.83,181.22 57.15,181.22 ' style='stroke-width: 1.07; stroke-linecap: butt;' clip-path='url(#cpNDIuOTJ8NDA1LjE1fDIwMS43NnwyMy4xOQ==)' />
<polyline points='63.18,199.17 67.50,199.17 ' style='stroke-width: 1.07; stroke-linecap: butt;' clip-path='url(#cpNDIuOTJ8NDA1LjE1fDIwMS43NnwyMy4xOQ==)' />
<polyline points='65.34,199.17 65.34,199.81 ' style='stroke-width: 1.07; stroke-linecap: butt;' clip-path='url(#cpNDIuOTJ8NDA1LjE1fDIwMS43NnwyMy4xOQ==)' />
<polyline points='63.18,199.81 67.50,199.81 ' style='stroke-width: 1.07; stroke-linecap: butt;' clip-path='url(#cpNDIuOTJ8NDA1LjE1fDIwMS43NnwyMy4xOQ==)' />
<polyline points='70.08,200.58 74.40,200.58 ' style='stroke-width: 1.07; stroke-linecap: butt;' clip-path='url(#cpNDIuOTJ8NDA1LjE1fDIwMS43NnwyMy4xOQ==)' />
<polyline points='72.24,200.58 72.24,201.15 ' style='stroke-width: 1.07; stroke-linecap: butt;' clip-path='url(#cpNDIuOTJ8NDA1LjE1fDIwMS43NnwyMy4xOQ==)' />
<polyline points='70.08,201.15 74.40,201.15 ' style='stroke-width: 1.07; stroke-linecap: butt;' clip-path='url(#cpNDIuOTJ8NDA1LjE1fDIwMS43NnwyMy4xOQ==)' />
<polyline points='80.43,123.42 84.75,123.42 ' style='stroke-width: 1.07; stroke-linecap: butt;' clip-path='url(#cpNDIuOTJ8NDA1LjE1fDIwMS43NnwyMy4xOQ==)' />
<polyline points='82.59,123.42 82.59,136.11 ' style='stroke-width: 1.07; stroke-linecap: butt;' clip-path='url(#cpNDIuOTJ8NDA1LjE1fDIwMS43NnwyMy4xOQ==)' />
<polyline points='80.43,136.11 84.75,136.11 ' style='stroke-width: 1.07; stroke-linecap: butt;' clip-path='url(#cpNDIuOTJ8NDA1LjE1fDIwMS43NnwyMy4xOQ==)' />
<polyline points='87.33,149.94 91.65,149.94 ' style='stroke-width: 1.07; stroke-linecap: butt;' clip-path='url(#cpNDIuOTJ8NDA1LjE1fDIwMS43NnwyMy4xOQ==)' />
<polyline points='89.49,149.94 89.49,161.48 ' style='stroke-width: 1.07; stroke-linecap: butt;' clip-path='url(#cpNDIuOTJ8NDA1LjE1fDIwMS43NnwyMy4xOQ==)' />
<polyline points='87.33,161.48 91.65,161.48 ' style='stroke-width: 1.07; stroke-linecap: butt;' clip-path='url(#cpNDIuOTJ8NDA1LjE1fDIwMS43NnwyMy4xOQ==)' />
<polyline points='97.68,196.24 102.00,196.24 ' style='stroke-width: 1.07; stroke-linecap: butt;' clip-path='url(#cpNDIuOTJ8NDA1LjE1fDIwMS43NnwyMy4xOQ==)' />
<polyline points='99.84,196.24 99.84,198.47 ' style='stroke-width: 1.07; stroke-linecap: butt;' clip-path='url(#cpNDIuOTJ8NDA1LjE1fDIwMS43NnwyMy4xOQ==)' />
<polyline points='97.68,198.47 102.00,198.47 ' style='stroke-width: 1.07; stroke-linecap: butt;' clip-path='url(#cpNDIuOTJ8NDA1LjE1fDIwMS43NnwyMy4xOQ==)' />
<polyline points='104.58,197.38 108.90,197.38 ' style='stroke-width: 1.07; stroke-linecap: butt;' clip-path='url(#cpNDIuOTJ8NDA1LjE1fDIwMS43NnwyMy4xOQ==)' />
<polyline points='106.74,197.38 106.74,200.37 ' style='stroke-width: 1.07; stroke-linecap: butt;' clip-path='url(#cpNDIuOTJ8NDA1LjE1fDIwMS43NnwyMy4xOQ==)' />
<polyline points='104.58,200.37 108.90,200.37 ' style='stroke-width: 1.07; stroke-linecap: butt;' clip-path='url(#cpNDIuOTJ8NDA1LjE1fDIwMS43NnwyMy4xOQ==)' />
<polyline points='114.93,23.19 119.24,23.19 ' style='stroke-width: 1.07; stroke-linecap: butt;' clip-path='url(#cpNDIuOTJ8NDA1LjE1fDIwMS43NnwyMy4xOQ==)' />
<polyline points='117.09,23.19 117.09,51.69 ' style='stroke-width: 1.07; stroke-linecap: butt;' clip-path='url(#cpNDIuOTJ8NDA1LjE1fDIwMS43NnwyMy4xOQ==)' />
<polyline points='114.93,51.69 119.24,51.69 ' style='stroke-width: 1.07; stroke-linecap: butt;' clip-path='url(#cpNDIuOTJ8NDA1LjE1fDIwMS43NnwyMy4xOQ==)' />
<polyline points='121.83,67.75 126.14,67.75 ' style='stroke-width: 1.07; stroke-linecap: butt;' clip-path='url(#cpNDIuOTJ8NDA1LjE1fDIwMS43NnwyMy4xOQ==)' />
<polyline points='123.99,67.75 123.99,99.64 ' style='stroke-width: 1.07; stroke-linecap: butt;' clip-path='url(#cpNDIuOTJ8NDA1LjE1fDIwMS43NnwyMy4xOQ==)' />
<polyline points='121.83,99.64 126.14,99.64 ' style='stroke-width: 1.07; stroke-linecap: butt;' clip-path='url(#cpNDIuOTJ8NDA1LjE1fDIwMS43NnwyMy4xOQ==)' />
<polyline points='132.18,189.73 136.49,189.73 ' style='stroke-width: 1.07; stroke-linecap: butt;' clip-path='url(#cpNDIuOTJ8NDA1LjE1fDIwMS43NnwyMy4xOQ==)' />
<polyline points='134.34,189.73 134.34,191.45 ' style='stroke-width: 1.07; stroke-linecap: butt;' clip-path='url(#cpNDIuOTJ8NDA1LjE1fDIwMS43NnwyMy4xOQ==)' />
<polyline points='132.18,191.45 136.49,191.45 ' style='stroke-width: 1.07; stroke-linecap: butt;' clip-path='url(#cpNDIuOTJ8NDA1LjE1fDIwMS43NnwyMy4xOQ==)' />
<polyline points='139.08,193.59 143.39,193.59 ' style='stroke-width: 1.07; stroke-linecap: butt;' clip-path='url(#cpNDIuOTJ8NDA1LjE1fDIwMS43NnwyMy4xOQ==)' />
<polyline points='141.24,193.59 141.24,196.45 ' style='stroke-width: 1.07; stroke-linecap: butt;' clip-path='url(#cpNDIuOTJ8NDA1LjE1fDIwMS43NnwyMy4xOQ==)' />
<polyline points='139.08,196.45 143.39,196.45 ' style='stroke-width: 1.07; stroke-linecap: butt;' clip-path='url(#cpNDIuOTJ8NDA1LjE1fDIwMS43NnwyMy4xOQ==)' />
<polyline points='149.43,196.03 153.74,196.03 ' style='stroke-width: 1.07; stroke-linecap: butt;' clip-path='url(#cpNDIuOTJ8NDA1LjE1fDIwMS43NnwyMy4xOQ==)' />
<polyline points='151.59,196.03 151.59,196.60 ' style='stroke-width: 1.07; stroke-linecap: butt;' clip-path='url(#cpNDIuOTJ8NDA1LjE1fDIwMS43NnwyMy4xOQ==)' />
<polyline points='149.43,196.60 153.74,196.60 ' style='stroke-width: 1.07; stroke-linecap: butt;' clip-path='url(#cpNDIuOTJ8NDA1LjE1fDIwMS43NnwyMy4xOQ==)' />
<polyline points='156.33,199.16 160.64,199.16 ' style='stroke-width: 1.07; stroke-linecap: butt;' clip-path='url(#cpNDIuOTJ8NDA1LjE1fDIwMS43NnwyMy4xOQ==)' />
<polyline points='158.49,199.16 158.49,200.11 ' style='stroke-width: 1.07; stroke-linecap: butt;' clip-path='url(#cpNDIuOTJ8NDA1LjE1fDIwMS43NnwyMy4xOQ==)' />
<polyline points='156.33,200.11 160.64,200.11 ' style='stroke-width: 1.07; stroke-linecap: butt;' clip-path='url(#cpNDIuOTJ8NDA1LjE1fDIwMS43NnwyMy4xOQ==)' />
<polyline points='166.68,200.41 170.99,200.41 ' style='stroke-width: 1.07; stroke-linecap: butt;' clip-path='url(#cpNDIuOTJ8NDA1LjE1fDIwMS43NnwyMy4xOQ==)' />
<polyline points='168.84,200.41 168.84,200.89 ' style='stroke-width: 1.07; stroke-linecap: butt;' clip-path='url(#cpNDIuOTJ8NDA1LjE1fDIwMS43NnwyMy4xOQ==)' />
<polyline points='166.68,200.89 170.99,200.89 ' style='stroke-width: 1.07; stroke-linecap: butt;' clip-path='url(#cpNDIuOTJ8NDA1LjE1fDIwMS43NnwyMy4xOQ==)' />
<polyline points='173.58,200.72 177.89,200.72 ' style='stroke-width: 1.07; stroke-linecap: butt;' clip-path='url(#cpNDIuOTJ8NDA1LjE1fDIwMS43NnwyMy4xOQ==)' />
<polyline points='175.74,200.72 175.74,201.10 ' style='stroke-width: 1.07; stroke-linecap: butt;' clip-path='url(#cpNDIuOTJ8NDA1LjE1fDIwMS43NnwyMy4xOQ==)' />
<polyline points='173.58,201.10 177.89,201.10 ' style='stroke-width: 1.07; stroke-linecap: butt;' clip-path='url(#cpNDIuOTJ8NDA1LjE1fDIwMS43NnwyMy4xOQ==)' />
<polyline points='183.93,170.06 188.24,170.06 ' style='stroke-width: 1.07; stroke-linecap: butt;' clip-path='url(#cpNDIuOTJ8NDA1LjE1fDIwMS43NnwyMy4xOQ==)' />
<polyline points='186.09,170.06 186.09,184.02 ' style='stroke-width: 1.07; stroke-linecap: butt;' clip-path='url(#cpNDIuOTJ8NDA1LjE1fDIwMS43NnwyMy4xOQ==)' />
<polyline points='183.93,184.02 188.24,184.02 ' style='stroke-width: 1.07; stroke-linecap: butt;' clip-path='url(#cpNDIuOTJ8NDA1LjE1fDIwMS43NnwyMy4xOQ==)' />
<polyline points='190.83,181.06 195.14,181.06 ' style='stroke-width: 1.07; stroke-linecap: butt;' clip-path='url(#cpNDIuOTJ8NDA1LjE1fDIwMS43NnwyMy4xOQ==)' />
<polyline points='192.99,181.06 192.99,188.96 ' style='stroke-width: 1.07; stroke-linecap: butt;' clip-path='url(#cpNDIuOTJ8NDA1LjE1fDIwMS43NnwyMy4xOQ==)' />
<polyline points='190.83,188.96 195.14,188.96 ' style='stroke-width: 1.07; stroke-linecap: butt;' clip-path='url(#cpNDIuOTJ8NDA1LjE1fDIwMS43NnwyMy4xOQ==)' />
<polyline points='201.18,104.23 205.49,104.23 ' style='stroke-width: 1.07; stroke-linecap: butt;' clip-path='url(#cpNDIuOTJ8NDA1LjE1fDIwMS43NnwyMy4xOQ==)' />
<polyline points='203.34,104.23 203.34,115.49 ' style='stroke-width: 1.07; stroke-linecap: butt;' clip-path='url(#cpNDIuOTJ8NDA1LjE1fDIwMS43NnwyMy4xOQ==)' />
<polyline points='201.18,115.49 205.49,115.49 ' style='stroke-width: 1.07; stroke-linecap: butt;' clip-path='url(#cpNDIuOTJ8NDA1LjE1fDIwMS43NnwyMy4xOQ==)' />
<polyline points='208.08,128.75 212.39,128.75 ' style='stroke-width: 1.07; stroke-linecap: butt;' clip-path='url(#cpNDIuOTJ8NDA1LjE1fDIwMS43NnwyMy4xOQ==)' />
<polyline points='210.24,128.75 210.24,145.68 ' style='stroke-width: 1.07; stroke-linecap: butt;' clip-path='url(#cpNDIuOTJ8NDA1LjE1fDIwMS43NnwyMy4xOQ==)' />
<polyline points='208.08,145.68 212.39,145.68 ' style='stroke-width: 1.07; stroke-linecap: butt;' clip-path='url(#cpNDIuOTJ8NDA1LjE1fDIwMS43NnwyMy4xOQ==)' />
<polyline points='218.43,201.58 222.74,201.58 ' style='stroke-width: 1.07; stroke-linecap: butt;' clip-path='url(#cpNDIuOTJ8NDA1LjE1fDIwMS43NnwyMy4xOQ==)' />
<polyline points='220.59,201.58 220.59,201.68 ' style='stroke-width: 1.07; stroke-linecap: butt;' clip-path='url(#cpNDIuOTJ8NDA1LjE1fDIwMS43NnwyMy4xOQ==)' />
<polyline points='218.43,201.68 222.74,201.68 ' style='stroke-width: 1.07; stroke-linecap: butt;' clip-path='url(#cpNDIuOTJ8NDA1LjE1fDIwMS43NnwyMy4xOQ==)' />
<polyline points='225.33,201.72 229.64,201.72 ' style='stroke-width: 1.07; stroke-linecap: butt;' clip-path='url(#cpNDIuOTJ8NDA1LjE1fDIwMS43NnwyMy4xOQ==)' />
<polyline points='227.49,201.72 227.49,201.74 ' style='stroke-width: 1.07; stroke-linecap: butt;' clip-path='url(#cpNDIuOTJ8NDA1LjE1fDIwMS43NnwyMy4xOQ==)' />
<polyline points='225.33,201.74 229.64,201.74 ' style='stroke-width: 1.07; stroke-linecap: butt;' clip-path='url(#cpNDIuOTJ8NDA1LjE1fDIwMS43NnwyMy4xOQ==)' />
<polyline points='235.68,196.55 239.99,196.55 ' style='stroke-width: 1.07; stroke-linecap: butt;' clip-path='url(#cpNDIuOTJ8NDA1LjE1fDIwMS43NnwyMy4xOQ==)' />
<polyline points='237.83,196.55 237.83,198.63 ' style='stroke-width: 1.07; stroke-linecap: butt;' clip-path='url(#cpNDIuOTJ8NDA1LjE1fDIwMS43NnwyMy4xOQ==)' />
<polyline points='235.68,198.63 239.99,198.63 ' style='stroke-width: 1.07; stroke-linecap: butt;' clip-path='url(#cpNDIuOTJ8NDA1LjE1fDIwMS43NnwyMy4xOQ==)' />
<polyline points='242.58,195.42 246.89,195.42 ' style='stroke-width: 1.07; stroke-linecap: butt;' clip-path='url(#cpNDIuOTJ8NDA1LjE1fDIwMS43NnwyMy4xOQ==)' />
<polyline points='244.73,195.42 244.73,197.82 ' style='stroke-width: 1.07; stroke-linecap: butt;' clip-path='url(#cpNDIuOTJ8NDA1LjE1fDIwMS43NnwyMy4xOQ==)' />
<polyline points='242.58,197.82 246.89,197.82 ' style='stroke-width: 1.07; stroke-linecap: butt;' clip-path='url(#cpNDIuOTJ8NDA1LjE1fDIwMS43NnwyMy4xOQ==)' />
<polyline points='252.93,199.21 257.24,199.21 ' style='stroke-width: 1.07; stroke-linecap: butt;' clip-path='url(#cpNDIuOTJ8NDA1LjE1fDIwMS43NnwyMy4xOQ==)' />
<polyline points='255.08,199.21 255.08,199.70 ' style='stroke-width: 1.07; stroke-linecap: butt;' clip-path='url(#cpNDIuOTJ8NDA1LjE1fDIwMS43NnwyMy4xOQ==)' />
<polyline points='252.93,199.70 257.24,199.70 ' style='stroke-width: 1.07; stroke-linecap: butt;' clip-path='url(#cpNDIuOTJ8NDA1LjE1fDIwMS43NnwyMy4xOQ==)' />
<polyline points='259.83,196.71 264.14,196.71 ' style='stroke-width: 1.07; stroke-linecap: butt;' clip-path='url(#cpNDIuOTJ8NDA1LjE1fDIwMS43NnwyMy4xOQ==)' />
<polyline points='261.98,196.71 261.98,197.98 ' style='stroke-width: 1.07; stroke-linecap: butt;' clip-path='url(#cpNDIuOTJ8NDA1LjE1fDIwMS43NnwyMy4xOQ==)' />
<polyline points='259.83,197.98 264.14,197.98 ' style='stroke-width: 1.07; stroke-linecap: butt;' clip-path='url(#cpNDIuOTJ8NDA1LjE1fDIwMS43NnwyMy4xOQ==)' />
<polyline points='270.18,198.01 274.49,198.01 ' style='stroke-width: 1.07; stroke-linecap: butt;' clip-path='url(#cpNDIuOTJ8NDA1LjE1fDIwMS43NnwyMy4xOQ==)' />
<polyline points='272.33,198.01 272.33,198.83 ' style='stroke-width: 1.07; stroke-linecap: butt;' clip-path='url(#cpNDIuOTJ8NDA1LjE1fDIwMS43NnwyMy4xOQ==)' />
<polyline points='270.18,198.83 274.49,198.83 ' style='stroke-width: 1.07; stroke-linecap: butt;' clip-path='url(#cpNDIuOTJ8NDA1LjE1fDIwMS43NnwyMy4xOQ==)' />
<polyline points='277.08,192.88 281.39,192.88 ' style='stroke-width: 1.07; stroke-linecap: butt;' clip-path='url(#cpNDIuOTJ8NDA1LjE1fDIwMS43NnwyMy4xOQ==)' />
<polyline points='279.23,192.88 279.23,197.41 ' style='stroke-width: 1.07; stroke-linecap: butt;' clip-path='url(#cpNDIuOTJ8NDA1LjE1fDIwMS43NnwyMy4xOQ==)' />
<polyline points='277.08,197.41 281.39,197.41 ' style='stroke-width: 1.07; stroke-linecap: butt;' clip-path='url(#cpNDIuOTJ8NDA1LjE1fDIwMS43NnwyMy4xOQ==)' />
<polyline points='287.43,173.28 291.74,173.28 ' style='stroke-width: 1.07; stroke-linecap: butt;' clip-path='url(#cpNDIuOTJ8NDA1LjE1fDIwMS43NnwyMy4xOQ==)' />
<polyline points='289.58,173.28 289.58,178.03 ' style='stroke-width: 1.07; stroke-linecap: butt;' clip-path='url(#cpNDIuOTJ8NDA1LjE1fDIwMS43NnwyMy4xOQ==)' />
<polyline points='287.43,178.03 291.74,178.03 ' style='stroke-width: 1.07; stroke-linecap: butt;' clip-path='url(#cpNDIuOTJ8NDA1LjE1fDIwMS43NnwyMy4xOQ==)' />
<polyline points='294.33,186.84 298.64,186.84 ' style='stroke-width: 1.07; stroke-linecap: butt;' clip-path='url(#cpNDIuOTJ8NDA1LjE1fDIwMS43NnwyMy4xOQ==)' />
<polyline points='296.48,186.84 296.48,190.07 ' style='stroke-width: 1.07; stroke-linecap: butt;' clip-path='url(#cpNDIuOTJ8NDA1LjE1fDIwMS43NnwyMy4xOQ==)' />
<polyline points='294.33,190.07 298.64,190.07 ' style='stroke-width: 1.07; stroke-linecap: butt;' clip-path='url(#cpNDIuOTJ8NDA1LjE1fDIwMS43NnwyMy4xOQ==)' />
<polyline points='304.68,144.25 308.99,144.25 ' style='stroke-width: 1.07; stroke-linecap: butt;' clip-path='url(#cpNDIuOTJ8NDA1LjE1fDIwMS43NnwyMy4xOQ==)' />
<polyline points='306.83,144.25 306.83,165.95 ' style='stroke-width: 1.07; stroke-linecap: butt;' clip-path='url(#cpNDIuOTJ8NDA1LjE1fDIwMS43NnwyMy4xOQ==)' />
<polyline points='304.68,165.95 308.99,165.95 ' style='stroke-width: 1.07; stroke-linecap: butt;' clip-path='url(#cpNDIuOTJ8NDA1LjE1fDIwMS43NnwyMy4xOQ==)' />
<polyline points='311.58,171.55 315.89,171.55 ' style='stroke-width: 1.07; stroke-linecap: butt;' clip-path='url(#cpNDIuOTJ8NDA1LjE1fDIwMS43NnwyMy4xOQ==)' />
<polyline points='313.73,171.55 313.73,177.94 ' style='stroke-width: 1.07; stroke-linecap: butt;' clip-path='url(#cpNDIuOTJ8NDA1LjE1fDIwMS43NnwyMy4xOQ==)' />
<polyline points='311.58,177.94 315.89,177.94 ' style='stroke-width: 1.07; stroke-linecap: butt;' clip-path='url(#cpNDIuOTJ8NDA1LjE1fDIwMS43NnwyMy4xOQ==)' />
<polyline points='321.93,201.71 326.24,201.71 ' style='stroke-width: 1.07; stroke-linecap: butt;' clip-path='url(#cpNDIuOTJ8NDA1LjE1fDIwMS43NnwyMy4xOQ==)' />
<polyline points='324.08,201.71 324.08,201.74 ' style='stroke-width: 1.07; stroke-linecap: butt;' clip-path='url(#cpNDIuOTJ8NDA1LjE1fDIwMS43NnwyMy4xOQ==)' />
<polyline points='321.93,201.74 326.24,201.74 ' style='stroke-width: 1.07; stroke-linecap: butt;' clip-path='url(#cpNDIuOTJ8NDA1LjE1fDIwMS43NnwyMy4xOQ==)' />
<polyline points='328.83,201.76 333.14,201.76 ' style='stroke-width: 1.07; stroke-linecap: butt;' clip-path='url(#cpNDIuOTJ8NDA1LjE1fDIwMS43NnwyMy4xOQ==)' />
<polyline points='330.98,201.76 330.98,201.76 ' style='stroke-width: 1.07; stroke-linecap: butt;' clip-path='url(#cpNDIuOTJ8NDA1LjE1fDIwMS43NnwyMy4xOQ==)' />
<polyline points='328.83,201.76 333.14,201.76 ' style='stroke-width: 1.07; stroke-linecap: butt;' clip-path='url(#cpNDIuOTJ8NDA1LjE1fDIwMS43NnwyMy4xOQ==)' />
<polyline points='339.18,149.89 343.49,149.89 ' style='stroke-width: 1.07; stroke-linecap: butt;' clip-path='url(#cpNDIuOTJ8NDA1LjE1fDIwMS43NnwyMy4xOQ==)' />
<polyline points='341.33,149.89 341.33,158.73 ' style='stroke-width: 1.07; stroke-linecap: butt;' clip-path='url(#cpNDIuOTJ8NDA1LjE1fDIwMS43NnwyMy4xOQ==)' />
<polyline points='339.18,158.73 343.49,158.73 ' style='stroke-width: 1.07; stroke-linecap: butt;' clip-path='url(#cpNDIuOTJ8NDA1LjE1fDIwMS43NnwyMy4xOQ==)' />
<polyline points='346.07,163.47 350.39,163.47 ' style='stroke-width: 1.07; stroke-linecap: butt;' clip-path='url(#cpNDIuOTJ8NDA1LjE1fDIwMS43NnwyMy4xOQ==)' />
<polyline points='348.23,163.47 348.23,171.25 ' style='stroke-width: 1.07; stroke-linecap: butt;' clip-path='url(#cpNDIuOTJ8NDA1LjE1fDIwMS43NnwyMy4xOQ==)' />
<polyline points='346.07,171.25 350.39,171.25 ' style='stroke-width: 1.07; stroke-linecap: butt;' clip-path='url(#cpNDIuOTJ8NDA1LjE1fDIwMS43NnwyMy4xOQ==)' />
<polyline points='356.42,201.46 360.74,201.46 ' style='stroke-width: 1.07; stroke-linecap: butt;' clip-path='url(#cpNDIuOTJ8NDA1LjE1fDIwMS43NnwyMy4xOQ==)' />
<polyline points='358.58,201.46 358.58,201.51 ' style='stroke-width: 1.07; stroke-linecap: butt;' clip-path='url(#cpNDIuOTJ8NDA1LjE1fDIwMS43NnwyMy4xOQ==)' />
<polyline points='356.42,201.51 360.74,201.51 ' style='stroke-width: 1.07; stroke-linecap: butt;' clip-path='url(#cpNDIuOTJ8NDA1LjE1fDIwMS43NnwyMy4xOQ==)' />
<polyline points='363.32,201.22 367.64,201.22 ' style='stroke-width: 1.07; stroke-linecap: butt;' clip-path='url(#cpNDIuOTJ8NDA1LjE1fDIwMS43NnwyMy4xOQ==)' />
<polyline points='365.48,201.22 365.48,201.42 ' style='stroke-width: 1.07; stroke-linecap: butt;' clip-path='url(#cpNDIuOTJ8NDA1LjE1fDIwMS43NnwyMy4xOQ==)' />
<polyline points='363.32,201.42 367.64,201.42 ' style='stroke-width: 1.07; stroke-linecap: butt;' clip-path='url(#cpNDIuOTJ8NDA1LjE1fDIwMS43NnwyMy4xOQ==)' />
<polyline points='373.67,201.62 377.99,201.62 ' style='stroke-width: 1.07; stroke-linecap: butt;' clip-path='url(#cpNDIuOTJ8NDA1LjE1fDIwMS43NnwyMy4xOQ==)' />
<polyline points='375.83,201.62 375.83,201.66 ' style='stroke-width: 1.07; stroke-linecap: butt;' clip-path='url(#cpNDIuOTJ8NDA1LjE1fDIwMS43NnwyMy4xOQ==)' />
<polyline points='373.67,201.66 377.99,201.66 ' style='stroke-width: 1.07; stroke-linecap: butt;' clip-path='url(#cpNDIuOTJ8NDA1LjE1fDIwMS43NnwyMy4xOQ==)' />
<polyline points='380.57,201.30 384.89,201.30 ' style='stroke-width: 1.07; stroke-linecap: butt;' clip-path='url(#cpNDIuOTJ8NDA1LjE1fDIwMS43NnwyMy4xOQ==)' />
<polyline points='382.73,201.30 382.73,201.56 ' style='stroke-width: 1.07; stroke-linecap: butt;' clip-path='url(#cpNDIuOTJ8NDA1LjE1fDIwMS43NnwyMy4xOQ==)' />
<polyline points='380.57,201.56 384.89,201.56 ' style='stroke-width: 1.07; stroke-linecap: butt;' clip-path='url(#cpNDIuOTJ8NDA1LjE1fDIwMS43NnwyMy4xOQ==)' />
<polyline points='390.92,152.71 395.24,152.71 ' style='stroke-width: 1.07; stroke-linecap: butt;' clip-path='url(#cpNDIuOTJ8NDA1LjE1fDIwMS43NnwyMy4xOQ==)' />
<polyline points='393.08,152.71 393.08,160.70 ' style='stroke-width: 1.07; stroke-linecap: butt;' clip-path='url(#cpNDIuOTJ8NDA1LjE1fDIwMS43NnwyMy4xOQ==)' />
<polyline points='390.92,160.70 395.24,160.70 ' style='stroke-width: 1.07; stroke-linecap: butt;' clip-path='url(#cpNDIuOTJ8NDA1LjE1fDIwMS43NnwyMy4xOQ==)' />
<polyline points='397.82,158.92 402.14,158.92 ' style='stroke-width: 1.07; stroke-linecap: butt;' clip-path='url(#cpNDIuOTJ8NDA1LjE1fDIwMS43NnwyMy4xOQ==)' />
<polyline points='399.98,158.92 399.98,174.69 ' style='stroke-width: 1.07; stroke-linecap: butt;' clip-path='url(#cpNDIuOTJ8NDA1LjE1fDIwMS43NnwyMy4xOQ==)' />
<polyline points='397.82,174.69 402.14,174.69 ' style='stroke-width: 1.07; stroke-linecap: butt;' clip-path='url(#cpNDIuOTJ8NDA1LjE1fDIwMS43NnwyMy4xOQ==)' />
<defs>
  <clipPath id='cpMC4wMHw0NjYuNTZ8MjU5LjIwfDAuMDA='>
    <rect x='0.00' y='0.00' width='466.56' height='259.20' />
  </clipPath>
</defs>
<polyline points='42.92,201.76 42.92,23.19 ' style='stroke-width: 1.07; stroke-linecap: butt;' clip-path='url(#cpMC4wMHw0NjYuNTZ8MjU5LjIwfDAuMDA=)' />
<g clip-path='url(#cpMC4wMHw0NjYuNTZ8MjU5LjIwfDAuMDA=)'><text x='33.09' y='204.91' style='font-size: 8.80px; fill: #4D4D4D; font-family: Arial;' textLength='4.89px' lengthAdjust='spacingAndGlyphs'>0</text></g>
<g clip-path='url(#cpMC4wMHw0NjYuNTZ8MjU5LjIwfDAuMDA=)'><text x='18.41' y='157.33' style='font-size: 8.80px; fill: #4D4D4D; font-family: Arial;' textLength='19.58px' lengthAdjust='spacingAndGlyphs'>1000</text></g>
<g clip-path='url(#cpMC4wMHw0NjYuNTZ8MjU5LjIwfDAuMDA=)'><text x='18.41' y='109.75' style='font-size: 8.80px; fill: #4D4D4D; font-family: Arial;' textLength='19.58px' lengthAdjust='spacingAndGlyphs'>2000</text></g>
<g clip-path='url(#cpMC4wMHw0NjYuNTZ8MjU5LjIwfDAuMDA=)'><text x='18.41' y='62.17' style='font-size: 8.80px; fill: #4D4D4D; font-family: Arial;' textLength='19.58px' lengthAdjust='spacingAndGlyphs'>3000</text></g>
<polyline points='40.18,201.76 42.92,201.76 ' style='stroke-width: 1.07; stroke: #333333; stroke-linecap: butt;' clip-path='url(#cpMC4wMHw0NjYuNTZ8MjU5LjIwfDAuMDA=)' />
<polyline points='40.18,154.18 42.92,154.18 ' style='stroke-width: 1.07; stroke: #333333; stroke-linecap: butt;' clip-path='url(#cpMC4wMHw0NjYuNTZ8MjU5LjIwfDAuMDA=)' />
<polyline points='40.18,106.60 42.92,106.60 ' style='stroke-width: 1.07; stroke: #333333; stroke-linecap: butt;' clip-path='url(#cpMC4wMHw0NjYuNTZ8MjU5LjIwfDAuMDA=)' />
<polyline points='40.18,59.02 42.92,59.02 ' style='stroke-width: 1.07; stroke: #333333; stroke-linecap: butt;' clip-path='url(#cpMC4wMHw0NjYuNTZ8MjU5LjIwfDAuMDA=)' />
<polyline points='42.92,201.76 405.15,201.76 ' style='stroke-width: 1.07; stroke-linecap: butt;' clip-path='url(#cpMC4wMHw0NjYuNTZ8MjU5LjIwfDAuMDA=)' />
<polyline points='51.54,204.50 51.54,201.76 ' style='stroke-width: 1.07; stroke: #333333; stroke-linecap: butt;' clip-path='url(#cpMC4wMHw0NjYuNTZ8MjU5LjIwfDAuMDA=)' />
<polyline points='68.79,204.50 68.79,201.76 ' style='stroke-width: 1.07; stroke: #333333; stroke-linecap: butt;' clip-path='url(#cpMC4wMHw0NjYuNTZ8MjU5LjIwfDAuMDA=)' />
<polyline points='86.04,204.50 86.04,201.76 ' style='stroke-width: 1.07; stroke: #333333; stroke-linecap: butt;' clip-path='url(#cpMC4wMHw0NjYuNTZ8MjU5LjIwfDAuMDA=)' />
<polyline points='103.29,204.50 103.29,201.76 ' style='stroke-width: 1.07; stroke: #333333; stroke-linecap: butt;' clip-path='url(#cpMC4wMHw0NjYuNTZ8MjU5LjIwfDAuMDA=)' />
<polyline points='120.54,204.50 120.54,201.76 ' style='stroke-width: 1.07; stroke: #333333; stroke-linecap: butt;' clip-path='url(#cpMC4wMHw0NjYuNTZ8MjU5LjIwfDAuMDA=)' />
<polyline points='137.79,204.50 137.79,201.76 ' style='stroke-width: 1.07; stroke: #333333; stroke-linecap: butt;' clip-path='url(#cpMC4wMHw0NjYuNTZ8MjU5LjIwfDAuMDA=)' />
<polyline points='155.04,204.50 155.04,201.76 ' style='stroke-width: 1.07; stroke: #333333; stroke-linecap: butt;' clip-path='url(#cpMC4wMHw0NjYuNTZ8MjU5LjIwfDAuMDA=)' />
<polyline points='172.29,204.50 172.29,201.76 ' style='stroke-width: 1.07; stroke: #333333; stroke-linecap: butt;' clip-path='url(#cpMC4wMHw0NjYuNTZ8MjU5LjIwfDAuMDA=)' />
<polyline points='189.54,204.50 189.54,201.76 ' style='stroke-width: 1.07; stroke: #333333; stroke-linecap: butt;' clip-path='url(#cpMC4wMHw0NjYuNTZ8MjU5LjIwfDAuMDA=)' />
<polyline points='206.79,204.50 206.79,201.76 ' style='stroke-width: 1.07; stroke: #333333; stroke-linecap: butt;' clip-path='url(#cpMC4wMHw0NjYuNTZ8MjU5LjIwfDAuMDA=)' />
<polyline points='224.04,204.50 224.04,201.76 ' style='stroke-width: 1.07; stroke: #333333; stroke-linecap: butt;' clip-path='url(#cpMC4wMHw0NjYuNTZ8MjU5LjIwfDAuMDA=)' />
<polyline points='241.28,204.50 241.28,201.76 ' style='stroke-width: 1.07; stroke: #333333; stroke-linecap: butt;' clip-path='url(#cpMC4wMHw0NjYuNTZ8MjU5LjIwfDAuMDA=)' />
<polyline points='258.53,204.50 258.53,201.76 ' style='stroke-width: 1.07; stroke: #333333; stroke-linecap: butt;' clip-path='url(#cpMC4wMHw0NjYuNTZ8MjU5LjIwfDAuMDA=)' />
<polyline points='275.78,204.50 275.78,201.76 ' style='stroke-width: 1.07; stroke: #333333; stroke-linecap: butt;' clip-path='url(#cpMC4wMHw0NjYuNTZ8MjU5LjIwfDAuMDA=)' />
<polyline points='293.03,204.50 293.03,201.76 ' style='stroke-width: 1.07; stroke: #333333; stroke-linecap: butt;' clip-path='url(#cpMC4wMHw0NjYuNTZ8MjU5LjIwfDAuMDA=)' />
<polyline points='310.28,204.50 310.28,201.76 ' style='stroke-width: 1.07; stroke: #333333; stroke-linecap: butt;' clip-path='url(#cpMC4wMHw0NjYuNTZ8MjU5LjIwfDAuMDA=)' />
<polyline points='327.53,204.50 327.53,201.76 ' style='stroke-width: 1.07; stroke: #333333; stroke-linecap: butt;' clip-path='url(#cpMC4wMHw0NjYuNTZ8MjU5LjIwfDAuMDA=)' />
<polyline points='344.78,204.50 344.78,201.76 ' style='stroke-width: 1.07; stroke: #333333; stroke-linecap: butt;' clip-path='url(#cpMC4wMHw0NjYuNTZ8MjU5LjIwfDAuMDA=)' />
<polyline points='362.03,204.50 362.03,201.76 ' style='stroke-width: 1.07; stroke: #333333; stroke-linecap: butt;' clip-path='url(#cpMC4wMHw0NjYuNTZ8MjU5LjIwfDAuMDA=)' />
<polyline points='379.28,204.50 379.28,201.76 ' style='stroke-width: 1.07; stroke: #333333; stroke-linecap: butt;' clip-path='url(#cpMC4wMHw0NjYuNTZ8MjU5LjIwfDAuMDA=)' />
<polyline points='396.53,204.50 396.53,201.76 ' style='stroke-width: 1.07; stroke: #333333; stroke-linecap: butt;' clip-path='url(#cpMC4wMHw0NjYuNTZ8MjU5LjIwfDAuMDA=)' />
<g clip-path='url(#cpMC4wMHw0NjYuNTZ8MjU5LjIwfDAuMDA=)'><text transform='translate(37.19,233.60) rotate(-50)' style='font-size: 8.80px; fill: #4D4D4D; font-family: Arial;' textLength='29.83px' lengthAdjust='spacingAndGlyphs'>ALDOA</text></g>
<g clip-path='url(#cpMC4wMHw0NjYuNTZ8MjU5LjIwfDAuMDA=)'><text transform='translate(54.13,233.97) rotate(-50)' style='font-size: 8.80px; fill: #4D4D4D; font-family: Arial;' textLength='30.32px' lengthAdjust='spacingAndGlyphs'>ALDOC</text></g>
<g clip-path='url(#cpMC4wMHw0NjYuNTZ8MjU5LjIwfDAuMDA=)'><text transform='translate(75.46,229.10) rotate(-50)' style='font-size: 8.80px; fill: #4D4D4D; font-family: Arial;' textLength='23.96px' lengthAdjust='spacingAndGlyphs'>ENO1</text></g>
<g clip-path='url(#cpMC4wMHw0NjYuNTZ8MjU5LjIwfDAuMDA=)'><text transform='translate(92.71,229.10) rotate(-50)' style='font-size: 8.80px; fill: #4D4D4D; font-family: Arial;' textLength='23.96px' lengthAdjust='spacingAndGlyphs'>ENO2</text></g>
<g clip-path='url(#cpMC4wMHw0NjYuNTZ8MjU5LjIwfDAuMDA=)'><text transform='translate(105.25,234.72) rotate(-50)' style='font-size: 8.80px; fill: #4D4D4D; font-family: Arial;' textLength='31.29px' lengthAdjust='spacingAndGlyphs'>GAPDH</text></g>
<g clip-path='url(#cpMC4wMHw0NjYuNTZ8MjU5LjIwfDAuMDA=)'><text transform='translate(132.87,222.36) rotate(-50)' style='font-size: 8.80px; fill: #4D4D4D; font-family: Arial;' textLength='15.16px' lengthAdjust='spacingAndGlyphs'>GPI</text></g>
<g clip-path='url(#cpMC4wMHw0NjYuNTZ8MjU5LjIwfDAuMDA=)'><text transform='translate(148.86,223.86) rotate(-50)' style='font-size: 8.80px; fill: #4D4D4D; font-family: Arial;' textLength='17.12px' lengthAdjust='spacingAndGlyphs'>HK1</text></g>
<g clip-path='url(#cpMC4wMHw0NjYuNTZ8MjU5LjIwfDAuMDA=)'><text transform='translate(166.11,223.86) rotate(-50)' style='font-size: 8.80px; fill: #4D4D4D; font-family: Arial;' textLength='17.12px' lengthAdjust='spacingAndGlyphs'>HK2</text></g>
<g clip-path='url(#cpMC4wMHw0NjYuNTZ8MjU5LjIwfDAuMDA=)'><text transform='translate(179.27,228.73) rotate(-50)' style='font-size: 8.80px; fill: #4D4D4D; font-family: Arial;' textLength='23.47px' lengthAdjust='spacingAndGlyphs'>LDHA</text></g>
<g clip-path='url(#cpMC4wMHw0NjYuNTZ8MjU5LjIwfDAuMDA=)'><text transform='translate(196.52,228.73) rotate(-50)' style='font-size: 8.80px; fill: #4D4D4D; font-family: Arial;' textLength='23.47px' lengthAdjust='spacingAndGlyphs'>LDHB</text></g>
<g clip-path='url(#cpMC4wMHw0NjYuNTZ8MjU5LjIwfDAuMDA=)'><text transform='translate(213.46,229.10) rotate(-50)' style='font-size: 8.80px; fill: #4D4D4D; font-family: Arial;' textLength='23.96px' lengthAdjust='spacingAndGlyphs'>LDHD</text></g>
<g clip-path='url(#cpMC4wMHw0NjYuNTZ8MjU5LjIwfDAuMDA=)'><text transform='translate(231.96,227.60) rotate(-50)' style='font-size: 8.80px; fill: #4D4D4D; font-family: Arial;' textLength='22.01px' lengthAdjust='spacingAndGlyphs'>PFKL</text></g>
<g clip-path='url(#cpMC4wMHw0NjYuNTZ8MjU5LjIwfDAuMDA=)'><text transform='translate(247.65,229.47) rotate(-50)' style='font-size: 8.80px; fill: #4D4D4D; font-family: Arial;' textLength='24.44px' lengthAdjust='spacingAndGlyphs'>PFKM</text></g>
<g clip-path='url(#cpMC4wMHw0NjYuNTZ8MjU5LjIwfDAuMDA=)'><text transform='translate(265.84,228.35) rotate(-50)' style='font-size: 8.80px; fill: #4D4D4D; font-family: Arial;' textLength='22.98px' lengthAdjust='spacingAndGlyphs'>PFKP</text></g>
<g clip-path='url(#cpMC4wMHw0NjYuNTZ8MjU5LjIwfDAuMDA=)'><text transform='translate(278.05,234.34) rotate(-50)' style='font-size: 8.80px; fill: #4D4D4D; font-family: Arial;' textLength='30.81px' lengthAdjust='spacingAndGlyphs'>PGAM1</text></g>
<g clip-path='url(#cpMC4wMHw0NjYuNTZ8MjU5LjIwfDAuMDA=)'><text transform='translate(300.02,228.73) rotate(-50)' style='font-size: 8.80px; fill: #4D4D4D; font-family: Arial;' textLength='23.48px' lengthAdjust='spacingAndGlyphs'>PGK1</text></g>
<g clip-path='url(#cpMC4wMHw0NjYuNTZ8MjU5LjIwfDAuMDA=)'><text transform='translate(317.58,228.35) rotate(-50)' style='font-size: 8.80px; fill: #4D4D4D; font-family: Arial;' textLength='22.99px' lengthAdjust='spacingAndGlyphs'>PKLR</text></g>
<g clip-path='url(#cpMC4wMHw0NjYuNTZ8MjU5LjIwfDAuMDA=)'><text transform='translate(337.35,225.35) rotate(-50)' style='font-size: 8.80px; fill: #4D4D4D; font-family: Arial;' textLength='19.07px' lengthAdjust='spacingAndGlyphs'>PKM</text></g>
<g clip-path='url(#cpMC4wMHw0NjYuNTZ8MjU5LjIwfDAuMDA=)'><text transform='translate(342.64,239.60) rotate(-50)' style='font-size: 8.80px; fill: #4D4D4D; font-family: Arial;' textLength='37.67px' lengthAdjust='spacingAndGlyphs'>SLC2A11</text></g>
<g clip-path='url(#cpMC4wMHw0NjYuNTZ8MjU5LjIwfDAuMDA=)'><text transform='translate(359.89,239.60) rotate(-50)' style='font-size: 8.80px; fill: #4D4D4D; font-family: Arial;' textLength='37.67px' lengthAdjust='spacingAndGlyphs'>SLC2A13</text></g>
<g clip-path='url(#cpMC4wMHw0NjYuNTZ8MjU5LjIwfDAuMDA=)'><text transform='translate(389.41,224.98) rotate(-50)' style='font-size: 8.80px; fill: #4D4D4D; font-family: Arial;' textLength='18.58px' lengthAdjust='spacingAndGlyphs'>TPI1</text></g>
<g clip-path='url(#cpMC4wMHw0NjYuNTZ8MjU5LjIwfDAuMDA=)'><text transform='translate(13.35,124.08) rotate(-90)' style='font-size: 11.00px; font-family: Arial;' textLength='23.22px' lengthAdjust='spacingAndGlyphs'>TPM</text></g>
<rect x='416.11' y='81.88' width='44.97' height='61.19' style='stroke-width: 1.07; stroke: none; fill: #FFFFFF;' clip-path='url(#cpMC4wMHw0NjYuNTZ8MjU5LjIwfDAuMDA=)' />
<g clip-path='url(#cpMC4wMHw0NjYuNTZ8MjU5LjIwfDAuMDA=)'><text x='421.59' y='96.39' style='font-size: 11.00px; font-family: Arial;' textLength='17.74px' lengthAdjust='spacingAndGlyphs'>day</text></g>
<rect x='422.30' y='103.74' width='15.86' height='15.86' style='stroke-width: 1.07; stroke: none; stroke-linecap: square; stroke-linejoin: miter; fill: #FFDBD2;' clip-path='url(#cpMC4wMHw0NjYuNTZ8MjU5LjIwfDAuMDA=)' />
<rect x='422.30' y='121.02' width='15.86' height='15.86' style='stroke-width: 1.07; stroke: none; stroke-linecap: square; stroke-linejoin: miter; fill: #A66753;' clip-path='url(#cpMC4wMHw0NjYuNTZ8MjU5LjIwfDAuMDA=)' />
<g clip-path='url(#cpMC4wMHw0NjYuNTZ8MjU5LjIwfDAuMDA=)'><text x='444.35' y='114.82' style='font-size: 8.80px; font-family: Arial;' textLength='11.25px' lengthAdjust='spacingAndGlyphs'>D0</text></g>
<g clip-path='url(#cpMC4wMHw0NjYuNTZ8MjU5LjIwfDAuMDA=)'><text x='444.35' y='132.10' style='font-size: 8.80px; font-family: Arial;' textLength='11.25px' lengthAdjust='spacingAndGlyphs'>D7</text></g>
<g clip-path='url(#cpMC4wMHw0NjYuNTZ8MjU5LjIwfDAuMDA=)'><text x='42.92' y='14.93' style='font-size: 13.20px; font-family: Arial;' textLength='56.48px' lengthAdjust='spacingAndGlyphs'>glycolysis</text></g>
</svg>
