<?xml version='1.0' encoding='UTF-8' ?>
<svg xmlns='http://www.w3.org/2000/svg' xmlns:xlink='http://www.w3.org/1999/xlink' viewBox='0 0 172.80 259.20'>
<defs>
  <style type='text/css'><![CDATA[
    line, polyline, polygon, path, rect, circle {
      fill: none;
      stroke: #000000;
      stroke-linecap: round;
      stroke-linejoin: round;
      stroke-miterlimit: 10.00;
    }
  ]]></style>
</defs>
<rect width='100%' height='100%' style='stroke: none; fill: #FFFFFF;'/>
<rect x='0.000000000000016' y='0.000000000000057' width='172.80' height='259.20' style='stroke-width: 1.07; stroke: #FFFFFF; fill: #FFFFFF;' />
<defs>
  <clipPath id='cpMzEuMTZ8MTExLjM5fDIwNS4xNXwyMy4xOQ=='>
    <rect x='31.16' y='23.19' width='80.23' height='181.96' />
  </clipPath>
</defs>
<rect x='31.16' y='23.19' width='80.23' height='181.96' style='stroke-width: 1.07; stroke: none; fill: #FFFFFF;' clip-path='url(#cpMzEuMTZ8MTExLjM5fDIwNS4xNXwyMy4xOQ==)' />
<line x1='31.16' y1='114.17' x2='111.39' y2='114.17' style='stroke-width: 1.07; stroke: #333333; stroke-dasharray: 5.69,5.69; stroke-linecap: butt;' clip-path='url(#cpMzEuMTZ8MTExLjM5fDIwNS4xNXwyMy4xOQ==)' />
<rect x='33.17' y='114.17' width='16.05' height='68.31' style='stroke-width: 1.07; stroke: none; stroke-linecap: square; stroke-linejoin: miter; fill: #749829;' clip-path='url(#cpMzEuMTZ8MTExLjM5fDIwNS4xNXwyMy4xOQ==)' />
<rect x='73.28' y='66.44' width='16.05' height='47.73' style='stroke-width: 1.07; stroke: none; stroke-linecap: square; stroke-linejoin: miter; fill: #749829;' clip-path='url(#cpMzEuMTZ8MTExLjM5fDIwNS4xNXwyMy4xOQ==)' />
<rect x='93.34' y='67.11' width='16.05' height='47.06' style='stroke-width: 1.07; stroke: none; stroke-linecap: square; stroke-linejoin: miter; fill: #749829;' clip-path='url(#cpMzEuMTZ8MTExLjM5fDIwNS4xNXwyMy4xOQ==)' />
<rect x='53.23' y='114.17' width='16.05' height='36.61' style='stroke-width: 1.07; stroke: none; stroke-linecap: square; stroke-linejoin: miter; fill: #749829;' clip-path='url(#cpMzEuMTZ8MTExLjM5fDIwNS4xNXwyMy4xOQ==)' />
<polyline points='37.18,175.59 45.20,175.59 ' style='stroke-width: 1.07; stroke-linecap: butt;' clip-path='url(#cpMzEuMTZ8MTExLjM5fDIwNS4xNXwyMy4xOQ==)' />
<polyline points='41.19,175.59 41.19,189.36 ' style='stroke-width: 1.07; stroke-linecap: butt;' clip-path='url(#cpMzEuMTZ8MTExLjM5fDIwNS4xNXwyMy4xOQ==)' />
<polyline points='37.18,189.36 45.20,189.36 ' style='stroke-width: 1.07; stroke-linecap: butt;' clip-path='url(#cpMzEuMTZ8MTExLjM5fDIwNS4xNXwyMy4xOQ==)' />
<polyline points='77.30,53.81 85.32,53.81 ' style='stroke-width: 1.07; stroke-linecap: butt;' clip-path='url(#cpMzEuMTZ8MTExLjM5fDIwNS4xNXwyMy4xOQ==)' />
<polyline points='81.31,53.81 81.31,79.06 ' style='stroke-width: 1.07; stroke-linecap: butt;' clip-path='url(#cpMzEuMTZ8MTExLjM5fDIwNS4xNXwyMy4xOQ==)' />
<polyline points='77.30,79.06 85.32,79.06 ' style='stroke-width: 1.07; stroke-linecap: butt;' clip-path='url(#cpMzEuMTZ8MTExLjM5fDIwNS4xNXwyMy4xOQ==)' />
<polyline points='97.35,52.79 105.38,52.79 ' style='stroke-width: 1.07; stroke-linecap: butt;' clip-path='url(#cpMzEuMTZ8MTExLjM5fDIwNS4xNXwyMy4xOQ==)' />
<polyline points='101.37,52.79 101.37,81.42 ' style='stroke-width: 1.07; stroke-linecap: butt;' clip-path='url(#cpMzEuMTZ8MTExLjM5fDIwNS4xNXwyMy4xOQ==)' />
<polyline points='97.35,81.42 105.38,81.42 ' style='stroke-width: 1.07; stroke-linecap: butt;' clip-path='url(#cpMzEuMTZ8MTExLjM5fDIwNS4xNXwyMy4xOQ==)' />
<polyline points='57.24,134.22 65.26,134.22 ' style='stroke-width: 1.07; stroke-linecap: butt;' clip-path='url(#cpMzEuMTZ8MTExLjM5fDIwNS4xNXwyMy4xOQ==)' />
<polyline points='61.25,134.22 61.25,167.33 ' style='stroke-width: 1.07; stroke-linecap: butt;' clip-path='url(#cpMzEuMTZ8MTExLjM5fDIwNS4xNXwyMy4xOQ==)' />
<polyline points='57.24,167.33 65.26,167.33 ' style='stroke-width: 1.07; stroke-linecap: butt;' clip-path='url(#cpMzEuMTZ8MTExLjM5fDIwNS4xNXwyMy4xOQ==)' />
<g clip-path='url(#cpMzEuMTZ8MTExLjM5fDIwNS4xNXwyMy4xOQ==)'><text x='37.69' y='205.52' style='font-size: 18.02px; font-family: Arial;' textLength='7.01px' lengthAdjust='spacingAndGlyphs'>*</text></g>
<g clip-path='url(#cpMzEuMTZ8MTExLjM5fDIwNS4xNXwyMy4xOQ==)'><text x='77.80' y='58.39' style='font-size: 18.02px; font-family: Arial;' textLength='7.01px' lengthAdjust='spacingAndGlyphs'>*</text></g>
<g clip-path='url(#cpMzEuMTZ8MTExLjM5fDIwNS4xNXwyMy4xOQ==)'><text x='97.86' y='57.37' style='font-size: 18.02px; font-family: Arial;' textLength='7.01px' lengthAdjust='spacingAndGlyphs'>*</text></g>
<g clip-path='url(#cpMzEuMTZ8MTExLjM5fDIwNS4xNXwyMy4xOQ==)'><text x='57.74' y='183.49' style='font-size: 18.02px; font-family: Arial;' textLength='7.01px' lengthAdjust='spacingAndGlyphs'>*</text></g>
<defs>
  <clipPath id='cpMC4wMHwxNzIuODB8MjU5LjIwfDAuMDA='>
    <rect x='0.00' y='0.00' width='172.80' height='259.20' />
  </clipPath>
</defs>
<polyline points='31.16,205.15 31.16,23.19 ' style='stroke-width: 1.07; stroke-linecap: butt;' clip-path='url(#cpMC4wMHwxNzIuODB8MjU5LjIwfDAuMDA=)' />
<g clip-path='url(#cpMC4wMHwxNzIuODB8MjU5LjIwfDAuMDA=)'><text x='18.41' y='167.65' style='font-size: 8.80px; fill: #4D4D4D; font-family: Arial;' textLength='7.82px' lengthAdjust='spacingAndGlyphs'>-1</text></g>
<g clip-path='url(#cpMC4wMHwxNzIuODB8MjU5LjIwfDAuMDA=)'><text x='21.34' y='117.32' style='font-size: 8.80px; fill: #4D4D4D; font-family: Arial;' textLength='4.89px' lengthAdjust='spacingAndGlyphs'>0</text></g>
<g clip-path='url(#cpMC4wMHwxNzIuODB8MjU5LjIwfDAuMDA=)'><text x='21.34' y='66.98' style='font-size: 8.80px; fill: #4D4D4D; font-family: Arial;' textLength='4.89px' lengthAdjust='spacingAndGlyphs'>1</text></g>
<polyline points='28.42,164.50 31.16,164.50 ' style='stroke-width: 1.07; stroke: #333333; stroke-linecap: butt;' clip-path='url(#cpMC4wMHwxNzIuODB8MjU5LjIwfDAuMDA=)' />
<polyline points='28.42,114.17 31.16,114.17 ' style='stroke-width: 1.07; stroke: #333333; stroke-linecap: butt;' clip-path='url(#cpMC4wMHwxNzIuODB8MjU5LjIwfDAuMDA=)' />
<polyline points='28.42,63.83 31.16,63.83 ' style='stroke-width: 1.07; stroke: #333333; stroke-linecap: butt;' clip-path='url(#cpMC4wMHwxNzIuODB8MjU5LjIwfDAuMDA=)' />
<polyline points='31.16,205.15 111.39,205.15 ' style='stroke-width: 1.07; stroke-linecap: butt;' clip-path='url(#cpMC4wMHwxNzIuODB8MjU5LjIwfDAuMDA=)' />
<polyline points='41.19,207.89 41.19,205.15 ' style='stroke-width: 1.07; stroke: #333333; stroke-linecap: butt;' clip-path='url(#cpMC4wMHwxNzIuODB8MjU5LjIwfDAuMDA=)' />
<polyline points='61.25,207.89 61.25,205.15 ' style='stroke-width: 1.07; stroke: #333333; stroke-linecap: butt;' clip-path='url(#cpMC4wMHwxNzIuODB8MjU5LjIwfDAuMDA=)' />
<polyline points='81.31,207.89 81.31,205.15 ' style='stroke-width: 1.07; stroke: #333333; stroke-linecap: butt;' clip-path='url(#cpMC4wMHwxNzIuODB8MjU5LjIwfDAuMDA=)' />
<polyline points='101.37,207.89 101.37,205.15 ' style='stroke-width: 1.07; stroke: #333333; stroke-linecap: butt;' clip-path='url(#cpMC4wMHwxNzIuODB8MjU5LjIwfDAuMDA=)' />
<g clip-path='url(#cpMC4wMHwxNzIuODB8MjU5LjIwfDAuMDA=)'><text transform='translate(24.64,239.60) rotate(-50)' style='font-size: 8.80px; fill: #4D4D4D; font-family: Arial;' textLength='33.25px' lengthAdjust='spacingAndGlyphs'>PFKFB2</text></g>
<g clip-path='url(#cpMC4wMHwxNzIuODB8MjU5LjIwfDAuMDA=)'><text transform='translate(50.99,232.11) rotate(-50)' style='font-size: 8.80px; fill: #4D4D4D; font-family: Arial;' textLength='23.47px' lengthAdjust='spacingAndGlyphs'>UCP2</text></g>
<g clip-path='url(#cpMC4wMHwxNzIuODB8MjU5LjIwfDAuMDA=)'><text transform='translate(64.76,239.60) rotate(-50)' style='font-size: 8.80px; fill: #4D4D4D; font-family: Arial;' textLength='33.25px' lengthAdjust='spacingAndGlyphs'>PFKFB3</text></g>
<g clip-path='url(#cpMC4wMHwxNzIuODB8MjU5LjIwfDAuMDA=)'><text transform='translate(91.10,232.11) rotate(-50)' style='font-size: 8.80px; fill: #4D4D4D; font-family: Arial;' textLength='23.47px' lengthAdjust='spacingAndGlyphs'>UCP3</text></g>
<g clip-path='url(#cpMC4wMHwxNzIuODB8MjU5LjIwfDAuMDA=)'><text transform='translate(13.35,191.52) rotate(-90)' style='font-size: 11.00px; font-family: Arial;' textLength='154.70px' lengthAdjust='spacingAndGlyphs'>log2 Fold Change relative to D0</text></g>
<rect x='122.35' y='92.21' width='44.97' height='43.91' style='stroke-width: 1.07; stroke: none; fill: #FFFFFF;' clip-path='url(#cpMC4wMHwxNzIuODB8MjU5LjIwfDAuMDA=)' />
<g clip-path='url(#cpMC4wMHwxNzIuODB8MjU5LjIwfDAuMDA=)'><text x='127.83' y='106.72' style='font-size: 11.00px; font-family: Arial;' textLength='17.74px' lengthAdjust='spacingAndGlyphs'>day</text></g>
<rect x='128.54' y='114.07' width='15.86' height='15.86' style='stroke-width: 1.07; stroke: none; stroke-linecap: square; stroke-linejoin: miter; fill: #749829;' clip-path='url(#cpMC4wMHwxNzIuODB8MjU5LjIwfDAuMDA=)' />
<g clip-path='url(#cpMC4wMHwxNzIuODB8MjU5LjIwfDAuMDA=)'><text x='150.59' y='125.15' style='font-size: 8.80px; font-family: Arial;' textLength='11.25px' lengthAdjust='spacingAndGlyphs'>D7</text></g>
<g clip-path='url(#cpMC4wMHwxNzIuODB8MjU5LjIwfDAuMDA=)'><text x='31.16' y='14.93' style='font-size: 13.20px; font-family: Arial;' textLength='121.80px' lengthAdjust='spacingAndGlyphs'>glycolysis_regulation</text></g>
</svg>
