<?xml version='1.0' encoding='UTF-8' ?>
<svg xmlns='http://www.w3.org/2000/svg' xmlns:xlink='http://www.w3.org/1999/xlink' viewBox='0 0 466.56 259.20'>
<defs>
  <style type='text/css'><![CDATA[
    line, polyline, polygon, path, rect, circle {
      fill: none;
      stroke: #000000;
      stroke-linecap: round;
      stroke-linejoin: round;
      stroke-miterlimit: 10.00;
    }
  ]]></style>
</defs>
<rect width='100%' height='100%' style='stroke: none; fill: #FFFFFF;'/>
<rect x='0.00' y='0.00' width='466.56' height='259.20' style='stroke-width: 1.07; stroke: #FFFFFF; fill: #FFFFFF;' />
<defs>
  <clipPath id='cpMjguMjN8NDA1LjE1fDIwMS43NnwyMy4xOQ=='>
    <rect x='28.23' y='23.19' width='376.92' height='178.58' />
  </clipPath>
</defs>
<rect x='28.23' y='23.19' width='376.92' height='178.58' style='stroke-width: 1.07; stroke: none; fill: #FFFFFF;' clip-path='url(#cpMjguMjN8NDA1LjE1fDIwMS43NnwyMy4xOQ==)' />
<line x1='28.23' y1='154.03' x2='405.15' y2='154.03' style='stroke-width: 1.07; stroke: #333333; stroke-dasharray: 5.69,5.69; stroke-linecap: butt;' clip-path='url(#cpMjguMjN8NDA1LjE1fDIwMS43NnwyMy4xOQ==)' />
<rect x='30.03' y='163.14' width='14.36' height='38.62' style='stroke-width: 1.07; stroke: none; stroke-linecap: square; stroke-linejoin: miter; fill: #A66753;' clip-path='url(#cpMjguMjN8NDA1LjE1fDIwMS43NnwyMy4xOQ==)' />
<rect x='47.98' y='182.95' width='14.36' height='18.82' style='stroke-width: 1.07; stroke: none; stroke-linecap: square; stroke-linejoin: miter; fill: #A66753;' clip-path='url(#cpMjguMjN8NDA1LjE1fDIwMS43NnwyMy4xOQ==)' />
<rect x='65.93' y='171.23' width='14.36' height='30.54' style='stroke-width: 1.07; stroke: none; stroke-linecap: square; stroke-linejoin: miter; fill: #A66753;' clip-path='url(#cpMjguMjN8NDA1LjE1fDIwMS43NnwyMy4xOQ==)' />
<rect x='83.87' y='170.51' width='14.36' height='31.25' style='stroke-width: 1.07; stroke: none; stroke-linecap: square; stroke-linejoin: miter; fill: #A66753;' clip-path='url(#cpMjguMjN8NDA1LjE1fDIwMS43NnwyMy4xOQ==)' />
<rect x='101.82' y='167.46' width='14.36' height='34.30' style='stroke-width: 1.07; stroke: none; stroke-linecap: square; stroke-linejoin: miter; fill: #A66753;' clip-path='url(#cpMjguMjN8NDA1LjE1fDIwMS43NnwyMy4xOQ==)' />
<rect x='119.77' y='172.96' width='14.36' height='28.81' style='stroke-width: 1.07; stroke: none; stroke-linecap: square; stroke-linejoin: miter; fill: #A66753;' clip-path='url(#cpMjguMjN8NDA1LjE1fDIwMS43NnwyMy4xOQ==)' />
<rect x='137.72' y='183.11' width='14.36' height='18.65' style='stroke-width: 1.07; stroke: none; stroke-linecap: square; stroke-linejoin: miter; fill: #A66753;' clip-path='url(#cpMjguMjN8NDA1LjE1fDIwMS43NnwyMy4xOQ==)' />
<rect x='155.67' y='165.09' width='14.36' height='36.67' style='stroke-width: 1.07; stroke: none; stroke-linecap: square; stroke-linejoin: miter; fill: #A66753;' clip-path='url(#cpMjguMjN8NDA1LjE1fDIwMS43NnwyMy4xOQ==)' />
<rect x='173.62' y='169.41' width='14.36' height='32.35' style='stroke-width: 1.07; stroke: none; stroke-linecap: square; stroke-linejoin: miter; fill: #A66753;' clip-path='url(#cpMjguMjN8NDA1LjE1fDIwMS43NnwyMy4xOQ==)' />
<rect x='191.57' y='168.23' width='14.36' height='33.53' style='stroke-width: 1.07; stroke: none; stroke-linecap: square; stroke-linejoin: miter; fill: #A66753;' clip-path='url(#cpMjguMjN8NDA1LjE1fDIwMS43NnwyMy4xOQ==)' />
<rect x='209.51' y='188.80' width='14.36' height='12.96' style='stroke-width: 1.07; stroke: none; stroke-linecap: square; stroke-linejoin: miter; fill: #A66753;' clip-path='url(#cpMjguMjN8NDA1LjE1fDIwMS43NnwyMy4xOQ==)' />
<rect x='227.46' y='142.95' width='14.36' height='58.81' style='stroke-width: 1.07; stroke: none; stroke-linecap: square; stroke-linejoin: miter; fill: #A66753;' clip-path='url(#cpMjguMjN8NDA1LjE1fDIwMS43NnwyMy4xOQ==)' />
<rect x='245.41' y='110.42' width='14.36' height='91.35' style='stroke-width: 1.07; stroke: none; stroke-linecap: square; stroke-linejoin: miter; fill: #A66753;' clip-path='url(#cpMjguMjN8NDA1LjE1fDIwMS43NnwyMy4xOQ==)' />
<rect x='263.36' y='107.31' width='14.36' height='94.45' style='stroke-width: 1.07; stroke: none; stroke-linecap: square; stroke-linejoin: miter; fill: #A66753;' clip-path='url(#cpMjguMjN8NDA1LjE1fDIwMS43NnwyMy4xOQ==)' />
<rect x='281.31' y='177.42' width='14.36' height='24.34' style='stroke-width: 1.07; stroke: none; stroke-linecap: square; stroke-linejoin: miter; fill: #A66753;' clip-path='url(#cpMjguMjN8NDA1LjE1fDIwMS43NnwyMy4xOQ==)' />
<rect x='299.26' y='174.12' width='14.36' height='27.64' style='stroke-width: 1.07; stroke: none; stroke-linecap: square; stroke-linejoin: miter; fill: #A66753;' clip-path='url(#cpMjguMjN8NDA1LjE1fDIwMS43NnwyMy4xOQ==)' />
<rect x='317.21' y='199.53' width='14.36' height='2.23' style='stroke-width: 1.07; stroke: none; stroke-linecap: square; stroke-linejoin: miter; fill: #A66753;' clip-path='url(#cpMjguMjN8NDA1LjE1fDIwMS43NnwyMy4xOQ==)' />
<rect x='335.15' y='167.16' width='14.36' height='34.61' style='stroke-width: 1.07; stroke: none; stroke-linecap: square; stroke-linejoin: miter; fill: #A66753;' clip-path='url(#cpMjguMjN8NDA1LjE1fDIwMS43NnwyMy4xOQ==)' />
<rect x='353.10' y='125.36' width='14.36' height='76.41' style='stroke-width: 1.07; stroke: none; stroke-linecap: square; stroke-linejoin: miter; fill: #A66753;' clip-path='url(#cpMjguMjN8NDA1LjE1fDIwMS43NnwyMy4xOQ==)' />
<rect x='371.05' y='72.69' width='14.36' height='129.07' style='stroke-width: 1.07; stroke: none; stroke-linecap: square; stroke-linejoin: miter; fill: #A66753;' clip-path='url(#cpMjguMjN8NDA1LjE1fDIwMS43NnwyMy4xOQ==)' />
<rect x='389.00' y='164.73' width='14.36' height='37.04' style='stroke-width: 1.07; stroke: none; stroke-linecap: square; stroke-linejoin: miter; fill: #A66753;' clip-path='url(#cpMjguMjN8NDA1LjE1fDIwMS43NnwyMy4xOQ==)' />
<polyline points='32.72,154.12 41.70,154.12 ' style='stroke-width: 1.07; stroke-linecap: butt;' clip-path='url(#cpMjguMjN8NDA1LjE1fDIwMS43NnwyMy4xOQ==)' />
<polyline points='37.21,154.12 37.21,172.17 ' style='stroke-width: 1.07; stroke-linecap: butt;' clip-path='url(#cpMjguMjN8NDA1LjE1fDIwMS43NnwyMy4xOQ==)' />
<polyline points='32.72,172.17 41.70,172.17 ' style='stroke-width: 1.07; stroke-linecap: butt;' clip-path='url(#cpMjguMjN8NDA1LjE1fDIwMS43NnwyMy4xOQ==)' />
<polyline points='50.67,177.02 59.64,177.02 ' style='stroke-width: 1.07; stroke-linecap: butt;' clip-path='url(#cpMjguMjN8NDA1LjE1fDIwMS43NnwyMy4xOQ==)' />
<polyline points='55.16,177.02 55.16,188.87 ' style='stroke-width: 1.07; stroke-linecap: butt;' clip-path='url(#cpMjguMjN8NDA1LjE1fDIwMS43NnwyMy4xOQ==)' />
<polyline points='50.67,188.87 59.64,188.87 ' style='stroke-width: 1.07; stroke-linecap: butt;' clip-path='url(#cpMjguMjN8NDA1LjE1fDIwMS43NnwyMy4xOQ==)' />
<polyline points='68.62,167.40 77.59,167.40 ' style='stroke-width: 1.07; stroke-linecap: butt;' clip-path='url(#cpMjguMjN8NDA1LjE1fDIwMS43NnwyMy4xOQ==)' />
<polyline points='73.11,167.40 73.11,175.05 ' style='stroke-width: 1.07; stroke-linecap: butt;' clip-path='url(#cpMjguMjN8NDA1LjE1fDIwMS43NnwyMy4xOQ==)' />
<polyline points='68.62,175.05 77.59,175.05 ' style='stroke-width: 1.07; stroke-linecap: butt;' clip-path='url(#cpMjguMjN8NDA1LjE1fDIwMS43NnwyMy4xOQ==)' />
<polyline points='86.57,154.35 95.54,154.35 ' style='stroke-width: 1.07; stroke-linecap: butt;' clip-path='url(#cpMjguMjN8NDA1LjE1fDIwMS43NnwyMy4xOQ==)' />
<polyline points='91.05,154.35 91.05,186.68 ' style='stroke-width: 1.07; stroke-linecap: butt;' clip-path='url(#cpMjguMjN8NDA1LjE1fDIwMS43NnwyMy4xOQ==)' />
<polyline points='86.57,186.68 95.54,186.68 ' style='stroke-width: 1.07; stroke-linecap: butt;' clip-path='url(#cpMjguMjN8NDA1LjE1fDIwMS43NnwyMy4xOQ==)' />
<polyline points='104.52,162.83 113.49,162.83 ' style='stroke-width: 1.07; stroke-linecap: butt;' clip-path='url(#cpMjguMjN8NDA1LjE1fDIwMS43NnwyMy4xOQ==)' />
<polyline points='109.00,162.83 109.00,172.10 ' style='stroke-width: 1.07; stroke-linecap: butt;' clip-path='url(#cpMjguMjN8NDA1LjE1fDIwMS43NnwyMy4xOQ==)' />
<polyline points='104.52,172.10 113.49,172.10 ' style='stroke-width: 1.07; stroke-linecap: butt;' clip-path='url(#cpMjguMjN8NDA1LjE1fDIwMS43NnwyMy4xOQ==)' />
<polyline points='122.46,166.83 131.44,166.83 ' style='stroke-width: 1.07; stroke-linecap: butt;' clip-path='url(#cpMjguMjN8NDA1LjE1fDIwMS43NnwyMy4xOQ==)' />
<polyline points='126.95,166.83 126.95,179.08 ' style='stroke-width: 1.07; stroke-linecap: butt;' clip-path='url(#cpMjguMjN8NDA1LjE1fDIwMS43NnwyMy4xOQ==)' />
<polyline points='122.46,179.08 131.44,179.08 ' style='stroke-width: 1.07; stroke-linecap: butt;' clip-path='url(#cpMjguMjN8NDA1LjE1fDIwMS43NnwyMy4xOQ==)' />
<polyline points='140.41,178.98 149.39,178.98 ' style='stroke-width: 1.07; stroke-linecap: butt;' clip-path='url(#cpMjguMjN8NDA1LjE1fDIwMS43NnwyMy4xOQ==)' />
<polyline points='144.90,178.98 144.90,187.24 ' style='stroke-width: 1.07; stroke-linecap: butt;' clip-path='url(#cpMjguMjN8NDA1LjE1fDIwMS43NnwyMy4xOQ==)' />
<polyline points='140.41,187.24 149.39,187.24 ' style='stroke-width: 1.07; stroke-linecap: butt;' clip-path='url(#cpMjguMjN8NDA1LjE1fDIwMS43NnwyMy4xOQ==)' />
<polyline points='158.36,156.72 167.34,156.72 ' style='stroke-width: 1.07; stroke-linecap: butt;' clip-path='url(#cpMjguMjN8NDA1LjE1fDIwMS43NnwyMy4xOQ==)' />
<polyline points='162.85,156.72 162.85,173.46 ' style='stroke-width: 1.07; stroke-linecap: butt;' clip-path='url(#cpMjguMjN8NDA1LjE1fDIwMS43NnwyMy4xOQ==)' />
<polyline points='158.36,173.46 167.34,173.46 ' style='stroke-width: 1.07; stroke-linecap: butt;' clip-path='url(#cpMjguMjN8NDA1LjE1fDIwMS43NnwyMy4xOQ==)' />
<polyline points='176.31,161.79 185.28,161.79 ' style='stroke-width: 1.07; stroke-linecap: butt;' clip-path='url(#cpMjguMjN8NDA1LjE1fDIwMS43NnwyMy4xOQ==)' />
<polyline points='180.80,161.79 180.80,177.04 ' style='stroke-width: 1.07; stroke-linecap: butt;' clip-path='url(#cpMjguMjN8NDA1LjE1fDIwMS43NnwyMy4xOQ==)' />
<polyline points='176.31,177.04 185.28,177.04 ' style='stroke-width: 1.07; stroke-linecap: butt;' clip-path='url(#cpMjguMjN8NDA1LjE1fDIwMS43NnwyMy4xOQ==)' />
<polyline points='194.26,163.84 203.23,163.84 ' style='stroke-width: 1.07; stroke-linecap: butt;' clip-path='url(#cpMjguMjN8NDA1LjE1fDIwMS43NnwyMy4xOQ==)' />
<polyline points='198.75,163.84 198.75,172.63 ' style='stroke-width: 1.07; stroke-linecap: butt;' clip-path='url(#cpMjguMjN8NDA1LjE1fDIwMS43NnwyMy4xOQ==)' />
<polyline points='194.26,172.63 203.23,172.63 ' style='stroke-width: 1.07; stroke-linecap: butt;' clip-path='url(#cpMjguMjN8NDA1LjE1fDIwMS43NnwyMy4xOQ==)' />
<polyline points='212.21,184.58 221.18,184.58 ' style='stroke-width: 1.07; stroke-linecap: butt;' clip-path='url(#cpMjguMjN8NDA1LjE1fDIwMS43NnwyMy4xOQ==)' />
<polyline points='216.69,184.58 216.69,193.02 ' style='stroke-width: 1.07; stroke-linecap: butt;' clip-path='url(#cpMjguMjN8NDA1LjE1fDIwMS43NnwyMy4xOQ==)' />
<polyline points='212.21,193.02 221.18,193.02 ' style='stroke-width: 1.07; stroke-linecap: butt;' clip-path='url(#cpMjguMjN8NDA1LjE1fDIwMS43NnwyMy4xOQ==)' />
<polyline points='230.16,129.24 239.13,129.24 ' style='stroke-width: 1.07; stroke-linecap: butt;' clip-path='url(#cpMjguMjN8NDA1LjE1fDIwMS43NnwyMy4xOQ==)' />
<polyline points='234.64,129.24 234.64,156.66 ' style='stroke-width: 1.07; stroke-linecap: butt;' clip-path='url(#cpMjguMjN8NDA1LjE1fDIwMS43NnwyMy4xOQ==)' />
<polyline points='230.16,156.66 239.13,156.66 ' style='stroke-width: 1.07; stroke-linecap: butt;' clip-path='url(#cpMjguMjN8NDA1LjE1fDIwMS43NnwyMy4xOQ==)' />
<polyline points='248.10,97.34 257.08,97.34 ' style='stroke-width: 1.07; stroke-linecap: butt;' clip-path='url(#cpMjguMjN8NDA1LjE1fDIwMS43NnwyMy4xOQ==)' />
<polyline points='252.59,97.34 252.59,123.50 ' style='stroke-width: 1.07; stroke-linecap: butt;' clip-path='url(#cpMjguMjN8NDA1LjE1fDIwMS43NnwyMy4xOQ==)' />
<polyline points='248.10,123.50 257.08,123.50 ' style='stroke-width: 1.07; stroke-linecap: butt;' clip-path='url(#cpMjguMjN8NDA1LjE1fDIwMS43NnwyMy4xOQ==)' />
<polyline points='266.05,75.01 275.03,75.01 ' style='stroke-width: 1.07; stroke-linecap: butt;' clip-path='url(#cpMjguMjN8NDA1LjE1fDIwMS43NnwyMy4xOQ==)' />
<polyline points='270.54,75.01 270.54,139.61 ' style='stroke-width: 1.07; stroke-linecap: butt;' clip-path='url(#cpMjguMjN8NDA1LjE1fDIwMS43NnwyMy4xOQ==)' />
<polyline points='266.05,139.61 275.03,139.61 ' style='stroke-width: 1.07; stroke-linecap: butt;' clip-path='url(#cpMjguMjN8NDA1LjE1fDIwMS43NnwyMy4xOQ==)' />
<polyline points='284.00,174.47 292.98,174.47 ' style='stroke-width: 1.07; stroke-linecap: butt;' clip-path='url(#cpMjguMjN8NDA1LjE1fDIwMS43NnwyMy4xOQ==)' />
<polyline points='288.49,174.47 288.49,180.38 ' style='stroke-width: 1.07; stroke-linecap: butt;' clip-path='url(#cpMjguMjN8NDA1LjE1fDIwMS43NnwyMy4xOQ==)' />
<polyline points='284.00,180.38 292.98,180.38 ' style='stroke-width: 1.07; stroke-linecap: butt;' clip-path='url(#cpMjguMjN8NDA1LjE1fDIwMS43NnwyMy4xOQ==)' />
<polyline points='301.95,170.85 310.92,170.85 ' style='stroke-width: 1.07; stroke-linecap: butt;' clip-path='url(#cpMjguMjN8NDA1LjE1fDIwMS43NnwyMy4xOQ==)' />
<polyline points='306.44,170.85 306.44,177.39 ' style='stroke-width: 1.07; stroke-linecap: butt;' clip-path='url(#cpMjguMjN8NDA1LjE1fDIwMS43NnwyMy4xOQ==)' />
<polyline points='301.95,177.39 310.92,177.39 ' style='stroke-width: 1.07; stroke-linecap: butt;' clip-path='url(#cpMjguMjN8NDA1LjE1fDIwMS43NnwyMy4xOQ==)' />
<polyline points='319.90,198.40 328.87,198.40 ' style='stroke-width: 1.07; stroke-linecap: butt;' clip-path='url(#cpMjguMjN8NDA1LjE1fDIwMS43NnwyMy4xOQ==)' />
<polyline points='324.39,198.40 324.39,200.67 ' style='stroke-width: 1.07; stroke-linecap: butt;' clip-path='url(#cpMjguMjN8NDA1LjE1fDIwMS43NnwyMy4xOQ==)' />
<polyline points='319.90,200.67 328.87,200.67 ' style='stroke-width: 1.07; stroke-linecap: butt;' clip-path='url(#cpMjguMjN8NDA1LjE1fDIwMS43NnwyMy4xOQ==)' />
<polyline points='337.85,163.24 346.82,163.24 ' style='stroke-width: 1.07; stroke-linecap: butt;' clip-path='url(#cpMjguMjN8NDA1LjE1fDIwMS43NnwyMy4xOQ==)' />
<polyline points='342.33,163.24 342.33,171.07 ' style='stroke-width: 1.07; stroke-linecap: butt;' clip-path='url(#cpMjguMjN8NDA1LjE1fDIwMS43NnwyMy4xOQ==)' />
<polyline points='337.85,171.07 346.82,171.07 ' style='stroke-width: 1.07; stroke-linecap: butt;' clip-path='url(#cpMjguMjN8NDA1LjE1fDIwMS43NnwyMy4xOQ==)' />
<polyline points='355.80,108.19 364.77,108.19 ' style='stroke-width: 1.07; stroke-linecap: butt;' clip-path='url(#cpMjguMjN8NDA1LjE1fDIwMS43NnwyMy4xOQ==)' />
<polyline points='360.28,108.19 360.28,142.52 ' style='stroke-width: 1.07; stroke-linecap: butt;' clip-path='url(#cpMjguMjN8NDA1LjE1fDIwMS43NnwyMy4xOQ==)' />
<polyline points='355.80,142.52 364.77,142.52 ' style='stroke-width: 1.07; stroke-linecap: butt;' clip-path='url(#cpMjguMjN8NDA1LjE1fDIwMS43NnwyMy4xOQ==)' />
<polyline points='373.74,23.19 382.72,23.19 ' style='stroke-width: 1.07; stroke-linecap: butt;' clip-path='url(#cpMjguMjN8NDA1LjE1fDIwMS43NnwyMy4xOQ==)' />
<polyline points='378.23,23.19 378.23,122.20 ' style='stroke-width: 1.07; stroke-linecap: butt;' clip-path='url(#cpMjguMjN8NDA1LjE1fDIwMS43NnwyMy4xOQ==)' />
<polyline points='373.74,122.20 382.72,122.20 ' style='stroke-width: 1.07; stroke-linecap: butt;' clip-path='url(#cpMjguMjN8NDA1LjE1fDIwMS43NnwyMy4xOQ==)' />
<polyline points='391.69,156.37 400.67,156.37 ' style='stroke-width: 1.07; stroke-linecap: butt;' clip-path='url(#cpMjguMjN8NDA1LjE1fDIwMS43NnwyMy4xOQ==)' />
<polyline points='396.18,156.37 396.18,173.08 ' style='stroke-width: 1.07; stroke-linecap: butt;' clip-path='url(#cpMjguMjN8NDA1LjE1fDIwMS43NnwyMy4xOQ==)' />
<polyline points='391.69,173.08 400.67,173.08 ' style='stroke-width: 1.07; stroke-linecap: butt;' clip-path='url(#cpMjguMjN8NDA1LjE1fDIwMS43NnwyMy4xOQ==)' />
<defs>
  <clipPath id='cpMC4wMHw0NjYuNTZ8MjU5LjIwfDAuMDA='>
    <rect x='0.00' y='0.00' width='466.56' height='259.20' />
  </clipPath>
</defs>
<polyline points='28.23,201.76 28.23,23.19 ' style='stroke-width: 1.07; stroke-linecap: butt;' clip-path='url(#cpMC4wMHw0NjYuNTZ8MjU5LjIwfDAuMDA=)' />
<g clip-path='url(#cpMC4wMHw0NjYuNTZ8MjU5LjIwfDAuMDA=)'><text x='18.41' y='204.91' style='font-size: 8.80px; fill: #4D4D4D; font-family: Arial;' textLength='4.89px' lengthAdjust='spacingAndGlyphs'>0</text></g>
<g clip-path='url(#cpMC4wMHw0NjYuNTZ8MjU5LjIwfDAuMDA=)'><text x='18.41' y='157.17' style='font-size: 8.80px; fill: #4D4D4D; font-family: Arial;' textLength='4.89px' lengthAdjust='spacingAndGlyphs'>1</text></g>
<g clip-path='url(#cpMC4wMHw0NjYuNTZ8MjU5LjIwfDAuMDA=)'><text x='18.41' y='109.44' style='font-size: 8.80px; fill: #4D4D4D; font-family: Arial;' textLength='4.89px' lengthAdjust='spacingAndGlyphs'>2</text></g>
<g clip-path='url(#cpMC4wMHw0NjYuNTZ8MjU5LjIwfDAuMDA=)'><text x='18.41' y='61.70' style='font-size: 8.80px; fill: #4D4D4D; font-family: Arial;' textLength='4.89px' lengthAdjust='spacingAndGlyphs'>3</text></g>
<polyline points='25.49,201.76 28.23,201.76 ' style='stroke-width: 1.07; stroke: #333333; stroke-linecap: butt;' clip-path='url(#cpMC4wMHw0NjYuNTZ8MjU5LjIwfDAuMDA=)' />
<polyline points='25.49,154.03 28.23,154.03 ' style='stroke-width: 1.07; stroke: #333333; stroke-linecap: butt;' clip-path='url(#cpMC4wMHw0NjYuNTZ8MjU5LjIwfDAuMDA=)' />
<polyline points='25.49,106.29 28.23,106.29 ' style='stroke-width: 1.07; stroke: #333333; stroke-linecap: butt;' clip-path='url(#cpMC4wMHw0NjYuNTZ8MjU5LjIwfDAuMDA=)' />
<polyline points='25.49,58.55 28.23,58.55 ' style='stroke-width: 1.07; stroke: #333333; stroke-linecap: butt;' clip-path='url(#cpMC4wMHw0NjYuNTZ8MjU5LjIwfDAuMDA=)' />
<polyline points='28.23,201.76 405.15,201.76 ' style='stroke-width: 1.07; stroke-linecap: butt;' clip-path='url(#cpMC4wMHw0NjYuNTZ8MjU5LjIwfDAuMDA=)' />
<polyline points='37.21,204.50 37.21,201.76 ' style='stroke-width: 1.07; stroke: #333333; stroke-linecap: butt;' clip-path='url(#cpMC4wMHw0NjYuNTZ8MjU5LjIwfDAuMDA=)' />
<polyline points='55.16,204.50 55.16,201.76 ' style='stroke-width: 1.07; stroke: #333333; stroke-linecap: butt;' clip-path='url(#cpMC4wMHw0NjYuNTZ8MjU5LjIwfDAuMDA=)' />
<polyline points='73.11,204.50 73.11,201.76 ' style='stroke-width: 1.07; stroke: #333333; stroke-linecap: butt;' clip-path='url(#cpMC4wMHw0NjYuNTZ8MjU5LjIwfDAuMDA=)' />
<polyline points='91.05,204.50 91.05,201.76 ' style='stroke-width: 1.07; stroke: #333333; stroke-linecap: butt;' clip-path='url(#cpMC4wMHw0NjYuNTZ8MjU5LjIwfDAuMDA=)' />
<polyline points='109.00,204.50 109.00,201.76 ' style='stroke-width: 1.07; stroke: #333333; stroke-linecap: butt;' clip-path='url(#cpMC4wMHw0NjYuNTZ8MjU5LjIwfDAuMDA=)' />
<polyline points='126.95,204.50 126.95,201.76 ' style='stroke-width: 1.07; stroke: #333333; stroke-linecap: butt;' clip-path='url(#cpMC4wMHw0NjYuNTZ8MjU5LjIwfDAuMDA=)' />
<polyline points='144.90,204.50 144.90,201.76 ' style='stroke-width: 1.07; stroke: #333333; stroke-linecap: butt;' clip-path='url(#cpMC4wMHw0NjYuNTZ8MjU5LjIwfDAuMDA=)' />
<polyline points='162.85,204.50 162.85,201.76 ' style='stroke-width: 1.07; stroke: #333333; stroke-linecap: butt;' clip-path='url(#cpMC4wMHw0NjYuNTZ8MjU5LjIwfDAuMDA=)' />
<polyline points='180.80,204.50 180.80,201.76 ' style='stroke-width: 1.07; stroke: #333333; stroke-linecap: butt;' clip-path='url(#cpMC4wMHw0NjYuNTZ8MjU5LjIwfDAuMDA=)' />
<polyline points='198.75,204.50 198.75,201.76 ' style='stroke-width: 1.07; stroke: #333333; stroke-linecap: butt;' clip-path='url(#cpMC4wMHw0NjYuNTZ8MjU5LjIwfDAuMDA=)' />
<polyline points='216.69,204.50 216.69,201.76 ' style='stroke-width: 1.07; stroke: #333333; stroke-linecap: butt;' clip-path='url(#cpMC4wMHw0NjYuNTZ8MjU5LjIwfDAuMDA=)' />
<polyline points='234.64,204.50 234.64,201.76 ' style='stroke-width: 1.07; stroke: #333333; stroke-linecap: butt;' clip-path='url(#cpMC4wMHw0NjYuNTZ8MjU5LjIwfDAuMDA=)' />
<polyline points='252.59,204.50 252.59,201.76 ' style='stroke-width: 1.07; stroke: #333333; stroke-linecap: butt;' clip-path='url(#cpMC4wMHw0NjYuNTZ8MjU5LjIwfDAuMDA=)' />
<polyline points='270.54,204.50 270.54,201.76 ' style='stroke-width: 1.07; stroke: #333333; stroke-linecap: butt;' clip-path='url(#cpMC4wMHw0NjYuNTZ8MjU5LjIwfDAuMDA=)' />
<polyline points='288.49,204.50 288.49,201.76 ' style='stroke-width: 1.07; stroke: #333333; stroke-linecap: butt;' clip-path='url(#cpMC4wMHw0NjYuNTZ8MjU5LjIwfDAuMDA=)' />
<polyline points='306.44,204.50 306.44,201.76 ' style='stroke-width: 1.07; stroke: #333333; stroke-linecap: butt;' clip-path='url(#cpMC4wMHw0NjYuNTZ8MjU5LjIwfDAuMDA=)' />
<polyline points='324.39,204.50 324.39,201.76 ' style='stroke-width: 1.07; stroke: #333333; stroke-linecap: butt;' clip-path='url(#cpMC4wMHw0NjYuNTZ8MjU5LjIwfDAuMDA=)' />
<polyline points='342.33,204.50 342.33,201.76 ' style='stroke-width: 1.07; stroke: #333333; stroke-linecap: butt;' clip-path='url(#cpMC4wMHw0NjYuNTZ8MjU5LjIwfDAuMDA=)' />
<polyline points='360.28,204.50 360.28,201.76 ' style='stroke-width: 1.07; stroke: #333333; stroke-linecap: butt;' clip-path='url(#cpMC4wMHw0NjYuNTZ8MjU5LjIwfDAuMDA=)' />
<polyline points='378.23,204.50 378.23,201.76 ' style='stroke-width: 1.07; stroke: #333333; stroke-linecap: butt;' clip-path='url(#cpMC4wMHw0NjYuNTZ8MjU5LjIwfDAuMDA=)' />
<polyline points='396.18,204.50 396.18,201.76 ' style='stroke-width: 1.07; stroke: #333333; stroke-linecap: butt;' clip-path='url(#cpMC4wMHw0NjYuNTZ8MjU5LjIwfDAuMDA=)' />
<g clip-path='url(#cpMC4wMHw0NjYuNTZ8MjU5LjIwfDAuMDA=)'><text transform='translate(22.86,233.60) rotate(-50)' style='font-size: 8.80px; fill: #4D4D4D; font-family: Arial;' textLength='29.83px' lengthAdjust='spacingAndGlyphs'>ALDOA</text></g>
<g clip-path='url(#cpMC4wMHw0NjYuNTZ8MjU5LjIwfDAuMDA=)'><text transform='translate(40.49,233.97) rotate(-50)' style='font-size: 8.80px; fill: #4D4D4D; font-family: Arial;' textLength='30.32px' lengthAdjust='spacingAndGlyphs'>ALDOC</text></g>
<g clip-path='url(#cpMC4wMHw0NjYuNTZ8MjU5LjIwfDAuMDA=)'><text transform='translate(62.53,229.10) rotate(-50)' style='font-size: 8.80px; fill: #4D4D4D; font-family: Arial;' textLength='23.96px' lengthAdjust='spacingAndGlyphs'>ENO1</text></g>
<g clip-path='url(#cpMC4wMHw0NjYuNTZ8MjU5LjIwfDAuMDA=)'><text transform='translate(80.48,229.10) rotate(-50)' style='font-size: 8.80px; fill: #4D4D4D; font-family: Arial;' textLength='23.96px' lengthAdjust='spacingAndGlyphs'>ENO2</text></g>
<g clip-path='url(#cpMC4wMHw0NjYuNTZ8MjU5LjIwfDAuMDA=)'><text transform='translate(93.71,234.72) rotate(-50)' style='font-size: 8.80px; fill: #4D4D4D; font-family: Arial;' textLength='31.29px' lengthAdjust='spacingAndGlyphs'>GAPDH</text></g>
<g clip-path='url(#cpMC4wMHw0NjYuNTZ8MjU5LjIwfDAuMDA=)'><text transform='translate(122.03,222.36) rotate(-50)' style='font-size: 8.80px; fill: #4D4D4D; font-family: Arial;' textLength='15.16px' lengthAdjust='spacingAndGlyphs'>GPI</text></g>
<g clip-path='url(#cpMC4wMHw0NjYuNTZ8MjU5LjIwfDAuMDA=)'><text transform='translate(138.72,223.86) rotate(-50)' style='font-size: 8.80px; fill: #4D4D4D; font-family: Arial;' textLength='17.12px' lengthAdjust='spacingAndGlyphs'>HK1</text></g>
<g clip-path='url(#cpMC4wMHw0NjYuNTZ8MjU5LjIwfDAuMDA=)'><text transform='translate(156.67,223.86) rotate(-50)' style='font-size: 8.80px; fill: #4D4D4D; font-family: Arial;' textLength='17.12px' lengthAdjust='spacingAndGlyphs'>HK2</text></g>
<g clip-path='url(#cpMC4wMHw0NjYuNTZ8MjU5LjIwfDAuMDA=)'><text transform='translate(170.53,228.73) rotate(-50)' style='font-size: 8.80px; fill: #4D4D4D; font-family: Arial;' textLength='23.47px' lengthAdjust='spacingAndGlyphs'>LDHA</text></g>
<g clip-path='url(#cpMC4wMHw0NjYuNTZ8MjU5LjIwfDAuMDA=)'><text transform='translate(188.48,228.73) rotate(-50)' style='font-size: 8.80px; fill: #4D4D4D; font-family: Arial;' textLength='23.47px' lengthAdjust='spacingAndGlyphs'>LDHB</text></g>
<g clip-path='url(#cpMC4wMHw0NjYuNTZ8MjU5LjIwfDAuMDA=)'><text transform='translate(206.12,229.10) rotate(-50)' style='font-size: 8.80px; fill: #4D4D4D; font-family: Arial;' textLength='23.96px' lengthAdjust='spacingAndGlyphs'>LDHD</text></g>
<g clip-path='url(#cpMC4wMHw0NjYuNTZ8MjU5LjIwfDAuMDA=)'><text transform='translate(225.32,227.60) rotate(-50)' style='font-size: 8.80px; fill: #4D4D4D; font-family: Arial;' textLength='22.01px' lengthAdjust='spacingAndGlyphs'>PFKL</text></g>
<g clip-path='url(#cpMC4wMHw0NjYuNTZ8MjU5LjIwfDAuMDA=)'><text transform='translate(241.70,229.47) rotate(-50)' style='font-size: 8.80px; fill: #4D4D4D; font-family: Arial;' textLength='24.44px' lengthAdjust='spacingAndGlyphs'>PFKM</text></g>
<g clip-path='url(#cpMC4wMHw0NjYuNTZ8MjU5LjIwfDAuMDA=)'><text transform='translate(260.59,228.35) rotate(-50)' style='font-size: 8.80px; fill: #4D4D4D; font-family: Arial;' textLength='22.98px' lengthAdjust='spacingAndGlyphs'>PFKP</text></g>
<g clip-path='url(#cpMC4wMHw0NjYuNTZ8MjU5LjIwfDAuMDA=)'><text transform='translate(273.51,234.34) rotate(-50)' style='font-size: 8.80px; fill: #4D4D4D; font-family: Arial;' textLength='30.81px' lengthAdjust='spacingAndGlyphs'>PGAM1</text></g>
<g clip-path='url(#cpMC4wMHw0NjYuNTZ8MjU5LjIwfDAuMDA=)'><text transform='translate(296.17,228.73) rotate(-50)' style='font-size: 8.80px; fill: #4D4D4D; font-family: Arial;' textLength='23.48px' lengthAdjust='spacingAndGlyphs'>PGK1</text></g>
<g clip-path='url(#cpMC4wMHw0NjYuNTZ8MjU5LjIwfDAuMDA=)'><text transform='translate(314.43,228.35) rotate(-50)' style='font-size: 8.80px; fill: #4D4D4D; font-family: Arial;' textLength='22.99px' lengthAdjust='spacingAndGlyphs'>PKLR</text></g>
<g clip-path='url(#cpMC4wMHw0NjYuNTZ8MjU5LjIwfDAuMDA=)'><text transform='translate(334.90,225.35) rotate(-50)' style='font-size: 8.80px; fill: #4D4D4D; font-family: Arial;' textLength='19.07px' lengthAdjust='spacingAndGlyphs'>PKM</text></g>
<g clip-path='url(#cpMC4wMHw0NjYuNTZ8MjU5LjIwfDAuMDA=)'><text transform='translate(340.89,239.60) rotate(-50)' style='font-size: 8.80px; fill: #4D4D4D; font-family: Arial;' textLength='37.67px' lengthAdjust='spacingAndGlyphs'>SLC2A11</text></g>
<g clip-path='url(#cpMC4wMHw0NjYuNTZ8MjU5LjIwfDAuMDA=)'><text transform='translate(358.84,239.60) rotate(-50)' style='font-size: 8.80px; fill: #4D4D4D; font-family: Arial;' textLength='37.67px' lengthAdjust='spacingAndGlyphs'>SLC2A13</text></g>
<g clip-path='url(#cpMC4wMHw0NjYuNTZ8MjU5LjIwfDAuMDA=)'><text transform='translate(389.06,224.98) rotate(-50)' style='font-size: 8.80px; fill: #4D4D4D; font-family: Arial;' textLength='18.58px' lengthAdjust='spacingAndGlyphs'>TPI1</text></g>
<g clip-path='url(#cpMC4wMHw0NjYuNTZ8MjU5LjIwfDAuMDA=)'><text transform='translate(13.35,158.02) rotate(-90)' style='font-size: 11.00px; font-family: Arial;' textLength='91.08px' lengthAdjust='spacingAndGlyphs'>TPM relative to D0</text></g>
<rect x='416.11' y='90.52' width='44.97' height='43.91' style='stroke-width: 1.07; stroke: none; fill: #FFFFFF;' clip-path='url(#cpMC4wMHw0NjYuNTZ8MjU5LjIwfDAuMDA=)' />
<g clip-path='url(#cpMC4wMHw0NjYuNTZ8MjU5LjIwfDAuMDA=)'><text x='421.59' y='105.03' style='font-size: 11.00px; font-family: Arial;' textLength='17.74px' lengthAdjust='spacingAndGlyphs'>day</text></g>
<rect x='422.30' y='112.38' width='15.86' height='15.86' style='stroke-width: 1.07; stroke: none; stroke-linecap: square; stroke-linejoin: miter; fill: #A66753;' clip-path='url(#cpMC4wMHw0NjYuNTZ8MjU5LjIwfDAuMDA=)' />
<g clip-path='url(#cpMC4wMHw0NjYuNTZ8MjU5LjIwfDAuMDA=)'><text x='444.35' y='123.46' style='font-size: 8.80px; font-family: Arial;' textLength='11.25px' lengthAdjust='spacingAndGlyphs'>D7</text></g>
<g clip-path='url(#cpMC4wMHw0NjYuNTZ8MjU5LjIwfDAuMDA=)'><text x='28.23' y='14.93' style='font-size: 13.20px; font-family: Arial;' textLength='56.48px' lengthAdjust='spacingAndGlyphs'>glycolysis</text></g>
</svg>
