<?xml version='1.0' encoding='UTF-8' ?>
<svg xmlns='http://www.w3.org/2000/svg' xmlns:xlink='http://www.w3.org/1999/xlink' viewBox='0 0 440.64 259.20'>
<defs>
  <style type='text/css'><![CDATA[
    line, polyline, polygon, path, rect, circle {
      fill: none;
      stroke: #000000;
      stroke-linecap: round;
      stroke-linejoin: round;
      stroke-miterlimit: 10.00;
    }
  ]]></style>
</defs>
<rect width='100%' height='100%' style='stroke: none; fill: #FFFFFF;'/>
<rect x='0.00' y='0.00' width='440.64' height='259.20' style='stroke-width: 1.07; stroke: #FFFFFF; fill: #FFFFFF;' />
<defs>
  <clipPath id='cpMzEuMTZ8Mzc0LjM0fDIwMC4yOHwyMy4xOQ=='>
    <rect x='31.16' y='23.19' width='343.18' height='177.09' />
  </clipPath>
</defs>
<rect x='31.16' y='23.19' width='343.18' height='177.09' style='stroke-width: 1.07; stroke: none; fill: #FFFFFF;' clip-path='url(#cpMzEuMTZ8Mzc0LjM0fDIwMC4yOHwyMy4xOQ==)' />
<line x1='31.16' y1='111.73' x2='374.34' y2='111.73' style='stroke-width: 1.07; stroke: #333333; stroke-dasharray: 5.69,5.69; stroke-linecap: butt;' clip-path='url(#cpMzEuMTZ8Mzc0LjM0fDIwMC4yOHwyMy4xOQ==)' />
<rect x='271.39' y='111.73' width='7.04' height='7.13' style='stroke-width: 1.07; stroke: none; stroke-linecap: square; stroke-linejoin: miter; fill: #FFADD9;' clip-path='url(#cpMzEuMTZ8Mzc0LjM0fDIwMC4yOHwyMy4xOQ==)' />
<rect x='324.18' y='111.73' width='7.04' height='20.25' style='stroke-width: 1.07; stroke: none; stroke-linecap: square; stroke-linejoin: miter; fill: #FFADD9;' clip-path='url(#cpMzEuMTZ8Mzc0LjM0fDIwMC4yOHwyMy4xOQ==)' />
<rect x='60.20' y='111.73' width='7.04' height='7.65' style='stroke-width: 1.07; stroke: none; stroke-linecap: square; stroke-linejoin: miter; fill: #FFADD9;' clip-path='url(#cpMzEuMTZ8Mzc0LjM0fDIwMC4yOHwyMy4xOQ==)' />
<rect x='244.99' y='111.73' width='7.04' height='9.56' style='stroke-width: 1.07; stroke: none; stroke-linecap: square; stroke-linejoin: miter; fill: #FFADD9;' clip-path='url(#cpMzEuMTZ8Mzc0LjM0fDIwMC4yOHwyMy4xOQ==)' />
<rect x='218.59' y='111.73' width='7.04' height='17.37' style='stroke-width: 1.07; stroke: none; stroke-linecap: square; stroke-linejoin: miter; fill: #FFADD9;' clip-path='url(#cpMzEuMTZ8Mzc0LjM0fDIwMC4yOHwyMy4xOQ==)' />
<rect x='139.40' y='111.73' width='7.04' height='2.60' style='stroke-width: 1.07; stroke: none; stroke-linecap: square; stroke-linejoin: miter; fill: #FFADD9;' clip-path='url(#cpMzEuMTZ8Mzc0LjM0fDIwMC4yOHwyMy4xOQ==)' />
<rect x='297.79' y='111.73' width='7.04' height='12.02' style='stroke-width: 1.07; stroke: none; stroke-linecap: square; stroke-linejoin: miter; fill: #FFADD9;' clip-path='url(#cpMzEuMTZ8Mzc0LjM0fDIwMC4yOHwyMy4xOQ==)' />
<rect x='350.58' y='111.73' width='7.04' height='11.87' style='stroke-width: 1.07; stroke: none; stroke-linecap: square; stroke-linejoin: miter; fill: #FFADD9;' clip-path='url(#cpMzEuMTZ8Mzc0LjM0fDIwMC4yOHwyMy4xOQ==)' />
<rect x='33.80' y='111.73' width='7.04' height='10.25' style='stroke-width: 1.07; stroke: none; stroke-linecap: square; stroke-linejoin: miter; fill: #FFADD9;' clip-path='url(#cpMzEuMTZ8Mzc0LjM0fDIwMC4yOHwyMy4xOQ==)' />
<rect x='86.60' y='111.73' width='7.04' height='0.77' style='stroke-width: 1.07; stroke: none; stroke-linecap: square; stroke-linejoin: miter; fill: #FFADD9;' clip-path='url(#cpMzEuMTZ8Mzc0LjM0fDIwMC4yOHwyMy4xOQ==)' />
<rect x='192.19' y='104.13' width='7.04' height='7.61' style='stroke-width: 1.07; stroke: none; stroke-linecap: square; stroke-linejoin: miter; fill: #FFADD9;' clip-path='url(#cpMzEuMTZ8Mzc0LjM0fDIwMC4yOHwyMy4xOQ==)' />
<rect x='113.00' y='105.82' width='7.04' height='5.91' style='stroke-width: 1.07; stroke: none; stroke-linecap: square; stroke-linejoin: miter; fill: #FFADD9;' clip-path='url(#cpMzEuMTZ8Mzc0LjM0fDIwMC4yOHwyMy4xOQ==)' />
<rect x='165.79' y='111.73' width='7.04' height='1.70' style='stroke-width: 1.07; stroke: none; stroke-linecap: square; stroke-linejoin: miter; fill: #FFADD9;' clip-path='url(#cpMzEuMTZ8Mzc0LjM0fDIwMC4yOHwyMy4xOQ==)' />
<rect x='278.43' y='111.73' width='7.04' height='2.03' style='stroke-width: 1.07; stroke: none; stroke-linecap: square; stroke-linejoin: miter; fill: #C73C95;' clip-path='url(#cpMzEuMTZ8Mzc0LjM0fDIwMC4yOHwyMy4xOQ==)' />
<rect x='331.22' y='111.73' width='7.04' height='44.59' style='stroke-width: 1.07; stroke: none; stroke-linecap: square; stroke-linejoin: miter; fill: #C73C95;' clip-path='url(#cpMzEuMTZ8Mzc0LjM0fDIwMC4yOHwyMy4xOQ==)' />
<rect x='67.24' y='111.73' width='7.04' height='8.62' style='stroke-width: 1.07; stroke: none; stroke-linecap: square; stroke-linejoin: miter; fill: #C73C95;' clip-path='url(#cpMzEuMTZ8Mzc0LjM0fDIwMC4yOHwyMy4xOQ==)' />
<rect x='252.03' y='111.73' width='7.04' height='18.54' style='stroke-width: 1.07; stroke: none; stroke-linecap: square; stroke-linejoin: miter; fill: #C73C95;' clip-path='url(#cpMzEuMTZ8Mzc0LjM0fDIwMC4yOHwyMy4xOQ==)' />
<rect x='225.63' y='111.73' width='7.04' height='14.25' style='stroke-width: 1.07; stroke: none; stroke-linecap: square; stroke-linejoin: miter; fill: #C73C95;' clip-path='url(#cpMzEuMTZ8Mzc0LjM0fDIwMC4yOHwyMy4xOQ==)' />
<rect x='146.44' y='111.73' width='7.04' height='7.50' style='stroke-width: 1.07; stroke: none; stroke-linecap: square; stroke-linejoin: miter; fill: #C73C95;' clip-path='url(#cpMzEuMTZ8Mzc0LjM0fDIwMC4yOHwyMy4xOQ==)' />
<rect x='304.82' y='111.73' width='7.04' height='6.58' style='stroke-width: 1.07; stroke: none; stroke-linecap: square; stroke-linejoin: miter; fill: #C73C95;' clip-path='url(#cpMzEuMTZ8Mzc0LjM0fDIwMC4yOHwyMy4xOQ==)' />
<rect x='357.62' y='111.73' width='7.04' height='4.60' style='stroke-width: 1.07; stroke: none; stroke-linecap: square; stroke-linejoin: miter; fill: #C73C95;' clip-path='url(#cpMzEuMTZ8Mzc0LjM0fDIwMC4yOHwyMy4xOQ==)' />
<rect x='40.84' y='111.73' width='7.04' height='4.43' style='stroke-width: 1.07; stroke: none; stroke-linecap: square; stroke-linejoin: miter; fill: #C73C95;' clip-path='url(#cpMzEuMTZ8Mzc0LjM0fDIwMC4yOHwyMy4xOQ==)' />
<rect x='93.64' y='108.22' width='7.04' height='3.52' style='stroke-width: 1.07; stroke: none; stroke-linecap: square; stroke-linejoin: miter; fill: #C73C95;' clip-path='url(#cpMzEuMTZ8Mzc0LjM0fDIwMC4yOHwyMy4xOQ==)' />
<rect x='199.23' y='111.73' width='7.04' height='7.91' style='stroke-width: 1.07; stroke: none; stroke-linecap: square; stroke-linejoin: miter; fill: #C73C95;' clip-path='url(#cpMzEuMTZ8Mzc0LjM0fDIwMC4yOHwyMy4xOQ==)' />
<rect x='120.04' y='106.94' width='7.04' height='4.79' style='stroke-width: 1.07; stroke: none; stroke-linecap: square; stroke-linejoin: miter; fill: #C73C95;' clip-path='url(#cpMzEuMTZ8Mzc0LjM0fDIwMC4yOHwyMy4xOQ==)' />
<rect x='172.83' y='111.73' width='7.04' height='4.45' style='stroke-width: 1.07; stroke: none; stroke-linecap: square; stroke-linejoin: miter; fill: #C73C95;' clip-path='url(#cpMzEuMTZ8Mzc0LjM0fDIwMC4yOHwyMy4xOQ==)' />
<rect x='285.47' y='111.73' width='7.04' height='21.72' style='stroke-width: 1.07; stroke: none; stroke-linecap: square; stroke-linejoin: miter; fill: #7C1E5B;' clip-path='url(#cpMzEuMTZ8Mzc0LjM0fDIwMC4yOHwyMy4xOQ==)' />
<rect x='338.26' y='111.73' width='7.04' height='32.32' style='stroke-width: 1.07; stroke: none; stroke-linecap: square; stroke-linejoin: miter; fill: #7C1E5B;' clip-path='url(#cpMzEuMTZ8Mzc0LjM0fDIwMC4yOHwyMy4xOQ==)' />
<rect x='74.28' y='111.50' width='7.04' height='0.23' style='stroke-width: 1.07; stroke: none; stroke-linecap: square; stroke-linejoin: miter; fill: #7C1E5B;' clip-path='url(#cpMzEuMTZ8Mzc0LjM0fDIwMC4yOHwyMy4xOQ==)' />
<rect x='259.07' y='111.73' width='7.04' height='22.14' style='stroke-width: 1.07; stroke: none; stroke-linecap: square; stroke-linejoin: miter; fill: #7C1E5B;' clip-path='url(#cpMzEuMTZ8Mzc0LjM0fDIwMC4yOHwyMy4xOQ==)' />
<rect x='232.67' y='111.73' width='7.04' height='15.16' style='stroke-width: 1.07; stroke: none; stroke-linecap: square; stroke-linejoin: miter; fill: #7C1E5B;' clip-path='url(#cpMzEuMTZ8Mzc0LjM0fDIwMC4yOHwyMy4xOQ==)' />
<rect x='153.48' y='111.73' width='7.04' height='14.27' style='stroke-width: 1.07; stroke: none; stroke-linecap: square; stroke-linejoin: miter; fill: #7C1E5B;' clip-path='url(#cpMzEuMTZ8Mzc0LjM0fDIwMC4yOHwyMy4xOQ==)' />
<rect x='311.86' y='111.73' width='7.04' height='27.03' style='stroke-width: 1.07; stroke: none; stroke-linecap: square; stroke-linejoin: miter; fill: #7C1E5B;' clip-path='url(#cpMzEuMTZ8Mzc0LjM0fDIwMC4yOHwyMy4xOQ==)' />
<rect x='364.66' y='111.73' width='7.04' height='68.63' style='stroke-width: 1.07; stroke: none; stroke-linecap: square; stroke-linejoin: miter; fill: #7C1E5B;' clip-path='url(#cpMzEuMTZ8Mzc0LjM0fDIwMC4yOHwyMy4xOQ==)' />
<rect x='47.88' y='108.10' width='7.04' height='3.64' style='stroke-width: 1.07; stroke: none; stroke-linecap: square; stroke-linejoin: miter; fill: #7C1E5B;' clip-path='url(#cpMzEuMTZ8Mzc0LjM0fDIwMC4yOHwyMy4xOQ==)' />
<rect x='100.68' y='108.53' width='7.04' height='3.21' style='stroke-width: 1.07; stroke: none; stroke-linecap: square; stroke-linejoin: miter; fill: #7C1E5B;' clip-path='url(#cpMzEuMTZ8Mzc0LjM0fDIwMC4yOHwyMy4xOQ==)' />
<rect x='206.27' y='111.73' width='7.04' height='8.27' style='stroke-width: 1.07; stroke: none; stroke-linecap: square; stroke-linejoin: miter; fill: #7C1E5B;' clip-path='url(#cpMzEuMTZ8Mzc0LjM0fDIwMC4yOHwyMy4xOQ==)' />
<rect x='127.08' y='111.73' width='7.04' height='3.04' style='stroke-width: 1.07; stroke: none; stroke-linecap: square; stroke-linejoin: miter; fill: #7C1E5B;' clip-path='url(#cpMzEuMTZ8Mzc0LjM0fDIwMC4yOHwyMy4xOQ==)' />
<rect x='179.87' y='111.73' width='7.04' height='15.53' style='stroke-width: 1.07; stroke: none; stroke-linecap: square; stroke-linejoin: miter; fill: #7C1E5B;' clip-path='url(#cpMzEuMTZ8Mzc0LjM0fDIwMC4yOHwyMy4xOQ==)' />
<polyline points='273.15,115.89 276.67,115.89 ' style='stroke-width: 1.07; stroke-linecap: butt;' clip-path='url(#cpMzEuMTZ8Mzc0LjM0fDIwMC4yOHwyMy4xOQ==)' />
<polyline points='274.91,115.89 274.91,121.83 ' style='stroke-width: 1.07; stroke-linecap: butt;' clip-path='url(#cpMzEuMTZ8Mzc0LjM0fDIwMC4yOHwyMy4xOQ==)' />
<polyline points='273.15,121.83 276.67,121.83 ' style='stroke-width: 1.07; stroke-linecap: butt;' clip-path='url(#cpMzEuMTZ8Mzc0LjM0fDIwMC4yOHwyMy4xOQ==)' />
<polyline points='325.94,126.72 329.46,126.72 ' style='stroke-width: 1.07; stroke-linecap: butt;' clip-path='url(#cpMzEuMTZ8Mzc0LjM0fDIwMC4yOHwyMy4xOQ==)' />
<polyline points='327.70,126.72 327.70,137.24 ' style='stroke-width: 1.07; stroke-linecap: butt;' clip-path='url(#cpMzEuMTZ8Mzc0LjM0fDIwMC4yOHwyMy4xOQ==)' />
<polyline points='325.94,137.24 329.46,137.24 ' style='stroke-width: 1.07; stroke-linecap: butt;' clip-path='url(#cpMzEuMTZ8Mzc0LjM0fDIwMC4yOHwyMy4xOQ==)' />
<polyline points='61.96,116.66 65.48,116.66 ' style='stroke-width: 1.07; stroke-linecap: butt;' clip-path='url(#cpMzEuMTZ8Mzc0LjM0fDIwMC4yOHwyMy4xOQ==)' />
<polyline points='63.72,116.66 63.72,122.10 ' style='stroke-width: 1.07; stroke-linecap: butt;' clip-path='url(#cpMzEuMTZ8Mzc0LjM0fDIwMC4yOHwyMy4xOQ==)' />
<polyline points='61.96,122.10 65.48,122.10 ' style='stroke-width: 1.07; stroke-linecap: butt;' clip-path='url(#cpMzEuMTZ8Mzc0LjM0fDIwMC4yOHwyMy4xOQ==)' />
<polyline points='246.75,116.21 250.27,116.21 ' style='stroke-width: 1.07; stroke-linecap: butt;' clip-path='url(#cpMzEuMTZ8Mzc0LjM0fDIwMC4yOHwyMy4xOQ==)' />
<polyline points='248.51,116.21 248.51,126.38 ' style='stroke-width: 1.07; stroke-linecap: butt;' clip-path='url(#cpMzEuMTZ8Mzc0LjM0fDIwMC4yOHwyMy4xOQ==)' />
<polyline points='246.75,126.38 250.27,126.38 ' style='stroke-width: 1.07; stroke-linecap: butt;' clip-path='url(#cpMzEuMTZ8Mzc0LjM0fDIwMC4yOHwyMy4xOQ==)' />
<polyline points='220.35,124.71 223.87,124.71 ' style='stroke-width: 1.07; stroke-linecap: butt;' clip-path='url(#cpMzEuMTZ8Mzc0LjM0fDIwMC4yOHwyMy4xOQ==)' />
<polyline points='222.11,124.71 222.11,133.50 ' style='stroke-width: 1.07; stroke-linecap: butt;' clip-path='url(#cpMzEuMTZ8Mzc0LjM0fDIwMC4yOHwyMy4xOQ==)' />
<polyline points='220.35,133.50 223.87,133.50 ' style='stroke-width: 1.07; stroke-linecap: butt;' clip-path='url(#cpMzEuMTZ8Mzc0LjM0fDIwMC4yOHwyMy4xOQ==)' />
<polyline points='141.16,108.99 144.68,108.99 ' style='stroke-width: 1.07; stroke-linecap: butt;' clip-path='url(#cpMzEuMTZ8Mzc0LjM0fDIwMC4yOHwyMy4xOQ==)' />
<polyline points='142.92,108.99 142.92,119.66 ' style='stroke-width: 1.07; stroke-linecap: butt;' clip-path='url(#cpMzEuMTZ8Mzc0LjM0fDIwMC4yOHwyMy4xOQ==)' />
<polyline points='141.16,119.66 144.68,119.66 ' style='stroke-width: 1.07; stroke-linecap: butt;' clip-path='url(#cpMzEuMTZ8Mzc0LjM0fDIwMC4yOHwyMy4xOQ==)' />
<polyline points='299.55,118.81 303.06,118.81 ' style='stroke-width: 1.07; stroke-linecap: butt;' clip-path='url(#cpMzEuMTZ8Mzc0LjM0fDIwMC4yOHwyMy4xOQ==)' />
<polyline points='301.31,118.81 301.31,128.70 ' style='stroke-width: 1.07; stroke-linecap: butt;' clip-path='url(#cpMzEuMTZ8Mzc0LjM0fDIwMC4yOHwyMy4xOQ==)' />
<polyline points='299.55,128.70 303.06,128.70 ' style='stroke-width: 1.07; stroke-linecap: butt;' clip-path='url(#cpMzEuMTZ8Mzc0LjM0fDIwMC4yOHwyMy4xOQ==)' />
<polyline points='352.34,119.13 355.86,119.13 ' style='stroke-width: 1.07; stroke-linecap: butt;' clip-path='url(#cpMzEuMTZ8Mzc0LjM0fDIwMC4yOHwyMy4xOQ==)' />
<polyline points='354.10,119.13 354.10,128.07 ' style='stroke-width: 1.07; stroke-linecap: butt;' clip-path='url(#cpMzEuMTZ8Mzc0LjM0fDIwMC4yOHwyMy4xOQ==)' />
<polyline points='352.34,128.07 355.86,128.07 ' style='stroke-width: 1.07; stroke-linecap: butt;' clip-path='url(#cpMzEuMTZ8Mzc0LjM0fDIwMC4yOHwyMy4xOQ==)' />
<polyline points='35.56,117.60 39.08,117.60 ' style='stroke-width: 1.07; stroke-linecap: butt;' clip-path='url(#cpMzEuMTZ8Mzc0LjM0fDIwMC4yOHwyMy4xOQ==)' />
<polyline points='37.32,117.60 37.32,126.37 ' style='stroke-width: 1.07; stroke-linecap: butt;' clip-path='url(#cpMzEuMTZ8Mzc0LjM0fDIwMC4yOHwyMy4xOQ==)' />
<polyline points='35.56,126.37 39.08,126.37 ' style='stroke-width: 1.07; stroke-linecap: butt;' clip-path='url(#cpMzEuMTZ8Mzc0LjM0fDIwMC4yOHwyMy4xOQ==)' />
<polyline points='88.36,108.29 91.88,108.29 ' style='stroke-width: 1.07; stroke-linecap: butt;' clip-path='url(#cpMzEuMTZ8Mzc0LjM0fDIwMC4yOHwyMy4xOQ==)' />
<polyline points='90.12,108.29 90.12,116.71 ' style='stroke-width: 1.07; stroke-linecap: butt;' clip-path='url(#cpMzEuMTZ8Mzc0LjM0fDIwMC4yOHwyMy4xOQ==)' />
<polyline points='88.36,116.71 91.88,116.71 ' style='stroke-width: 1.07; stroke-linecap: butt;' clip-path='url(#cpMzEuMTZ8Mzc0LjM0fDIwMC4yOHwyMy4xOQ==)' />
<polyline points='193.95,98.00 197.47,98.00 ' style='stroke-width: 1.07; stroke-linecap: butt;' clip-path='url(#cpMzEuMTZ8Mzc0LjM0fDIwMC4yOHwyMy4xOQ==)' />
<polyline points='195.71,98.00 195.71,110.25 ' style='stroke-width: 1.07; stroke-linecap: butt;' clip-path='url(#cpMzEuMTZ8Mzc0LjM0fDIwMC4yOHwyMy4xOQ==)' />
<polyline points='193.95,110.25 197.47,110.25 ' style='stroke-width: 1.07; stroke-linecap: butt;' clip-path='url(#cpMzEuMTZ8Mzc0LjM0fDIwMC4yOHwyMy4xOQ==)' />
<polyline points='114.76,99.91 118.28,99.91 ' style='stroke-width: 1.07; stroke-linecap: butt;' clip-path='url(#cpMzEuMTZ8Mzc0LjM0fDIwMC4yOHwyMy4xOQ==)' />
<polyline points='116.52,99.91 116.52,111.73 ' style='stroke-width: 1.07; stroke-linecap: butt;' clip-path='url(#cpMzEuMTZ8Mzc0LjM0fDIwMC4yOHwyMy4xOQ==)' />
<polyline points='114.76,111.73 118.28,111.73 ' style='stroke-width: 1.07; stroke-linecap: butt;' clip-path='url(#cpMzEuMTZ8Mzc0LjM0fDIwMC4yOHwyMy4xOQ==)' />
<polyline points='167.55,109.35 171.07,109.35 ' style='stroke-width: 1.07; stroke-linecap: butt;' clip-path='url(#cpMzEuMTZ8Mzc0LjM0fDIwMC4yOHwyMy4xOQ==)' />
<polyline points='169.31,109.35 169.31,117.51 ' style='stroke-width: 1.07; stroke-linecap: butt;' clip-path='url(#cpMzEuMTZ8Mzc0LjM0fDIwMC4yOHwyMy4xOQ==)' />
<polyline points='167.55,117.51 171.07,117.51 ' style='stroke-width: 1.07; stroke-linecap: butt;' clip-path='url(#cpMzEuMTZ8Mzc0LjM0fDIwMC4yOHwyMy4xOQ==)' />
<polyline points='280.19,110.79 283.71,110.79 ' style='stroke-width: 1.07; stroke-linecap: butt;' clip-path='url(#cpMzEuMTZ8Mzc0LjM0fDIwMC4yOHwyMy4xOQ==)' />
<polyline points='281.95,110.79 281.95,116.73 ' style='stroke-width: 1.07; stroke-linecap: butt;' clip-path='url(#cpMzEuMTZ8Mzc0LjM0fDIwMC4yOHwyMy4xOQ==)' />
<polyline points='280.19,116.73 283.71,116.73 ' style='stroke-width: 1.07; stroke-linecap: butt;' clip-path='url(#cpMzEuMTZ8Mzc0LjM0fDIwMC4yOHwyMy4xOQ==)' />
<polyline points='332.98,151.06 336.50,151.06 ' style='stroke-width: 1.07; stroke-linecap: butt;' clip-path='url(#cpMzEuMTZ8Mzc0LjM0fDIwMC4yOHwyMy4xOQ==)' />
<polyline points='334.74,151.06 334.74,161.59 ' style='stroke-width: 1.07; stroke-linecap: butt;' clip-path='url(#cpMzEuMTZ8Mzc0LjM0fDIwMC4yOHwyMy4xOQ==)' />
<polyline points='332.98,161.59 336.50,161.59 ' style='stroke-width: 1.07; stroke-linecap: butt;' clip-path='url(#cpMzEuMTZ8Mzc0LjM0fDIwMC4yOHwyMy4xOQ==)' />
<polyline points='69.00,117.63 72.52,117.63 ' style='stroke-width: 1.07; stroke-linecap: butt;' clip-path='url(#cpMzEuMTZ8Mzc0LjM0fDIwMC4yOHwyMy4xOQ==)' />
<polyline points='70.76,117.63 70.76,123.07 ' style='stroke-width: 1.07; stroke-linecap: butt;' clip-path='url(#cpMzEuMTZ8Mzc0LjM0fDIwMC4yOHwyMy4xOQ==)' />
<polyline points='69.00,123.07 72.52,123.07 ' style='stroke-width: 1.07; stroke-linecap: butt;' clip-path='url(#cpMzEuMTZ8Mzc0LjM0fDIwMC4yOHwyMy4xOQ==)' />
<polyline points='253.79,125.19 257.31,125.19 ' style='stroke-width: 1.07; stroke-linecap: butt;' clip-path='url(#cpMzEuMTZ8Mzc0LjM0fDIwMC4yOHwyMy4xOQ==)' />
<polyline points='255.55,125.19 255.55,135.36 ' style='stroke-width: 1.07; stroke-linecap: butt;' clip-path='url(#cpMzEuMTZ8Mzc0LjM0fDIwMC4yOHwyMy4xOQ==)' />
<polyline points='253.79,135.36 257.31,135.36 ' style='stroke-width: 1.07; stroke-linecap: butt;' clip-path='url(#cpMzEuMTZ8Mzc0LjM0fDIwMC4yOHwyMy4xOQ==)' />
<polyline points='227.39,121.59 230.91,121.59 ' style='stroke-width: 1.07; stroke-linecap: butt;' clip-path='url(#cpMzEuMTZ8Mzc0LjM0fDIwMC4yOHwyMy4xOQ==)' />
<polyline points='229.15,121.59 229.15,130.37 ' style='stroke-width: 1.07; stroke-linecap: butt;' clip-path='url(#cpMzEuMTZ8Mzc0LjM0fDIwMC4yOHwyMy4xOQ==)' />
<polyline points='227.39,130.37 230.91,130.37 ' style='stroke-width: 1.07; stroke-linecap: butt;' clip-path='url(#cpMzEuMTZ8Mzc0LjM0fDIwMC4yOHwyMy4xOQ==)' />
<polyline points='148.20,113.90 151.72,113.90 ' style='stroke-width: 1.07; stroke-linecap: butt;' clip-path='url(#cpMzEuMTZ8Mzc0LjM0fDIwMC4yOHwyMy4xOQ==)' />
<polyline points='149.96,113.90 149.96,124.57 ' style='stroke-width: 1.07; stroke-linecap: butt;' clip-path='url(#cpMzEuMTZ8Mzc0LjM0fDIwMC4yOHwyMy4xOQ==)' />
<polyline points='148.20,124.57 151.72,124.57 ' style='stroke-width: 1.07; stroke-linecap: butt;' clip-path='url(#cpMzEuMTZ8Mzc0LjM0fDIwMC4yOHwyMy4xOQ==)' />
<polyline points='306.58,113.37 310.10,113.37 ' style='stroke-width: 1.07; stroke-linecap: butt;' clip-path='url(#cpMzEuMTZ8Mzc0LjM0fDIwMC4yOHwyMy4xOQ==)' />
<polyline points='308.34,113.37 308.34,123.25 ' style='stroke-width: 1.07; stroke-linecap: butt;' clip-path='url(#cpMzEuMTZ8Mzc0LjM0fDIwMC4yOHwyMy4xOQ==)' />
<polyline points='306.58,123.25 310.10,123.25 ' style='stroke-width: 1.07; stroke-linecap: butt;' clip-path='url(#cpMzEuMTZ8Mzc0LjM0fDIwMC4yOHwyMy4xOQ==)' />
<polyline points='359.38,111.87 362.90,111.87 ' style='stroke-width: 1.07; stroke-linecap: butt;' clip-path='url(#cpMzEuMTZ8Mzc0LjM0fDIwMC4yOHwyMy4xOQ==)' />
<polyline points='361.14,111.87 361.14,120.80 ' style='stroke-width: 1.07; stroke-linecap: butt;' clip-path='url(#cpMzEuMTZ8Mzc0LjM0fDIwMC4yOHwyMy4xOQ==)' />
<polyline points='359.38,120.80 362.90,120.80 ' style='stroke-width: 1.07; stroke-linecap: butt;' clip-path='url(#cpMzEuMTZ8Mzc0LjM0fDIwMC4yOHwyMy4xOQ==)' />
<polyline points='42.60,111.78 46.12,111.78 ' style='stroke-width: 1.07; stroke-linecap: butt;' clip-path='url(#cpMzEuMTZ8Mzc0LjM0fDIwMC4yOHwyMy4xOQ==)' />
<polyline points='44.36,111.78 44.36,120.54 ' style='stroke-width: 1.07; stroke-linecap: butt;' clip-path='url(#cpMzEuMTZ8Mzc0LjM0fDIwMC4yOHwyMy4xOQ==)' />
<polyline points='42.60,120.54 46.12,120.54 ' style='stroke-width: 1.07; stroke-linecap: butt;' clip-path='url(#cpMzEuMTZ8Mzc0LjM0fDIwMC4yOHwyMy4xOQ==)' />
<polyline points='95.40,104.04 98.92,104.04 ' style='stroke-width: 1.07; stroke-linecap: butt;' clip-path='url(#cpMzEuMTZ8Mzc0LjM0fDIwMC4yOHwyMy4xOQ==)' />
<polyline points='97.16,104.04 97.16,112.40 ' style='stroke-width: 1.07; stroke-linecap: butt;' clip-path='url(#cpMzEuMTZ8Mzc0LjM0fDIwMC4yOHwyMy4xOQ==)' />
<polyline points='95.40,112.40 98.92,112.40 ' style='stroke-width: 1.07; stroke-linecap: butt;' clip-path='url(#cpMzEuMTZ8Mzc0LjM0fDIwMC4yOHwyMy4xOQ==)' />
<polyline points='200.99,113.52 204.51,113.52 ' style='stroke-width: 1.07; stroke-linecap: butt;' clip-path='url(#cpMzEuMTZ8Mzc0LjM0fDIwMC4yOHwyMy4xOQ==)' />
<polyline points='202.75,113.52 202.75,125.77 ' style='stroke-width: 1.07; stroke-linecap: butt;' clip-path='url(#cpMzEuMTZ8Mzc0LjM0fDIwMC4yOHwyMy4xOQ==)' />
<polyline points='200.99,125.77 204.51,125.77 ' style='stroke-width: 1.07; stroke-linecap: butt;' clip-path='url(#cpMzEuMTZ8Mzc0LjM0fDIwMC4yOHwyMy4xOQ==)' />
<polyline points='121.80,101.03 125.32,101.03 ' style='stroke-width: 1.07; stroke-linecap: butt;' clip-path='url(#cpMzEuMTZ8Mzc0LjM0fDIwMC4yOHwyMy4xOQ==)' />
<polyline points='123.56,101.03 123.56,112.84 ' style='stroke-width: 1.07; stroke-linecap: butt;' clip-path='url(#cpMzEuMTZ8Mzc0LjM0fDIwMC4yOHwyMy4xOQ==)' />
<polyline points='121.80,112.84 125.32,112.84 ' style='stroke-width: 1.07; stroke-linecap: butt;' clip-path='url(#cpMzEuMTZ8Mzc0LjM0fDIwMC4yOHwyMy4xOQ==)' />
<polyline points='174.59,112.10 178.11,112.10 ' style='stroke-width: 1.07; stroke-linecap: butt;' clip-path='url(#cpMzEuMTZ8Mzc0LjM0fDIwMC4yOHwyMy4xOQ==)' />
<polyline points='176.35,112.10 176.35,120.26 ' style='stroke-width: 1.07; stroke-linecap: butt;' clip-path='url(#cpMzEuMTZ8Mzc0LjM0fDIwMC4yOHwyMy4xOQ==)' />
<polyline points='174.59,120.26 178.11,120.26 ' style='stroke-width: 1.07; stroke-linecap: butt;' clip-path='url(#cpMzEuMTZ8Mzc0LjM0fDIwMC4yOHwyMy4xOQ==)' />
<polyline points='287.23,130.47 290.75,130.47 ' style='stroke-width: 1.07; stroke-linecap: butt;' clip-path='url(#cpMzEuMTZ8Mzc0LjM0fDIwMC4yOHwyMy4xOQ==)' />
<polyline points='288.99,130.47 288.99,136.43 ' style='stroke-width: 1.07; stroke-linecap: butt;' clip-path='url(#cpMzEuMTZ8Mzc0LjM0fDIwMC4yOHwyMy4xOQ==)' />
<polyline points='287.23,136.43 290.75,136.43 ' style='stroke-width: 1.07; stroke-linecap: butt;' clip-path='url(#cpMzEuMTZ8Mzc0LjM0fDIwMC4yOHwyMy4xOQ==)' />
<polyline points='340.02,138.79 343.54,138.79 ' style='stroke-width: 1.07; stroke-linecap: butt;' clip-path='url(#cpMzEuMTZ8Mzc0LjM0fDIwMC4yOHwyMy4xOQ==)' />
<polyline points='341.78,138.79 341.78,149.31 ' style='stroke-width: 1.07; stroke-linecap: butt;' clip-path='url(#cpMzEuMTZ8Mzc0LjM0fDIwMC4yOHwyMy4xOQ==)' />
<polyline points='340.02,149.31 343.54,149.31 ' style='stroke-width: 1.07; stroke-linecap: butt;' clip-path='url(#cpMzEuMTZ8Mzc0LjM0fDIwMC4yOHwyMy4xOQ==)' />
<polyline points='76.04,108.79 79.56,108.79 ' style='stroke-width: 1.07; stroke-linecap: butt;' clip-path='url(#cpMzEuMTZ8Mzc0LjM0fDIwMC4yOHwyMy4xOQ==)' />
<polyline points='77.80,108.79 77.80,114.22 ' style='stroke-width: 1.07; stroke-linecap: butt;' clip-path='url(#cpMzEuMTZ8Mzc0LjM0fDIwMC4yOHwyMy4xOQ==)' />
<polyline points='76.04,114.22 79.56,114.22 ' style='stroke-width: 1.07; stroke-linecap: butt;' clip-path='url(#cpMzEuMTZ8Mzc0LjM0fDIwMC4yOHwyMy4xOQ==)' />
<polyline points='260.83,128.78 264.35,128.78 ' style='stroke-width: 1.07; stroke-linecap: butt;' clip-path='url(#cpMzEuMTZ8Mzc0LjM0fDIwMC4yOHwyMy4xOQ==)' />
<polyline points='262.59,128.78 262.59,138.96 ' style='stroke-width: 1.07; stroke-linecap: butt;' clip-path='url(#cpMzEuMTZ8Mzc0LjM0fDIwMC4yOHwyMy4xOQ==)' />
<polyline points='260.83,138.96 264.35,138.96 ' style='stroke-width: 1.07; stroke-linecap: butt;' clip-path='url(#cpMzEuMTZ8Mzc0LjM0fDIwMC4yOHwyMy4xOQ==)' />
<polyline points='234.43,122.50 237.95,122.50 ' style='stroke-width: 1.07; stroke-linecap: butt;' clip-path='url(#cpMzEuMTZ8Mzc0LjM0fDIwMC4yOHwyMy4xOQ==)' />
<polyline points='236.19,122.50 236.19,131.29 ' style='stroke-width: 1.07; stroke-linecap: butt;' clip-path='url(#cpMzEuMTZ8Mzc0LjM0fDIwMC4yOHwyMy4xOQ==)' />
<polyline points='234.43,131.29 237.95,131.29 ' style='stroke-width: 1.07; stroke-linecap: butt;' clip-path='url(#cpMzEuMTZ8Mzc0LjM0fDIwMC4yOHwyMy4xOQ==)' />
<polyline points='155.24,120.66 158.76,120.66 ' style='stroke-width: 1.07; stroke-linecap: butt;' clip-path='url(#cpMzEuMTZ8Mzc0LjM0fDIwMC4yOHwyMy4xOQ==)' />
<polyline points='157.00,120.66 157.00,131.34 ' style='stroke-width: 1.07; stroke-linecap: butt;' clip-path='url(#cpMzEuMTZ8Mzc0LjM0fDIwMC4yOHwyMy4xOQ==)' />
<polyline points='155.24,131.34 158.76,131.34 ' style='stroke-width: 1.07; stroke-linecap: butt;' clip-path='url(#cpMzEuMTZ8Mzc0LjM0fDIwMC4yOHwyMy4xOQ==)' />
<polyline points='313.62,133.81 317.14,133.81 ' style='stroke-width: 1.07; stroke-linecap: butt;' clip-path='url(#cpMzEuMTZ8Mzc0LjM0fDIwMC4yOHwyMy4xOQ==)' />
<polyline points='315.38,133.81 315.38,143.72 ' style='stroke-width: 1.07; stroke-linecap: butt;' clip-path='url(#cpMzEuMTZ8Mzc0LjM0fDIwMC4yOHwyMy4xOQ==)' />
<polyline points='313.62,143.72 317.14,143.72 ' style='stroke-width: 1.07; stroke-linecap: butt;' clip-path='url(#cpMzEuMTZ8Mzc0LjM0fDIwMC4yOHwyMy4xOQ==)' />
<polyline points='366.42,175.81 369.94,175.81 ' style='stroke-width: 1.07; stroke-linecap: butt;' clip-path='url(#cpMzEuMTZ8Mzc0LjM0fDIwMC4yOHwyMy4xOQ==)' />
<polyline points='368.18,175.81 368.18,184.91 ' style='stroke-width: 1.07; stroke-linecap: butt;' clip-path='url(#cpMzEuMTZ8Mzc0LjM0fDIwMC4yOHwyMy4xOQ==)' />
<polyline points='366.42,184.91 369.94,184.91 ' style='stroke-width: 1.07; stroke-linecap: butt;' clip-path='url(#cpMzEuMTZ8Mzc0LjM0fDIwMC4yOHwyMy4xOQ==)' />
<polyline points='49.64,103.72 53.16,103.72 ' style='stroke-width: 1.07; stroke-linecap: butt;' clip-path='url(#cpMzEuMTZ8Mzc0LjM0fDIwMC4yOHwyMy4xOQ==)' />
<polyline points='51.40,103.72 51.40,112.48 ' style='stroke-width: 1.07; stroke-linecap: butt;' clip-path='url(#cpMzEuMTZ8Mzc0LjM0fDIwMC4yOHwyMy4xOQ==)' />
<polyline points='49.64,112.48 53.16,112.48 ' style='stroke-width: 1.07; stroke-linecap: butt;' clip-path='url(#cpMzEuMTZ8Mzc0LjM0fDIwMC4yOHwyMy4xOQ==)' />
<polyline points='102.44,104.34 105.96,104.34 ' style='stroke-width: 1.07; stroke-linecap: butt;' clip-path='url(#cpMzEuMTZ8Mzc0LjM0fDIwMC4yOHwyMy4xOQ==)' />
<polyline points='104.20,104.34 104.20,112.71 ' style='stroke-width: 1.07; stroke-linecap: butt;' clip-path='url(#cpMzEuMTZ8Mzc0LjM0fDIwMC4yOHwyMy4xOQ==)' />
<polyline points='102.44,112.71 105.96,112.71 ' style='stroke-width: 1.07; stroke-linecap: butt;' clip-path='url(#cpMzEuMTZ8Mzc0LjM0fDIwMC4yOHwyMy4xOQ==)' />
<polyline points='208.03,113.88 211.55,113.88 ' style='stroke-width: 1.07; stroke-linecap: butt;' clip-path='url(#cpMzEuMTZ8Mzc0LjM0fDIwMC4yOHwyMy4xOQ==)' />
<polyline points='209.79,113.88 209.79,126.13 ' style='stroke-width: 1.07; stroke-linecap: butt;' clip-path='url(#cpMzEuMTZ8Mzc0LjM0fDIwMC4yOHwyMy4xOQ==)' />
<polyline points='208.03,126.13 211.55,126.13 ' style='stroke-width: 1.07; stroke-linecap: butt;' clip-path='url(#cpMzEuMTZ8Mzc0LjM0fDIwMC4yOHwyMy4xOQ==)' />
<polyline points='128.84,108.86 132.36,108.86 ' style='stroke-width: 1.07; stroke-linecap: butt;' clip-path='url(#cpMzEuMTZ8Mzc0LjM0fDIwMC4yOHwyMy4xOQ==)' />
<polyline points='130.60,108.86 130.60,120.69 ' style='stroke-width: 1.07; stroke-linecap: butt;' clip-path='url(#cpMzEuMTZ8Mzc0LjM0fDIwMC4yOHwyMy4xOQ==)' />
<polyline points='128.84,120.69 132.36,120.69 ' style='stroke-width: 1.07; stroke-linecap: butt;' clip-path='url(#cpMzEuMTZ8Mzc0LjM0fDIwMC4yOHwyMy4xOQ==)' />
<polyline points='181.63,123.17 185.15,123.17 ' style='stroke-width: 1.07; stroke-linecap: butt;' clip-path='url(#cpMzEuMTZ8Mzc0LjM0fDIwMC4yOHwyMy4xOQ==)' />
<polyline points='183.39,123.17 183.39,131.36 ' style='stroke-width: 1.07; stroke-linecap: butt;' clip-path='url(#cpMzEuMTZ8Mzc0LjM0fDIwMC4yOHwyMy4xOQ==)' />
<polyline points='181.63,131.36 185.15,131.36 ' style='stroke-width: 1.07; stroke-linecap: butt;' clip-path='url(#cpMzEuMTZ8Mzc0LjM0fDIwMC4yOHwyMy4xOQ==)' />
<g clip-path='url(#cpMzEuMTZ8Mzc0LjM0fDIwMC4yOHwyMy4xOQ==)'><text x='272.40' y='127.47' style='font-size: 18.02px; font-family: Arial;' textLength='5.01px' lengthAdjust='spacingAndGlyphs'> </text></g>
<g clip-path='url(#cpMzEuMTZ8Mzc0LjM0fDIwMC4yOHwyMy4xOQ==)'><text x='324.20' y='153.24' style='font-size: 18.02px; font-family: Arial;' textLength='7.01px' lengthAdjust='spacingAndGlyphs'>*</text></g>
<g clip-path='url(#cpMzEuMTZ8Mzc0LjM0fDIwMC4yOHwyMy4xOQ==)'><text x='60.22' y='138.11' style='font-size: 18.02px; font-family: Arial;' textLength='7.01px' lengthAdjust='spacingAndGlyphs'>*</text></g>
<g clip-path='url(#cpMzEuMTZ8Mzc0LjM0fDIwMC4yOHwyMy4xOQ==)'><text x='246.01' y='132.01' style='font-size: 18.02px; font-family: Arial;' textLength='5.01px' lengthAdjust='spacingAndGlyphs'> </text></g>
<g clip-path='url(#cpMzEuMTZ8Mzc0LjM0fDIwMC4yOHwyMy4xOQ==)'><text x='218.61' y='149.51' style='font-size: 18.02px; font-family: Arial;' textLength='7.01px' lengthAdjust='spacingAndGlyphs'>*</text></g>
<g clip-path='url(#cpMzEuMTZ8Mzc0LjM0fDIwMC4yOHwyMy4xOQ==)'><text x='140.41' y='125.30' style='font-size: 18.02px; font-family: Arial;' textLength='5.01px' lengthAdjust='spacingAndGlyphs'> </text></g>
<g clip-path='url(#cpMzEuMTZ8Mzc0LjM0fDIwMC4yOHwyMy4xOQ==)'><text x='297.80' y='144.70' style='font-size: 18.02px; font-family: Arial;' textLength='7.01px' lengthAdjust='spacingAndGlyphs'>*</text></g>
<g clip-path='url(#cpMzEuMTZ8Mzc0LjM0fDIwMC4yOHwyMy4xOQ==)'><text x='350.60' y='144.08' style='font-size: 18.02px; font-family: Arial;' textLength='7.01px' lengthAdjust='spacingAndGlyphs'>*</text></g>
<g clip-path='url(#cpMzEuMTZ8Mzc0LjM0fDIwMC4yOHwyMy4xOQ==)'><text x='34.82' y='132.00' style='font-size: 18.02px; font-family: Arial;' textLength='5.01px' lengthAdjust='spacingAndGlyphs'> </text></g>
<g clip-path='url(#cpMzEuMTZ8Mzc0LjM0fDIwMC4yOHwyMy4xOQ==)'><text x='87.62' y='122.34' style='font-size: 18.02px; font-family: Arial;' textLength='5.01px' lengthAdjust='spacingAndGlyphs'> </text></g>
<g clip-path='url(#cpMzEuMTZ8Mzc0LjM0fDIwMC4yOHwyMy4xOQ==)'><text x='193.21' y='92.37' style='font-size: 18.02px; font-family: Arial;' textLength='5.01px' lengthAdjust='spacingAndGlyphs'> </text></g>
<g clip-path='url(#cpMzEuMTZ8Mzc0LjM0fDIwMC4yOHwyMy4xOQ==)'><text x='114.02' y='94.28' style='font-size: 18.02px; font-family: Arial;' textLength='5.01px' lengthAdjust='spacingAndGlyphs'> </text></g>
<g clip-path='url(#cpMzEuMTZ8Mzc0LjM0fDIwMC4yOHwyMy4xOQ==)'><text x='166.81' y='123.14' style='font-size: 18.02px; font-family: Arial;' textLength='5.01px' lengthAdjust='spacingAndGlyphs'> </text></g>
<g clip-path='url(#cpMzEuMTZ8Mzc0LjM0fDIwMC4yOHwyMy4xOQ==)'><text x='279.44' y='122.36' style='font-size: 18.02px; font-family: Arial;' textLength='5.01px' lengthAdjust='spacingAndGlyphs'> </text></g>
<g clip-path='url(#cpMzEuMTZ8Mzc0LjM0fDIwMC4yOHwyMy4xOQ==)'><text x='331.24' y='177.59' style='font-size: 18.02px; font-family: Arial;' textLength='7.01px' lengthAdjust='spacingAndGlyphs'>*</text></g>
<g clip-path='url(#cpMzEuMTZ8Mzc0LjM0fDIwMC4yOHwyMy4xOQ==)'><text x='67.26' y='139.07' style='font-size: 18.02px; font-family: Arial;' textLength='7.01px' lengthAdjust='spacingAndGlyphs'>*</text></g>
<g clip-path='url(#cpMzEuMTZ8Mzc0LjM0fDIwMC4yOHwyMy4xOQ==)'><text x='252.04' y='151.37' style='font-size: 18.02px; font-family: Arial;' textLength='7.01px' lengthAdjust='spacingAndGlyphs'>*</text></g>
<g clip-path='url(#cpMzEuMTZ8Mzc0LjM0fDIwMC4yOHwyMy4xOQ==)'><text x='225.64' y='146.38' style='font-size: 18.02px; font-family: Arial;' textLength='7.01px' lengthAdjust='spacingAndGlyphs'>*</text></g>
<g clip-path='url(#cpMzEuMTZ8Mzc0LjM0fDIwMC4yOHwyMy4xOQ==)'><text x='147.45' y='130.21' style='font-size: 18.02px; font-family: Arial;' textLength='5.01px' lengthAdjust='spacingAndGlyphs'> </text></g>
<g clip-path='url(#cpMzEuMTZ8Mzc0LjM0fDIwMC4yOHwyMy4xOQ==)'><text x='305.84' y='128.89' style='font-size: 18.02px; font-family: Arial;' textLength='5.01px' lengthAdjust='spacingAndGlyphs'> </text></g>
<g clip-path='url(#cpMzEuMTZ8Mzc0LjM0fDIwMC4yOHwyMy4xOQ==)'><text x='358.64' y='126.43' style='font-size: 18.02px; font-family: Arial;' textLength='5.01px' lengthAdjust='spacingAndGlyphs'> </text></g>
<g clip-path='url(#cpMzEuMTZ8Mzc0LjM0fDIwMC4yOHwyMy4xOQ==)'><text x='41.86' y='126.18' style='font-size: 18.02px; font-family: Arial;' textLength='5.01px' lengthAdjust='spacingAndGlyphs'> </text></g>
<g clip-path='url(#cpMzEuMTZ8Mzc0LjM0fDIwMC4yOHwyMy4xOQ==)'><text x='94.66' y='98.40' style='font-size: 18.02px; font-family: Arial;' textLength='5.01px' lengthAdjust='spacingAndGlyphs'> </text></g>
<g clip-path='url(#cpMzEuMTZ8Mzc0LjM0fDIwMC4yOHwyMy4xOQ==)'><text x='200.25' y='131.41' style='font-size: 18.02px; font-family: Arial;' textLength='5.01px' lengthAdjust='spacingAndGlyphs'> </text></g>
<g clip-path='url(#cpMzEuMTZ8Mzc0LjM0fDIwMC4yOHwyMy4xOQ==)'><text x='121.05' y='95.40' style='font-size: 18.02px; font-family: Arial;' textLength='5.01px' lengthAdjust='spacingAndGlyphs'> </text></g>
<g clip-path='url(#cpMzEuMTZ8Mzc0LjM0fDIwMC4yOHwyMy4xOQ==)'><text x='173.85' y='125.90' style='font-size: 18.02px; font-family: Arial;' textLength='5.01px' lengthAdjust='spacingAndGlyphs'> </text></g>
<g clip-path='url(#cpMzEuMTZ8Mzc0LjM0fDIwMC4yOHwyMy4xOQ==)'><text x='285.48' y='152.44' style='font-size: 18.02px; font-family: Arial;' textLength='7.01px' lengthAdjust='spacingAndGlyphs'>*</text></g>
<g clip-path='url(#cpMzEuMTZ8Mzc0LjM0fDIwMC4yOHwyMy4xOQ==)'><text x='338.28' y='165.32' style='font-size: 18.02px; font-family: Arial;' textLength='7.01px' lengthAdjust='spacingAndGlyphs'>*</text></g>
<g clip-path='url(#cpMzEuMTZ8Mzc0LjM0fDIwMC4yOHwyMy4xOQ==)'><text x='75.30' y='103.15' style='font-size: 18.02px; font-family: Arial;' textLength='5.01px' lengthAdjust='spacingAndGlyphs'> </text></g>
<g clip-path='url(#cpMzEuMTZ8Mzc0LjM0fDIwMC4yOHwyMy4xOQ==)'><text x='259.08' y='154.97' style='font-size: 18.02px; font-family: Arial;' textLength='7.01px' lengthAdjust='spacingAndGlyphs'>*</text></g>
<g clip-path='url(#cpMzEuMTZ8Mzc0LjM0fDIwMC4yOHwyMy4xOQ==)'><text x='232.68' y='147.29' style='font-size: 18.02px; font-family: Arial;' textLength='7.01px' lengthAdjust='spacingAndGlyphs'>*</text></g>
<g clip-path='url(#cpMzEuMTZ8Mzc0LjM0fDIwMC4yOHwyMy4xOQ==)'><text x='153.49' y='147.35' style='font-size: 18.02px; font-family: Arial;' textLength='7.01px' lengthAdjust='spacingAndGlyphs'>*</text></g>
<g clip-path='url(#cpMzEuMTZ8Mzc0LjM0fDIwMC4yOHwyMy4xOQ==)'><text x='311.88' y='159.72' style='font-size: 18.02px; font-family: Arial;' textLength='7.01px' lengthAdjust='spacingAndGlyphs'>*</text></g>
<g clip-path='url(#cpMzEuMTZ8Mzc0LjM0fDIwMC4yOHwyMy4xOQ==)'><text x='364.67' y='200.92' style='font-size: 18.02px; font-family: Arial;' textLength='7.01px' lengthAdjust='spacingAndGlyphs'>*</text></g>
<g clip-path='url(#cpMzEuMTZ8Mzc0LjM0fDIwMC4yOHwyMy4xOQ==)'><text x='48.90' y='98.08' style='font-size: 18.02px; font-family: Arial;' textLength='5.01px' lengthAdjust='spacingAndGlyphs'> </text></g>
<g clip-path='url(#cpMzEuMTZ8Mzc0LjM0fDIwMC4yOHwyMy4xOQ==)'><text x='101.70' y='98.70' style='font-size: 18.02px; font-family: Arial;' textLength='5.01px' lengthAdjust='spacingAndGlyphs'> </text></g>
<g clip-path='url(#cpMzEuMTZ8Mzc0LjM0fDIwMC4yOHwyMy4xOQ==)'><text x='207.29' y='131.76' style='font-size: 18.02px; font-family: Arial;' textLength='5.01px' lengthAdjust='spacingAndGlyphs'> </text></g>
<g clip-path='url(#cpMzEuMTZ8Mzc0LjM0fDIwMC4yOHwyMy4xOQ==)'><text x='128.09' y='126.33' style='font-size: 18.02px; font-family: Arial;' textLength='5.01px' lengthAdjust='spacingAndGlyphs'> </text></g>
<g clip-path='url(#cpMzEuMTZ8Mzc0LjM0fDIwMC4yOHwyMy4xOQ==)'><text x='179.89' y='147.36' style='font-size: 18.02px; font-family: Arial;' textLength='7.01px' lengthAdjust='spacingAndGlyphs'>*</text></g>
<defs>
  <clipPath id='cpMC4wMHw0NDAuNjR8MjU5LjIwfDAuMDA='>
    <rect x='0.00' y='0.00' width='440.64' height='259.20' />
  </clipPath>
</defs>
<polyline points='31.16,200.28 31.16,23.19 ' style='stroke-width: 1.07; stroke-linecap: butt;' clip-path='url(#cpMC4wMHw0NDAuNjR8MjU5LjIwfDAuMDA=)' />
<g clip-path='url(#cpMC4wMHw0NDAuNjR8MjU5LjIwfDAuMDA=)'><text x='18.41' y='199.73' style='font-size: 8.80px; fill: #4D4D4D; font-family: Arial;' textLength='7.82px' lengthAdjust='spacingAndGlyphs'>-4</text></g>
<g clip-path='url(#cpMC4wMHw0NDAuNjR8MjU5LjIwfDAuMDA=)'><text x='18.41' y='157.31' style='font-size: 8.80px; fill: #4D4D4D; font-family: Arial;' textLength='7.82px' lengthAdjust='spacingAndGlyphs'>-2</text></g>
<g clip-path='url(#cpMC4wMHw0NDAuNjR8MjU5LjIwfDAuMDA=)'><text x='21.34' y='114.88' style='font-size: 8.80px; fill: #4D4D4D; font-family: Arial;' textLength='4.89px' lengthAdjust='spacingAndGlyphs'>0</text></g>
<g clip-path='url(#cpMC4wMHw0NDAuNjR8MjU5LjIwfDAuMDA=)'><text x='21.34' y='72.46' style='font-size: 8.80px; fill: #4D4D4D; font-family: Arial;' textLength='4.89px' lengthAdjust='spacingAndGlyphs'>2</text></g>
<g clip-path='url(#cpMC4wMHw0NDAuNjR8MjU5LjIwfDAuMDA=)'><text x='21.34' y='30.03' style='font-size: 8.80px; fill: #4D4D4D; font-family: Arial;' textLength='4.89px' lengthAdjust='spacingAndGlyphs'>4</text></g>
<polyline points='28.42,196.58 31.16,196.58 ' style='stroke-width: 1.07; stroke: #333333; stroke-linecap: butt;' clip-path='url(#cpMC4wMHw0NDAuNjR8MjU5LjIwfDAuMDA=)' />
<polyline points='28.42,154.16 31.16,154.16 ' style='stroke-width: 1.07; stroke: #333333; stroke-linecap: butt;' clip-path='url(#cpMC4wMHw0NDAuNjR8MjU5LjIwfDAuMDA=)' />
<polyline points='28.42,111.73 31.16,111.73 ' style='stroke-width: 1.07; stroke: #333333; stroke-linecap: butt;' clip-path='url(#cpMC4wMHw0NDAuNjR8MjU5LjIwfDAuMDA=)' />
<polyline points='28.42,69.31 31.16,69.31 ' style='stroke-width: 1.07; stroke: #333333; stroke-linecap: butt;' clip-path='url(#cpMC4wMHw0NDAuNjR8MjU5LjIwfDAuMDA=)' />
<polyline points='28.42,26.88 31.16,26.88 ' style='stroke-width: 1.07; stroke: #333333; stroke-linecap: butt;' clip-path='url(#cpMC4wMHw0NDAuNjR8MjU5LjIwfDAuMDA=)' />
<polyline points='31.16,200.28 374.34,200.28 ' style='stroke-width: 1.07; stroke-linecap: butt;' clip-path='url(#cpMC4wMHw0NDAuNjR8MjU5LjIwfDAuMDA=)' />
<polyline points='44.36,203.02 44.36,200.28 ' style='stroke-width: 1.07; stroke: #333333; stroke-linecap: butt;' clip-path='url(#cpMC4wMHw0NDAuNjR8MjU5LjIwfDAuMDA=)' />
<polyline points='70.76,203.02 70.76,200.28 ' style='stroke-width: 1.07; stroke: #333333; stroke-linecap: butt;' clip-path='url(#cpMC4wMHw0NDAuNjR8MjU5LjIwfDAuMDA=)' />
<polyline points='97.16,203.02 97.16,200.28 ' style='stroke-width: 1.07; stroke: #333333; stroke-linecap: butt;' clip-path='url(#cpMC4wMHw0NDAuNjR8MjU5LjIwfDAuMDA=)' />
<polyline points='123.56,203.02 123.56,200.28 ' style='stroke-width: 1.07; stroke: #333333; stroke-linecap: butt;' clip-path='url(#cpMC4wMHw0NDAuNjR8MjU5LjIwfDAuMDA=)' />
<polyline points='149.96,203.02 149.96,200.28 ' style='stroke-width: 1.07; stroke: #333333; stroke-linecap: butt;' clip-path='url(#cpMC4wMHw0NDAuNjR8MjU5LjIwfDAuMDA=)' />
<polyline points='176.35,203.02 176.35,200.28 ' style='stroke-width: 1.07; stroke: #333333; stroke-linecap: butt;' clip-path='url(#cpMC4wMHw0NDAuNjR8MjU5LjIwfDAuMDA=)' />
<polyline points='202.75,203.02 202.75,200.28 ' style='stroke-width: 1.07; stroke: #333333; stroke-linecap: butt;' clip-path='url(#cpMC4wMHw0NDAuNjR8MjU5LjIwfDAuMDA=)' />
<polyline points='229.15,203.02 229.15,200.28 ' style='stroke-width: 1.07; stroke: #333333; stroke-linecap: butt;' clip-path='url(#cpMC4wMHw0NDAuNjR8MjU5LjIwfDAuMDA=)' />
<polyline points='255.55,203.02 255.55,200.28 ' style='stroke-width: 1.07; stroke: #333333; stroke-linecap: butt;' clip-path='url(#cpMC4wMHw0NDAuNjR8MjU5LjIwfDAuMDA=)' />
<polyline points='281.95,203.02 281.95,200.28 ' style='stroke-width: 1.07; stroke: #333333; stroke-linecap: butt;' clip-path='url(#cpMC4wMHw0NDAuNjR8MjU5LjIwfDAuMDA=)' />
<polyline points='308.34,203.02 308.34,200.28 ' style='stroke-width: 1.07; stroke: #333333; stroke-linecap: butt;' clip-path='url(#cpMC4wMHw0NDAuNjR8MjU5LjIwfDAuMDA=)' />
<polyline points='334.74,203.02 334.74,200.28 ' style='stroke-width: 1.07; stroke: #333333; stroke-linecap: butt;' clip-path='url(#cpMC4wMHw0NDAuNjR8MjU5LjIwfDAuMDA=)' />
<polyline points='361.14,203.02 361.14,200.28 ' style='stroke-width: 1.07; stroke: #333333; stroke-linecap: butt;' clip-path='url(#cpMC4wMHw0NDAuNjR8MjU5LjIwfDAuMDA=)' />
<g clip-path='url(#cpMC4wMHw0NDAuNjR8MjU5LjIwfDAuMDA=)'><text transform='translate(33.47,227.99) rotate(-50)' style='font-size: 8.80px; fill: #4D4D4D; font-family: Arial;' textLength='24.45px' lengthAdjust='spacingAndGlyphs'>POLG</text></g>
<g clip-path='url(#cpMC4wMHw0NDAuNjR8MjU5LjIwfDAuMDA=)'><text transform='translate(53.90,235.11) rotate(-50)' style='font-size: 8.80px; fill: #4D4D4D; font-family: Arial;' textLength='33.74px' lengthAdjust='spacingAndGlyphs'>DNAJA3</text></g>
<g clip-path='url(#cpMC4wMHw0NDAuNjR8MjU5LjIwfDAuMDA=)'><text transform='translate(76.53,239.60) rotate(-50)' style='font-size: 8.80px; fill: #4D4D4D; font-family: Arial;' textLength='39.61px' lengthAdjust='spacingAndGlyphs'>PRIMPOL</text></g>
<g clip-path='url(#cpMC4wMHw0NDAuNjR8MjU5LjIwfDAuMDA=)'><text transform='translate(113.61,226.87) rotate(-50)' style='font-size: 8.80px; fill: #4D4D4D; font-family: Arial;' textLength='22.98px' lengthAdjust='spacingAndGlyphs'>ATG7</text></g>
<g clip-path='url(#cpMC4wMHw0NDAuNjR8MjU5LjIwfDAuMDA=)'><text transform='translate(139.39,227.61) rotate(-50)' style='font-size: 8.80px; fill: #4D4D4D; font-family: Arial;' textLength='23.95px' lengthAdjust='spacingAndGlyphs'>TFAM</text></g>
<g clip-path='url(#cpMC4wMHw0NDAuNjR8MjU5LjIwfDAuMDA=)'><text transform='translate(162.32,231.74) rotate(-50)' style='font-size: 8.80px; fill: #4D4D4D; font-family: Arial;' textLength='29.35px' lengthAdjust='spacingAndGlyphs'>POLG2</text></g>
<g clip-path='url(#cpMC4wMHw0NDAuNjR8MjU5LjIwfDAuMDA=)'><text transform='translate(184.95,236.23) rotate(-50)' style='font-size: 8.80px; fill: #4D4D4D; font-family: Arial;' textLength='35.21px' lengthAdjust='spacingAndGlyphs'>STOML2</text></g>
<g clip-path='url(#cpMC4wMHw0NDAuNjR8MjU5LjIwfDAuMDA=)'><text transform='translate(217.32,229.10) rotate(-50)' style='font-size: 8.80px; fill: #4D4D4D; font-family: Arial;' textLength='25.91px' lengthAdjust='spacingAndGlyphs'>TWNK</text></g>
<g clip-path='url(#cpMC4wMHw0NDAuNjR8MjU5LjIwfDAuMDA=)'><text transform='translate(242.14,230.99) rotate(-50)' style='font-size: 8.80px; fill: #4D4D4D; font-family: Arial;' textLength='28.37px' lengthAdjust='spacingAndGlyphs'>SSBP1</text></g>
<g clip-path='url(#cpMC4wMHw0NDAuNjR8MjU5LjIwfDAuMDA=)'><text transform='translate(274.51,223.87) rotate(-50)' style='font-size: 8.80px; fill: #4D4D4D; font-family: Arial;' textLength='19.08px' lengthAdjust='spacingAndGlyphs'>LIG3</text></g>
<g clip-path='url(#cpMC4wMHw0NDAuNjR8MjU5LjIwfDAuMDA=)'><text transform='translate(292.43,233.98) rotate(-50)' style='font-size: 8.80px; fill: #4D4D4D; font-family: Arial;' textLength='32.27px' lengthAdjust='spacingAndGlyphs'>MGME1</text></g>
<g clip-path='url(#cpMC4wMHw0NDAuNjR8MjU5LjIwfDAuMDA=)'><text transform='translate(319.77,232.86) rotate(-50)' style='font-size: 8.80px; fill: #4D4D4D; font-family: Arial;' textLength='30.80px' lengthAdjust='spacingAndGlyphs'>RRM2B</text></g>
<g clip-path='url(#cpMC4wMHw0NDAuNjR8MjU5LjIwfDAuMDA=)'><text transform='translate(350.88,227.24) rotate(-50)' style='font-size: 8.80px; fill: #4D4D4D; font-family: Arial;' textLength='23.47px' lengthAdjust='spacingAndGlyphs'>DNA2</text></g>
<g clip-path='url(#cpMC4wMHw0NDAuNjR8MjU5LjIwfDAuMDA=)'><text transform='translate(13.35,189.08) rotate(-90)' style='font-size: 11.00px; font-family: Arial;' textLength='154.70px' lengthAdjust='spacingAndGlyphs'>log2 Fold Change relative to D0</text></g>
<rect x='385.30' y='72.50' width='49.86' height='78.47' style='stroke-width: 1.07; stroke: none; fill: #FFFFFF;' clip-path='url(#cpMC4wMHw0NDAuNjR8MjU5LjIwfDAuMDA=)' />
<g clip-path='url(#cpMC4wMHw0NDAuNjR8MjU5LjIwfDAuMDA=)'><text x='390.78' y='87.01' style='font-size: 11.00px; font-family: Arial;' textLength='17.74px' lengthAdjust='spacingAndGlyphs'>day</text></g>
<rect x='391.49' y='94.36' width='15.86' height='15.86' style='stroke-width: 1.07; stroke: none; stroke-linecap: square; stroke-linejoin: miter; fill: #FFADD9;' clip-path='url(#cpMC4wMHw0NDAuNjR8MjU5LjIwfDAuMDA=)' />
<rect x='391.49' y='111.64' width='15.86' height='15.86' style='stroke-width: 1.07; stroke: none; stroke-linecap: square; stroke-linejoin: miter; fill: #C73C95;' clip-path='url(#cpMC4wMHw0NDAuNjR8MjU5LjIwfDAuMDA=)' />
<rect x='391.49' y='128.92' width='15.86' height='15.86' style='stroke-width: 1.07; stroke: none; stroke-linecap: square; stroke-linejoin: miter; fill: #7C1E5B;' clip-path='url(#cpMC4wMHw0NDAuNjR8MjU5LjIwfDAuMDA=)' />
<g clip-path='url(#cpMC4wMHw0NDAuNjR8MjU5LjIwfDAuMDA=)'><text x='413.54' y='105.44' style='font-size: 8.80px; font-family: Arial;' textLength='11.25px' lengthAdjust='spacingAndGlyphs'>D2</text></g>
<g clip-path='url(#cpMC4wMHw0NDAuNjR8MjU5LjIwfDAuMDA=)'><text x='413.54' y='122.72' style='font-size: 8.80px; font-family: Arial;' textLength='11.25px' lengthAdjust='spacingAndGlyphs'>D5</text></g>
<g clip-path='url(#cpMC4wMHw0NDAuNjR8MjU5LjIwfDAuMDA=)'><text x='413.54' y='140.00' style='font-size: 8.80px; font-family: Arial;' textLength='16.14px' lengthAdjust='spacingAndGlyphs'>D15</text></g>
<g clip-path='url(#cpMC4wMHw0NDAuNjR8MjU5LjIwfDAuMDA=)'><text x='31.16' y='14.93' style='font-size: 13.20px; font-family: Arial;' textLength='175.38px' lengthAdjust='spacingAndGlyphs'>mitochondrial_dna_replication</text></g>
</svg>
