<?xml version='1.0' encoding='UTF-8' ?>
<svg xmlns='http://www.w3.org/2000/svg' xmlns:xlink='http://www.w3.org/1999/xlink' class='svglite' width='699.84pt' height='259.20pt' viewBox='0 0 699.84 259.20'>
<defs>
  <style type='text/css'><![CDATA[
    .svglite line, .svglite polyline, .svglite polygon, .svglite path, .svglite rect, .svglite circle {
      fill: none;
      stroke: #000000;
      stroke-linecap: round;
      stroke-linejoin: round;
      stroke-miterlimit: 10.00;
    }
  ]]></style>
</defs>
<rect width='100%' height='100%' style='stroke: none; fill: #FFFFFF;'/>
<defs>
  <clipPath id='cpMC4wMHw2OTkuODR8MC4wMHwyNTkuMjA='>
    <rect x='0.00' y='0.00' width='699.84' height='259.20' />
  </clipPath>
</defs>
<g clip-path='url(#cpMC4wMHw2OTkuODR8MC4wMHwyNTkuMjA=)'>
<rect x='0.00' y='0.00' width='699.84' height='259.20' style='stroke-width: 1.07; stroke: #FFFFFF; fill: #FFFFFF;' />
</g>
<defs>
  <clipPath id='cpMzIuMjN8NjMxLjcyfDIzLjMyfDIwMS40Mg=='>
    <rect x='32.23' y='23.32' width='599.49' height='178.10' />
  </clipPath>
</defs>
<g clip-path='url(#cpMzIuMjN8NjMxLjcyfDIzLjMyfDIwMS40Mg==)'>
<rect x='32.23' y='23.32' width='599.49' height='178.10' style='stroke-width: 1.07; stroke: none; fill: #FFFFFF;' />
<line x1='32.23' y1='112.37' x2='631.72' y2='112.37' style='stroke-width: 1.07; stroke: #333333; stroke-dasharray: 5.69,5.69; stroke-linecap: butt;' />
<rect x='86.97' y='112.37' width='10.43' height='4.05' style='stroke-width: 1.07; stroke: none; stroke-linecap: square; stroke-linejoin: miter; fill: #F4B8B4;' />
<rect x='34.84' y='110.46' width='10.43' height='1.90' style='stroke-width: 1.07; stroke: none; stroke-linecap: square; stroke-linejoin: miter; fill: #F4B8B4;' />
<rect x='113.03' y='112.37' width='10.43' height='10.51' style='stroke-width: 1.07; stroke: none; stroke-linecap: square; stroke-linejoin: miter; fill: #F4B8B4;' />
<rect x='191.23' y='112.37' width='10.43' height='5.37' style='stroke-width: 1.07; stroke: none; stroke-linecap: square; stroke-linejoin: miter; fill: #F4B8B4;' />
<rect x='399.74' y='110.73' width='10.43' height='1.64' style='stroke-width: 1.07; stroke: none; stroke-linecap: square; stroke-linejoin: miter; fill: #F4B8B4;' />
<rect x='243.35' y='112.37' width='10.43' height='26.02' style='stroke-width: 1.07; stroke: none; stroke-linecap: square; stroke-linejoin: miter; fill: #F4B8B4;' />
<rect x='165.16' y='112.37' width='10.43' height='11.49' style='stroke-width: 1.07; stroke: none; stroke-linecap: square; stroke-linejoin: miter; fill: #F4B8B4;' />
<rect x='608.26' y='112.37' width='10.43' height='12.24' style='stroke-width: 1.07; stroke: none; stroke-linecap: square; stroke-linejoin: miter; fill: #F4B8B4;' />
<rect x='321.55' y='112.37' width='10.43' height='4.19' style='stroke-width: 1.07; stroke: none; stroke-linecap: square; stroke-linejoin: miter; fill: #F4B8B4;' />
<rect x='582.20' y='92.16' width='10.43' height='20.21' style='stroke-width: 1.07; stroke: none; stroke-linecap: square; stroke-linejoin: miter; fill: #F4B8B4;' />
<rect x='60.90' y='112.37' width='10.43' height='7.25' style='stroke-width: 1.07; stroke: none; stroke-linecap: square; stroke-linejoin: miter; fill: #F4B8B4;' />
<rect x='373.68' y='112.37' width='10.43' height='6.86' style='stroke-width: 1.07; stroke: none; stroke-linecap: square; stroke-linejoin: miter; fill: #F4B8B4;' />
<rect x='477.94' y='112.37' width='10.43' height='22.83' style='stroke-width: 1.07; stroke: none; stroke-linecap: square; stroke-linejoin: miter; fill: #F4B8B4;' />
<rect x='425.81' y='105.97' width='10.43' height='6.40' style='stroke-width: 1.07; stroke: none; stroke-linecap: square; stroke-linejoin: miter; fill: #F4B8B4;' />
<rect x='556.13' y='112.37' width='10.43' height='5.55' style='stroke-width: 1.07; stroke: none; stroke-linecap: square; stroke-linejoin: miter; fill: #F4B8B4;' />
<rect x='269.42' y='112.37' width='10.43' height='4.73' style='stroke-width: 1.07; stroke: none; stroke-linecap: square; stroke-linejoin: miter; fill: #F4B8B4;' />
<rect x='295.48' y='112.37' width='10.43' height='6.66' style='stroke-width: 1.07; stroke: none; stroke-linecap: square; stroke-linejoin: miter; fill: #F4B8B4;' />
<rect x='139.10' y='112.37' width='10.43' height='14.95' style='stroke-width: 1.07; stroke: none; stroke-linecap: square; stroke-linejoin: miter; fill: #F4B8B4;' />
<rect x='504.00' y='97.45' width='10.43' height='14.91' style='stroke-width: 1.07; stroke: none; stroke-linecap: square; stroke-linejoin: miter; fill: #F4B8B4;' />
<rect x='347.61' y='111.54' width='10.43' height='0.82' style='stroke-width: 1.07; stroke: none; stroke-linecap: square; stroke-linejoin: miter; fill: #F4B8B4;' />
<rect x='530.07' y='77.47' width='10.43' height='34.90' style='stroke-width: 1.07; stroke: none; stroke-linecap: square; stroke-linejoin: miter; fill: #F4B8B4;' />
<rect x='451.87' y='112.37' width='10.43' height='8.06' style='stroke-width: 1.07; stroke: none; stroke-linecap: square; stroke-linejoin: miter; fill: #F4B8B4;' />
<rect x='217.29' y='112.37' width='10.43' height='7.95' style='stroke-width: 1.07; stroke: none; stroke-linecap: square; stroke-linejoin: miter; fill: #F4B8B4;' />
<rect x='97.39' y='109.91' width='10.43' height='2.46' style='stroke-width: 1.07; stroke: none; stroke-linecap: square; stroke-linejoin: miter; fill: #5E3F3C;' />
<rect x='45.26' y='100.10' width='10.43' height='12.27' style='stroke-width: 1.07; stroke: none; stroke-linecap: square; stroke-linejoin: miter; fill: #5E3F3C;' />
<rect x='123.46' y='112.37' width='10.43' height='15.98' style='stroke-width: 1.07; stroke: none; stroke-linecap: square; stroke-linejoin: miter; fill: #5E3F3C;' />
<rect x='201.65' y='112.37' width='10.43' height='5.39' style='stroke-width: 1.07; stroke: none; stroke-linecap: square; stroke-linejoin: miter; fill: #5E3F3C;' />
<rect x='410.17' y='92.73' width='10.43' height='19.64' style='stroke-width: 1.07; stroke: none; stroke-linecap: square; stroke-linejoin: miter; fill: #5E3F3C;' />
<rect x='253.78' y='112.37' width='10.43' height='24.59' style='stroke-width: 1.07; stroke: none; stroke-linecap: square; stroke-linejoin: miter; fill: #5E3F3C;' />
<rect x='175.59' y='112.37' width='10.43' height='3.88' style='stroke-width: 1.07; stroke: none; stroke-linecap: square; stroke-linejoin: miter; fill: #5E3F3C;' />
<rect x='618.69' y='112.37' width='10.43' height='0.26' style='stroke-width: 1.07; stroke: none; stroke-linecap: square; stroke-linejoin: miter; fill: #5E3F3C;' />
<rect x='331.97' y='88.41' width='10.43' height='23.96' style='stroke-width: 1.07; stroke: none; stroke-linecap: square; stroke-linejoin: miter; fill: #5E3F3C;' />
<rect x='592.62' y='84.96' width='10.43' height='27.41' style='stroke-width: 1.07; stroke: none; stroke-linecap: square; stroke-linejoin: miter; fill: #5E3F3C;' />
<rect x='71.33' y='102.70' width='10.43' height='9.66' style='stroke-width: 1.07; stroke: none; stroke-linecap: square; stroke-linejoin: miter; fill: #5E3F3C;' />
<rect x='384.10' y='112.37' width='10.43' height='2.01' style='stroke-width: 1.07; stroke: none; stroke-linecap: square; stroke-linejoin: miter; fill: #5E3F3C;' />
<rect x='488.36' y='82.18' width='10.43' height='30.19' style='stroke-width: 1.07; stroke: none; stroke-linecap: square; stroke-linejoin: miter; fill: #5E3F3C;' />
<rect x='436.23' y='112.37' width='10.43' height='1.36' style='stroke-width: 1.07; stroke: none; stroke-linecap: square; stroke-linejoin: miter; fill: #5E3F3C;' />
<rect x='566.56' y='112.37' width='10.43' height='5.80' style='stroke-width: 1.07; stroke: none; stroke-linecap: square; stroke-linejoin: miter; fill: #5E3F3C;' />
<rect x='279.85' y='110.44' width='10.43' height='1.93' style='stroke-width: 1.07; stroke: none; stroke-linecap: square; stroke-linejoin: miter; fill: #5E3F3C;' />
<rect x='305.91' y='108.65' width='10.43' height='3.72' style='stroke-width: 1.07; stroke: none; stroke-linecap: square; stroke-linejoin: miter; fill: #5E3F3C;' />
<rect x='149.52' y='110.38' width='10.43' height='1.99' style='stroke-width: 1.07; stroke: none; stroke-linecap: square; stroke-linejoin: miter; fill: #5E3F3C;' />
<rect x='514.43' y='108.02' width='10.43' height='4.35' style='stroke-width: 1.07; stroke: none; stroke-linecap: square; stroke-linejoin: miter; fill: #5E3F3C;' />
<rect x='358.04' y='98.10' width='10.43' height='14.27' style='stroke-width: 1.07; stroke: none; stroke-linecap: square; stroke-linejoin: miter; fill: #5E3F3C;' />
<rect x='540.49' y='45.36' width='10.43' height='67.01' style='stroke-width: 1.07; stroke: none; stroke-linecap: square; stroke-linejoin: miter; fill: #5E3F3C;' />
<rect x='462.30' y='112.37' width='10.43' height='4.07' style='stroke-width: 1.07; stroke: none; stroke-linecap: square; stroke-linejoin: miter; fill: #5E3F3C;' />
<rect x='227.72' y='108.37' width='10.43' height='4.00' style='stroke-width: 1.07; stroke: none; stroke-linecap: square; stroke-linejoin: miter; fill: #5E3F3C;' />
<polyline points='89.57,112.13 94.79,112.13 ' style='stroke-width: 1.07; stroke-linecap: butt;' />
<polyline points='92.18,112.13 92.18,120.72 ' style='stroke-width: 1.07; stroke-linecap: butt;' />
<polyline points='89.57,120.72 94.79,120.72 ' style='stroke-width: 1.07; stroke-linecap: butt;' />
<polyline points='37.44,107.43 42.66,107.43 ' style='stroke-width: 1.07; stroke-linecap: butt;' />
<polyline points='40.05,107.43 40.05,113.50 ' style='stroke-width: 1.07; stroke-linecap: butt;' />
<polyline points='37.44,113.50 42.66,113.50 ' style='stroke-width: 1.07; stroke-linecap: butt;' />
<polyline points='115.64,119.65 120.85,119.65 ' style='stroke-width: 1.07; stroke-linecap: butt;' />
<polyline points='118.24,119.65 118.24,126.11 ' style='stroke-width: 1.07; stroke-linecap: butt;' />
<polyline points='115.64,126.11 120.85,126.11 ' style='stroke-width: 1.07; stroke-linecap: butt;' />
<polyline points='193.83,115.75 199.04,115.75 ' style='stroke-width: 1.07; stroke-linecap: butt;' />
<polyline points='196.44,115.75 196.44,119.74 ' style='stroke-width: 1.07; stroke-linecap: butt;' />
<polyline points='193.83,119.74 199.04,119.74 ' style='stroke-width: 1.07; stroke-linecap: butt;' />
<polyline points='402.35,107.17 407.56,107.17 ' style='stroke-width: 1.07; stroke-linecap: butt;' />
<polyline points='404.96,107.17 404.96,114.29 ' style='stroke-width: 1.07; stroke-linecap: butt;' />
<polyline points='402.35,114.29 407.56,114.29 ' style='stroke-width: 1.07; stroke-linecap: butt;' />
<polyline points='245.96,135.47 251.17,135.47 ' style='stroke-width: 1.07; stroke-linecap: butt;' />
<polyline points='248.57,135.47 248.57,141.32 ' style='stroke-width: 1.07; stroke-linecap: butt;' />
<polyline points='245.96,141.32 251.17,141.32 ' style='stroke-width: 1.07; stroke-linecap: butt;' />
<polyline points='167.77,120.00 172.98,120.00 ' style='stroke-width: 1.07; stroke-linecap: butt;' />
<polyline points='170.37,120.00 170.37,127.72 ' style='stroke-width: 1.07; stroke-linecap: butt;' />
<polyline points='167.77,127.72 172.98,127.72 ' style='stroke-width: 1.07; stroke-linecap: butt;' />
<polyline points='610.87,121.40 616.08,121.40 ' style='stroke-width: 1.07; stroke-linecap: butt;' />
<polyline points='613.47,121.40 613.47,127.82 ' style='stroke-width: 1.07; stroke-linecap: butt;' />
<polyline points='610.87,127.82 616.08,127.82 ' style='stroke-width: 1.07; stroke-linecap: butt;' />
<polyline points='324.16,113.78 329.37,113.78 ' style='stroke-width: 1.07; stroke-linecap: butt;' />
<polyline points='326.76,113.78 326.76,119.35 ' style='stroke-width: 1.07; stroke-linecap: butt;' />
<polyline points='324.16,119.35 329.37,119.35 ' style='stroke-width: 1.07; stroke-linecap: butt;' />
<polyline points='584.80,88.89 590.02,88.89 ' style='stroke-width: 1.07; stroke-linecap: butt;' />
<polyline points='587.41,88.89 587.41,95.42 ' style='stroke-width: 1.07; stroke-linecap: butt;' />
<polyline points='584.80,95.42 590.02,95.42 ' style='stroke-width: 1.07; stroke-linecap: butt;' />
<polyline points='63.51,116.80 68.72,116.80 ' style='stroke-width: 1.07; stroke-linecap: butt;' />
<polyline points='66.11,116.80 66.11,122.45 ' style='stroke-width: 1.07; stroke-linecap: butt;' />
<polyline points='63.51,122.45 68.72,122.45 ' style='stroke-width: 1.07; stroke-linecap: butt;' />
<polyline points='376.29,113.90 381.50,113.90 ' style='stroke-width: 1.07; stroke-linecap: butt;' />
<polyline points='378.89,113.90 378.89,124.55 ' style='stroke-width: 1.07; stroke-linecap: butt;' />
<polyline points='376.29,124.55 381.50,124.55 ' style='stroke-width: 1.07; stroke-linecap: butt;' />
<polyline points='480.54,130.30 485.76,130.30 ' style='stroke-width: 1.07; stroke-linecap: butt;' />
<polyline points='483.15,130.30 483.15,140.10 ' style='stroke-width: 1.07; stroke-linecap: butt;' />
<polyline points='480.54,140.10 485.76,140.10 ' style='stroke-width: 1.07; stroke-linecap: butt;' />
<polyline points='428.41,102.27 433.63,102.27 ' style='stroke-width: 1.07; stroke-linecap: butt;' />
<polyline points='431.02,102.27 431.02,109.67 ' style='stroke-width: 1.07; stroke-linecap: butt;' />
<polyline points='428.41,109.67 433.63,109.67 ' style='stroke-width: 1.07; stroke-linecap: butt;' />
<polyline points='558.74,113.62 563.95,113.62 ' style='stroke-width: 1.07; stroke-linecap: butt;' />
<polyline points='561.34,113.62 561.34,122.21 ' style='stroke-width: 1.07; stroke-linecap: butt;' />
<polyline points='558.74,122.21 563.95,122.21 ' style='stroke-width: 1.07; stroke-linecap: butt;' />
<polyline points='272.03,113.86 277.24,113.86 ' style='stroke-width: 1.07; stroke-linecap: butt;' />
<polyline points='274.63,113.86 274.63,120.33 ' style='stroke-width: 1.07; stroke-linecap: butt;' />
<polyline points='272.03,120.33 277.24,120.33 ' style='stroke-width: 1.07; stroke-linecap: butt;' />
<polyline points='298.09,116.42 303.30,116.42 ' style='stroke-width: 1.07; stroke-linecap: butt;' />
<polyline points='300.70,116.42 300.70,121.65 ' style='stroke-width: 1.07; stroke-linecap: butt;' />
<polyline points='298.09,121.65 303.30,121.65 ' style='stroke-width: 1.07; stroke-linecap: butt;' />
<polyline points='141.70,120.92 146.92,120.92 ' style='stroke-width: 1.07; stroke-linecap: butt;' />
<polyline points='144.31,120.92 144.31,133.72 ' style='stroke-width: 1.07; stroke-linecap: butt;' />
<polyline points='141.70,133.72 146.92,133.72 ' style='stroke-width: 1.07; stroke-linecap: butt;' />
<polyline points='506.61,88.25 511.82,88.25 ' style='stroke-width: 1.07; stroke-linecap: butt;' />
<polyline points='509.22,88.25 509.22,106.66 ' style='stroke-width: 1.07; stroke-linecap: butt;' />
<polyline points='506.61,106.66 511.82,106.66 ' style='stroke-width: 1.07; stroke-linecap: butt;' />
<polyline points='350.22,108.97 355.43,108.97 ' style='stroke-width: 1.07; stroke-linecap: butt;' />
<polyline points='352.83,108.97 352.83,114.12 ' style='stroke-width: 1.07; stroke-linecap: butt;' />
<polyline points='350.22,114.12 355.43,114.12 ' style='stroke-width: 1.07; stroke-linecap: butt;' />
<polyline points='532.67,70.85 537.89,70.85 ' style='stroke-width: 1.07; stroke-linecap: butt;' />
<polyline points='535.28,70.85 535.28,84.08 ' style='stroke-width: 1.07; stroke-linecap: butt;' />
<polyline points='532.67,84.08 537.89,84.08 ' style='stroke-width: 1.07; stroke-linecap: butt;' />
<polyline points='454.48,118.09 459.69,118.09 ' style='stroke-width: 1.07; stroke-linecap: butt;' />
<polyline points='457.09,118.09 457.09,122.77 ' style='stroke-width: 1.07; stroke-linecap: butt;' />
<polyline points='454.48,122.77 459.69,122.77 ' style='stroke-width: 1.07; stroke-linecap: butt;' />
<polyline points='219.90,116.35 225.11,116.35 ' style='stroke-width: 1.07; stroke-linecap: butt;' />
<polyline points='222.50,116.35 222.50,124.30 ' style='stroke-width: 1.07; stroke-linecap: butt;' />
<polyline points='219.90,124.30 225.11,124.30 ' style='stroke-width: 1.07; stroke-linecap: butt;' />
<polyline points='100.00,105.62 105.21,105.62 ' style='stroke-width: 1.07; stroke-linecap: butt;' />
<polyline points='102.61,105.62 102.61,114.21 ' style='stroke-width: 1.07; stroke-linecap: butt;' />
<polyline points='100.00,114.21 105.21,114.21 ' style='stroke-width: 1.07; stroke-linecap: butt;' />
<polyline points='47.87,97.08 53.08,97.08 ' style='stroke-width: 1.07; stroke-linecap: butt;' />
<polyline points='50.48,97.08 50.48,103.13 ' style='stroke-width: 1.07; stroke-linecap: butt;' />
<polyline points='47.87,103.13 53.08,103.13 ' style='stroke-width: 1.07; stroke-linecap: butt;' />
<polyline points='126.06,125.11 131.28,125.11 ' style='stroke-width: 1.07; stroke-linecap: butt;' />
<polyline points='128.67,125.11 128.67,131.58 ' style='stroke-width: 1.07; stroke-linecap: butt;' />
<polyline points='126.06,131.58 131.28,131.58 ' style='stroke-width: 1.07; stroke-linecap: butt;' />
<polyline points='204.26,115.77 209.47,115.77 ' style='stroke-width: 1.07; stroke-linecap: butt;' />
<polyline points='206.86,115.77 206.86,119.75 ' style='stroke-width: 1.07; stroke-linecap: butt;' />
<polyline points='204.26,119.75 209.47,119.75 ' style='stroke-width: 1.07; stroke-linecap: butt;' />
<polyline points='412.78,89.17 417.99,89.17 ' style='stroke-width: 1.07; stroke-linecap: butt;' />
<polyline points='415.38,89.17 415.38,96.28 ' style='stroke-width: 1.07; stroke-linecap: butt;' />
<polyline points='412.78,96.28 417.99,96.28 ' style='stroke-width: 1.07; stroke-linecap: butt;' />
<polyline points='256.39,134.03 261.60,134.03 ' style='stroke-width: 1.07; stroke-linecap: butt;' />
<polyline points='258.99,134.03 258.99,139.88 ' style='stroke-width: 1.07; stroke-linecap: butt;' />
<polyline points='256.39,139.88 261.60,139.88 ' style='stroke-width: 1.07; stroke-linecap: butt;' />
<polyline points='178.19,112.39 183.41,112.39 ' style='stroke-width: 1.07; stroke-linecap: butt;' />
<polyline points='180.80,112.39 180.80,120.11 ' style='stroke-width: 1.07; stroke-linecap: butt;' />
<polyline points='178.19,120.11 183.41,120.11 ' style='stroke-width: 1.07; stroke-linecap: butt;' />
<polyline points='621.29,109.43 626.51,109.43 ' style='stroke-width: 1.07; stroke-linecap: butt;' />
<polyline points='623.90,109.43 623.90,115.84 ' style='stroke-width: 1.07; stroke-linecap: butt;' />
<polyline points='621.29,115.84 626.51,115.84 ' style='stroke-width: 1.07; stroke-linecap: butt;' />
<polyline points='334.58,85.63 339.79,85.63 ' style='stroke-width: 1.07; stroke-linecap: butt;' />
<polyline points='337.19,85.63 337.19,91.19 ' style='stroke-width: 1.07; stroke-linecap: butt;' />
<polyline points='334.58,91.19 339.79,91.19 ' style='stroke-width: 1.07; stroke-linecap: butt;' />
<polyline points='595.23,81.69 600.44,81.69 ' style='stroke-width: 1.07; stroke-linecap: butt;' />
<polyline points='597.84,81.69 597.84,88.22 ' style='stroke-width: 1.07; stroke-linecap: butt;' />
<polyline points='595.23,88.22 600.44,88.22 ' style='stroke-width: 1.07; stroke-linecap: butt;' />
<polyline points='73.93,99.88 79.15,99.88 ' style='stroke-width: 1.07; stroke-linecap: butt;' />
<polyline points='76.54,99.88 76.54,105.53 ' style='stroke-width: 1.07; stroke-linecap: butt;' />
<polyline points='73.93,105.53 79.15,105.53 ' style='stroke-width: 1.07; stroke-linecap: butt;' />
<polyline points='386.71,109.06 391.92,109.06 ' style='stroke-width: 1.07; stroke-linecap: butt;' />
<polyline points='389.32,109.06 389.32,119.71 ' style='stroke-width: 1.07; stroke-linecap: butt;' />
<polyline points='386.71,119.71 391.92,119.71 ' style='stroke-width: 1.07; stroke-linecap: butt;' />
<polyline points='490.97,77.90 496.18,77.90 ' style='stroke-width: 1.07; stroke-linecap: butt;' />
<polyline points='493.58,77.90 493.58,86.46 ' style='stroke-width: 1.07; stroke-linecap: butt;' />
<polyline points='490.97,86.46 496.18,86.46 ' style='stroke-width: 1.07; stroke-linecap: butt;' />
<polyline points='438.84,110.01 444.05,110.01 ' style='stroke-width: 1.07; stroke-linecap: butt;' />
<polyline points='441.45,110.01 441.45,117.44 ' style='stroke-width: 1.07; stroke-linecap: butt;' />
<polyline points='438.84,117.44 444.05,117.44 ' style='stroke-width: 1.07; stroke-linecap: butt;' />
<polyline points='569.16,113.87 574.38,113.87 ' style='stroke-width: 1.07; stroke-linecap: butt;' />
<polyline points='571.77,113.87 571.77,122.46 ' style='stroke-width: 1.07; stroke-linecap: butt;' />
<polyline points='569.16,122.46 574.38,122.46 ' style='stroke-width: 1.07; stroke-linecap: butt;' />
<polyline points='282.45,107.21 287.66,107.21 ' style='stroke-width: 1.07; stroke-linecap: butt;' />
<polyline points='285.06,107.21 285.06,113.67 ' style='stroke-width: 1.07; stroke-linecap: butt;' />
<polyline points='282.45,113.67 287.66,113.67 ' style='stroke-width: 1.07; stroke-linecap: butt;' />
<polyline points='308.52,106.04 313.73,106.04 ' style='stroke-width: 1.07; stroke-linecap: butt;' />
<polyline points='311.12,106.04 311.12,111.25 ' style='stroke-width: 1.07; stroke-linecap: butt;' />
<polyline points='308.52,111.25 313.73,111.25 ' style='stroke-width: 1.07; stroke-linecap: butt;' />
<polyline points='152.13,103.98 157.34,103.98 ' style='stroke-width: 1.07; stroke-linecap: butt;' />
<polyline points='154.73,103.98 154.73,116.78 ' style='stroke-width: 1.07; stroke-linecap: butt;' />
<polyline points='152.13,116.78 157.34,116.78 ' style='stroke-width: 1.07; stroke-linecap: butt;' />
<polyline points='517.03,98.70 522.25,98.70 ' style='stroke-width: 1.07; stroke-linecap: butt;' />
<polyline points='519.64,98.70 519.64,117.33 ' style='stroke-width: 1.07; stroke-linecap: butt;' />
<polyline points='517.03,117.33 522.25,117.33 ' style='stroke-width: 1.07; stroke-linecap: butt;' />
<polyline points='360.65,95.53 365.86,95.53 ' style='stroke-width: 1.07; stroke-linecap: butt;' />
<polyline points='363.25,95.53 363.25,100.66 ' style='stroke-width: 1.07; stroke-linecap: butt;' />
<polyline points='360.65,100.66 365.86,100.66 ' style='stroke-width: 1.07; stroke-linecap: butt;' />
<polyline points='543.10,38.78 548.31,38.78 ' style='stroke-width: 1.07; stroke-linecap: butt;' />
<polyline points='545.71,38.78 545.71,51.94 ' style='stroke-width: 1.07; stroke-linecap: butt;' />
<polyline points='543.10,51.94 548.31,51.94 ' style='stroke-width: 1.07; stroke-linecap: butt;' />
<polyline points='464.91,114.11 470.12,114.11 ' style='stroke-width: 1.07; stroke-linecap: butt;' />
<polyline points='467.51,114.11 467.51,118.78 ' style='stroke-width: 1.07; stroke-linecap: butt;' />
<polyline points='464.91,118.78 470.12,118.78 ' style='stroke-width: 1.07; stroke-linecap: butt;' />
<polyline points='230.32,104.40 235.54,104.40 ' style='stroke-width: 1.07; stroke-linecap: butt;' />
<polyline points='232.93,104.40 232.93,112.34 ' style='stroke-width: 1.07; stroke-linecap: butt;' />
<polyline points='230.32,112.34 235.54,112.34 ' style='stroke-width: 1.07; stroke-linecap: butt;' />
<text x='92.18' y='126.39' text-anchor='middle' style='font-size: 18.02px; font-family: Arial;' textLength='5.72px' lengthAdjust='spacingAndGlyphs'> </text>
<text x='40.05' y='101.76' text-anchor='middle' style='font-size: 18.02px; font-family: Arial;' textLength='5.72px' lengthAdjust='spacingAndGlyphs'> </text>
<text x='118.24' y='141.04' text-anchor='middle' style='font-size: 18.02px; font-family: Arial;' textLength='9.01px' lengthAdjust='spacingAndGlyphs'>*</text>
<text x='196.44' y='134.66' text-anchor='middle' style='font-size: 18.02px; font-family: Arial;' textLength='9.01px' lengthAdjust='spacingAndGlyphs'>*</text>
<text x='404.96' y='101.50' text-anchor='middle' style='font-size: 18.02px; font-family: Arial;' textLength='5.72px' lengthAdjust='spacingAndGlyphs'> </text>
<text x='248.57' y='156.24' text-anchor='middle' style='font-size: 18.02px; font-family: Arial;' textLength='9.01px' lengthAdjust='spacingAndGlyphs'>*</text>
<text x='170.37' y='142.65' text-anchor='middle' style='font-size: 18.02px; font-family: Arial;' textLength='9.01px' lengthAdjust='spacingAndGlyphs'>*</text>
<text x='613.47' y='142.74' text-anchor='middle' style='font-size: 18.02px; font-family: Arial;' textLength='9.01px' lengthAdjust='spacingAndGlyphs'>*</text>
<text x='326.76' y='125.01' text-anchor='middle' style='font-size: 18.02px; font-family: Arial;' textLength='5.72px' lengthAdjust='spacingAndGlyphs'> </text>
<text x='587.41' y='92.49' text-anchor='middle' style='font-size: 18.02px; font-family: Arial;' textLength='9.01px' lengthAdjust='spacingAndGlyphs'>*</text>
<text x='66.11' y='137.37' text-anchor='middle' style='font-size: 18.02px; font-family: Arial;' textLength='9.01px' lengthAdjust='spacingAndGlyphs'>*</text>
<text x='378.89' y='130.22' text-anchor='middle' style='font-size: 18.02px; font-family: Arial;' textLength='5.72px' lengthAdjust='spacingAndGlyphs'> </text>
<text x='483.15' y='155.02' text-anchor='middle' style='font-size: 18.02px; font-family: Arial;' textLength='9.01px' lengthAdjust='spacingAndGlyphs'>*</text>
<text x='431.02' y='96.60' text-anchor='middle' style='font-size: 18.02px; font-family: Arial;' textLength='5.72px' lengthAdjust='spacingAndGlyphs'> </text>
<text x='561.34' y='127.88' text-anchor='middle' style='font-size: 18.02px; font-family: Arial;' textLength='5.72px' lengthAdjust='spacingAndGlyphs'> </text>
<text x='274.63' y='126.00' text-anchor='middle' style='font-size: 18.02px; font-family: Arial;' textLength='5.72px' lengthAdjust='spacingAndGlyphs'> </text>
<text x='300.70' y='136.57' text-anchor='middle' style='font-size: 18.02px; font-family: Arial;' textLength='9.01px' lengthAdjust='spacingAndGlyphs'>*</text>
<text x='144.31' y='148.64' text-anchor='middle' style='font-size: 18.02px; font-family: Arial;' textLength='9.01px' lengthAdjust='spacingAndGlyphs'>*</text>
<text x='509.22' y='82.59' text-anchor='middle' style='font-size: 18.02px; font-family: Arial;' textLength='5.72px' lengthAdjust='spacingAndGlyphs'> </text>
<text x='352.83' y='103.30' text-anchor='middle' style='font-size: 18.02px; font-family: Arial;' textLength='5.72px' lengthAdjust='spacingAndGlyphs'> </text>
<text x='535.28' y='74.44' text-anchor='middle' style='font-size: 18.02px; font-family: Arial;' textLength='9.01px' lengthAdjust='spacingAndGlyphs'>*</text>
<text x='457.09' y='137.69' text-anchor='middle' style='font-size: 18.02px; font-family: Arial;' textLength='9.01px' lengthAdjust='spacingAndGlyphs'>*</text>
<text x='222.50' y='129.96' text-anchor='middle' style='font-size: 18.02px; font-family: Arial;' textLength='5.72px' lengthAdjust='spacingAndGlyphs'> </text>
<text x='102.61' y='99.95' text-anchor='middle' style='font-size: 18.02px; font-family: Arial;' textLength='5.72px' lengthAdjust='spacingAndGlyphs'> </text>
<text x='50.48' y='100.67' text-anchor='middle' style='font-size: 18.02px; font-family: Arial;' textLength='9.01px' lengthAdjust='spacingAndGlyphs'>*</text>
<text x='128.67' y='146.51' text-anchor='middle' style='font-size: 18.02px; font-family: Arial;' textLength='9.01px' lengthAdjust='spacingAndGlyphs'>*</text>
<text x='206.86' y='134.68' text-anchor='middle' style='font-size: 18.02px; font-family: Arial;' textLength='9.01px' lengthAdjust='spacingAndGlyphs'>*</text>
<text x='415.38' y='92.77' text-anchor='middle' style='font-size: 18.02px; font-family: Arial;' textLength='9.01px' lengthAdjust='spacingAndGlyphs'>*</text>
<text x='258.99' y='154.81' text-anchor='middle' style='font-size: 18.02px; font-family: Arial;' textLength='9.01px' lengthAdjust='spacingAndGlyphs'>*</text>
<text x='180.80' y='125.78' text-anchor='middle' style='font-size: 18.02px; font-family: Arial;' textLength='5.72px' lengthAdjust='spacingAndGlyphs'> </text>
<text x='623.90' y='121.51' text-anchor='middle' style='font-size: 18.02px; font-family: Arial;' textLength='5.72px' lengthAdjust='spacingAndGlyphs'> </text>
<text x='337.19' y='89.22' text-anchor='middle' style='font-size: 18.02px; font-family: Arial;' textLength='9.01px' lengthAdjust='spacingAndGlyphs'>*</text>
<text x='597.84' y='85.29' text-anchor='middle' style='font-size: 18.02px; font-family: Arial;' textLength='9.01px' lengthAdjust='spacingAndGlyphs'>*</text>
<text x='76.54' y='103.47' text-anchor='middle' style='font-size: 18.02px; font-family: Arial;' textLength='9.01px' lengthAdjust='spacingAndGlyphs'>*</text>
<text x='389.32' y='125.38' text-anchor='middle' style='font-size: 18.02px; font-family: Arial;' textLength='5.72px' lengthAdjust='spacingAndGlyphs'> </text>
<text x='493.58' y='81.49' text-anchor='middle' style='font-size: 18.02px; font-family: Arial;' textLength='9.01px' lengthAdjust='spacingAndGlyphs'>*</text>
<text x='441.45' y='123.11' text-anchor='middle' style='font-size: 18.02px; font-family: Arial;' textLength='5.72px' lengthAdjust='spacingAndGlyphs'> </text>
<text x='571.77' y='128.13' text-anchor='middle' style='font-size: 18.02px; font-family: Arial;' textLength='5.72px' lengthAdjust='spacingAndGlyphs'> </text>
<text x='285.06' y='101.54' text-anchor='middle' style='font-size: 18.02px; font-family: Arial;' textLength='5.72px' lengthAdjust='spacingAndGlyphs'> </text>
<text x='311.12' y='100.37' text-anchor='middle' style='font-size: 18.02px; font-family: Arial;' textLength='5.72px' lengthAdjust='spacingAndGlyphs'> </text>
<text x='154.73' y='98.32' text-anchor='middle' style='font-size: 18.02px; font-family: Arial;' textLength='5.72px' lengthAdjust='spacingAndGlyphs'> </text>
<text x='519.64' y='93.04' text-anchor='middle' style='font-size: 18.02px; font-family: Arial;' textLength='5.72px' lengthAdjust='spacingAndGlyphs'> </text>
<text x='363.25' y='99.13' text-anchor='middle' style='font-size: 18.02px; font-family: Arial;' textLength='9.01px' lengthAdjust='spacingAndGlyphs'>*</text>
<text x='545.71' y='42.37' text-anchor='middle' style='font-size: 18.02px; font-family: Arial;' textLength='9.01px' lengthAdjust='spacingAndGlyphs'>*</text>
<text x='467.51' y='124.44' text-anchor='middle' style='font-size: 18.02px; font-family: Arial;' textLength='5.72px' lengthAdjust='spacingAndGlyphs'> </text>
<text x='232.93' y='98.74' text-anchor='middle' style='font-size: 18.02px; font-family: Arial;' textLength='5.72px' lengthAdjust='spacingAndGlyphs'> </text>
</g>
<g clip-path='url(#cpMC4wMHw2OTkuODR8MC4wMHwyNTkuMjA=)'>
<polyline points='32.23,201.42 32.23,23.32 ' style='stroke-width: 1.07; stroke-linecap: butt;' />
<text x='27.30' y='160.21' text-anchor='end' style='font-size: 8.80px; fill: #4D4D4D; font-family: Arial;' textLength='8.77px' lengthAdjust='spacingAndGlyphs'>-3</text>
<text x='27.30' y='115.58' text-anchor='end' style='font-size: 8.80px; fill: #4D4D4D; font-family: Arial;' textLength='5.59px' lengthAdjust='spacingAndGlyphs'>0</text>
<text x='27.30' y='70.95' text-anchor='end' style='font-size: 8.80px; fill: #4D4D4D; font-family: Arial;' textLength='5.59px' lengthAdjust='spacingAndGlyphs'>3</text>
<polyline points='29.49,157.00 32.23,157.00 ' style='stroke-width: 1.07; stroke: #333333; stroke-linecap: butt;' />
<polyline points='29.49,112.37 32.23,112.37 ' style='stroke-width: 1.07; stroke: #333333; stroke-linecap: butt;' />
<polyline points='29.49,67.74 32.23,67.74 ' style='stroke-width: 1.07; stroke: #333333; stroke-linecap: butt;' />
<polyline points='32.23,201.42 631.72,201.42 ' style='stroke-width: 1.07; stroke-linecap: butt;' />
<polyline points='45.26,204.16 45.26,201.42 ' style='stroke-width: 1.07; stroke: #333333; stroke-linecap: butt;' />
<polyline points='71.33,204.16 71.33,201.42 ' style='stroke-width: 1.07; stroke: #333333; stroke-linecap: butt;' />
<polyline points='97.39,204.16 97.39,201.42 ' style='stroke-width: 1.07; stroke: #333333; stroke-linecap: butt;' />
<polyline points='123.46,204.16 123.46,201.42 ' style='stroke-width: 1.07; stroke: #333333; stroke-linecap: butt;' />
<polyline points='149.52,204.16 149.52,201.42 ' style='stroke-width: 1.07; stroke: #333333; stroke-linecap: butt;' />
<polyline points='175.59,204.16 175.59,201.42 ' style='stroke-width: 1.07; stroke: #333333; stroke-linecap: butt;' />
<polyline points='201.65,204.16 201.65,201.42 ' style='stroke-width: 1.07; stroke: #333333; stroke-linecap: butt;' />
<polyline points='227.72,204.16 227.72,201.42 ' style='stroke-width: 1.07; stroke: #333333; stroke-linecap: butt;' />
<polyline points='253.78,204.16 253.78,201.42 ' style='stroke-width: 1.07; stroke: #333333; stroke-linecap: butt;' />
<polyline points='279.85,204.16 279.85,201.42 ' style='stroke-width: 1.07; stroke: #333333; stroke-linecap: butt;' />
<polyline points='305.91,204.16 305.91,201.42 ' style='stroke-width: 1.07; stroke: #333333; stroke-linecap: butt;' />
<polyline points='331.97,204.16 331.97,201.42 ' style='stroke-width: 1.07; stroke: #333333; stroke-linecap: butt;' />
<polyline points='358.04,204.16 358.04,201.42 ' style='stroke-width: 1.07; stroke: #333333; stroke-linecap: butt;' />
<polyline points='384.10,204.16 384.10,201.42 ' style='stroke-width: 1.07; stroke: #333333; stroke-linecap: butt;' />
<polyline points='410.17,204.16 410.17,201.42 ' style='stroke-width: 1.07; stroke: #333333; stroke-linecap: butt;' />
<polyline points='436.23,204.16 436.23,201.42 ' style='stroke-width: 1.07; stroke: #333333; stroke-linecap: butt;' />
<polyline points='462.30,204.16 462.30,201.42 ' style='stroke-width: 1.07; stroke: #333333; stroke-linecap: butt;' />
<polyline points='488.36,204.16 488.36,201.42 ' style='stroke-width: 1.07; stroke: #333333; stroke-linecap: butt;' />
<polyline points='514.43,204.16 514.43,201.42 ' style='stroke-width: 1.07; stroke: #333333; stroke-linecap: butt;' />
<polyline points='540.49,204.16 540.49,201.42 ' style='stroke-width: 1.07; stroke: #333333; stroke-linecap: butt;' />
<polyline points='566.56,204.16 566.56,201.42 ' style='stroke-width: 1.07; stroke: #333333; stroke-linecap: butt;' />
<polyline points='592.62,204.16 592.62,201.42 ' style='stroke-width: 1.07; stroke: #333333; stroke-linecap: butt;' />
<polyline points='618.69,204.16 618.69,201.42 ' style='stroke-width: 1.07; stroke: #333333; stroke-linecap: butt;' />
<text transform='translate(50.18,210.47) rotate(-50)' text-anchor='end' style='font-size: 8.80px; fill: #4D4D4D; font-family: Arial;' textLength='30.30px' lengthAdjust='spacingAndGlyphs'>ADCK1</text>
<text transform='translate(76.24,210.47) rotate(-50)' text-anchor='end' style='font-size: 8.80px; fill: #4D4D4D; font-family: Arial;' textLength='33.99px' lengthAdjust='spacingAndGlyphs'>AFG3L2</text>
<text transform='translate(102.31,210.47) rotate(-50)' text-anchor='end' style='font-size: 8.80px; fill: #4D4D4D; font-family: Arial;' textLength='23.41px' lengthAdjust='spacingAndGlyphs'>BAK1</text>
<text transform='translate(128.37,210.47) rotate(-50)' text-anchor='end' style='font-size: 8.80px; fill: #4D4D4D; font-family: Arial;' textLength='18.08px' lengthAdjust='spacingAndGlyphs'>BAX</text>
<text transform='translate(154.44,210.47) rotate(-50)' text-anchor='end' style='font-size: 8.80px; fill: #4D4D4D; font-family: Arial;' textLength='26.11px' lengthAdjust='spacingAndGlyphs'>BNIP3</text>
<text transform='translate(180.50,210.47) rotate(-50)' text-anchor='end' style='font-size: 8.80px; fill: #4D4D4D; font-family: Arial;' textLength='37.89px' lengthAdjust='spacingAndGlyphs'>CHCHD3</text>
<text transform='translate(206.57,210.47) rotate(-50)' text-anchor='end' style='font-size: 8.80px; fill: #4D4D4D; font-family: Arial;' textLength='31.44px' lengthAdjust='spacingAndGlyphs'>DNM1L</text>
<text transform='translate(232.63,210.47) rotate(-50)' text-anchor='end' style='font-size: 8.80px; fill: #4D4D4D; font-family: Arial;' textLength='18.84px' lengthAdjust='spacingAndGlyphs'>FIS1</text>
<text transform='translate(258.70,210.47) rotate(-50)' text-anchor='end' style='font-size: 8.80px; fill: #4D4D4D; font-family: Arial;' textLength='30.36px' lengthAdjust='spacingAndGlyphs'>GDAP1</text>
<text transform='translate(284.76,210.47) rotate(-50)' text-anchor='end' style='font-size: 8.80px; fill: #4D4D4D; font-family: Arial;' textLength='17.71px' lengthAdjust='spacingAndGlyphs'>MFF</text>
<text transform='translate(310.82,210.47) rotate(-50)' text-anchor='end' style='font-size: 8.80px; fill: #4D4D4D; font-family: Arial;' textLength='24.83px' lengthAdjust='spacingAndGlyphs'>MFN1</text>
<text transform='translate(336.89,210.47) rotate(-50)' text-anchor='end' style='font-size: 8.80px; fill: #4D4D4D; font-family: Arial;' textLength='24.83px' lengthAdjust='spacingAndGlyphs'>MFN2</text>
<text transform='translate(362.95,210.47) rotate(-50)' text-anchor='end' style='font-size: 8.80px; fill: #4D4D4D; font-family: Arial;' textLength='28.61px' lengthAdjust='spacingAndGlyphs'>MIGA1</text>
<text transform='translate(389.02,210.47) rotate(-50)' text-anchor='end' style='font-size: 8.80px; fill: #4D4D4D; font-family: Arial;' textLength='28.61px' lengthAdjust='spacingAndGlyphs'>MIGA2</text>
<text transform='translate(415.08,210.47) rotate(-50)' text-anchor='end' style='font-size: 8.80px; fill: #4D4D4D; font-family: Arial;' textLength='24.52px' lengthAdjust='spacingAndGlyphs'>MUL1</text>
<text transform='translate(441.15,210.47) rotate(-50)' text-anchor='end' style='font-size: 8.80px; fill: #4D4D4D; font-family: Arial;' textLength='26.13px' lengthAdjust='spacingAndGlyphs'>OMA1</text>
<text transform='translate(467.21,210.47) rotate(-50)' text-anchor='end' style='font-size: 8.80px; fill: #4D4D4D; font-family: Arial;' textLength='23.28px' lengthAdjust='spacingAndGlyphs'>OPA1</text>
<text transform='translate(493.28,210.47) rotate(-50)' text-anchor='end' style='font-size: 8.80px; fill: #4D4D4D; font-family: Arial;' textLength='20.27px' lengthAdjust='spacingAndGlyphs'>PID1</text>
<text transform='translate(519.34,210.47) rotate(-50)' text-anchor='end' style='font-size: 8.80px; fill: #4D4D4D; font-family: Arial;' textLength='22.58px' lengthAdjust='spacingAndGlyphs'>PLD6</text>
<text transform='translate(545.41,210.47) rotate(-50)' text-anchor='end' style='font-size: 8.80px; fill: #4D4D4D; font-family: Arial;' textLength='23.77px' lengthAdjust='spacingAndGlyphs'>PRKN</text>
<text transform='translate(571.47,210.47) rotate(-50)' text-anchor='end' style='font-size: 8.80px; fill: #4D4D4D; font-family: Arial;' textLength='35.97px' lengthAdjust='spacingAndGlyphs'>STOML2</text>
<text transform='translate(597.54,210.47) rotate(-50)' text-anchor='end' style='font-size: 8.80px; fill: #4D4D4D; font-family: Arial;' textLength='28.52px' lengthAdjust='spacingAndGlyphs'>USP30</text>
<text transform='translate(623.60,210.47) rotate(-50)' text-anchor='end' style='font-size: 8.80px; fill: #4D4D4D; font-family: Arial;' textLength='21.76px' lengthAdjust='spacingAndGlyphs'>VAT1</text>
<text transform='translate(13.50,112.37) rotate(-90)' text-anchor='middle' style='font-size: 11.00px; font-family: Arial;' textLength='174.11px' lengthAdjust='spacingAndGlyphs'>log2 Fold Change relative to D0</text>
<rect x='642.68' y='81.71' width='51.68' height='61.31' style='stroke-width: 1.07; stroke: none; fill: #FFFFFF;' />
<text x='648.16' y='96.36' style='font-size: 11.00px; font-family: Arial;' textLength='20.23px' lengthAdjust='spacingAndGlyphs'>day</text>
<rect x='648.87' y='103.69' width='15.86' height='15.86' style='stroke-width: 1.07; stroke: none; stroke-linecap: square; stroke-linejoin: miter; fill: #F4B8B4;' />
<rect x='648.87' y='120.97' width='15.86' height='15.86' style='stroke-width: 1.07; stroke: none; stroke-linecap: square; stroke-linejoin: miter; fill: #5E3F3C;' />
<text x='670.92' y='114.83' style='font-size: 8.80px; font-family: Arial;' textLength='12.37px' lengthAdjust='spacingAndGlyphs'>D5</text>
<text x='670.92' y='132.11' style='font-size: 8.80px; font-family: Arial;' textLength='17.96px' lengthAdjust='spacingAndGlyphs'>D15</text>
<text x='32.23' y='15.10' style='font-size: 13.20px; font-family: Arial;' textLength='137.57px' lengthAdjust='spacingAndGlyphs'>mitochondrial_fusion</text>
</g>
</svg>
