<?xml version='1.0' encoding='UTF-8' ?>
<svg xmlns='http://www.w3.org/2000/svg' xmlns:xlink='http://www.w3.org/1999/xlink' viewBox='0 0 328.32 259.20'>
<defs>
  <style type='text/css'><![CDATA[
    line, polyline, polygon, path, rect, circle {
      fill: none;
      stroke: #000000;
      stroke-linecap: round;
      stroke-linejoin: round;
      stroke-miterlimit: 10.00;
    }
  ]]></style>
</defs>
<rect width='100%' height='100%' style='stroke: none; fill: #FFFFFF;'/>
<rect x='0.00' y='0.00' width='328.32' height='259.20' style='stroke-width: 1.07; stroke: #FFFFFF; fill: #FFFFFF;' />
<defs>
  <clipPath id='cpMzEuMTZ8MjY2LjkxfDIwMC4yOHwyMy4xOQ=='>
    <rect x='31.16' y='23.19' width='235.75' height='177.09' />
  </clipPath>
</defs>
<rect x='31.16' y='23.19' width='235.75' height='177.09' style='stroke-width: 1.07; stroke: none; fill: #FFFFFF;' clip-path='url(#cpMzEuMTZ8MjY2LjkxfDIwMC4yOHwyMy4xOQ==)' />
<line x1='31.16' y1='111.73' x2='266.91' y2='111.73' style='stroke-width: 1.07; stroke: #333333; stroke-dasharray: 5.69,5.69; stroke-linecap: butt;' clip-path='url(#cpMzEuMTZ8MjY2LjkxfDIwMC4yOHwyMy4xOQ==)' />
<rect x='196.19' y='111.73' width='14.51' height='7.97' style='stroke-width: 1.07; stroke: none; stroke-linecap: square; stroke-linejoin: miter; fill: #C73C95;' clip-path='url(#cpMzEuMTZ8MjY2LjkxfDIwMC4yOHwyMy4xOQ==)' />
<rect x='32.98' y='111.73' width='14.51' height='63.00' style='stroke-width: 1.07; stroke: none; stroke-linecap: square; stroke-linejoin: miter; fill: #C73C95;' clip-path='url(#cpMzEuMTZ8MjY2LjkxfDIwMC4yOHwyMy4xOQ==)' />
<rect x='141.79' y='111.73' width='14.51' height='10.56' style='stroke-width: 1.07; stroke: none; stroke-linecap: square; stroke-linejoin: miter; fill: #C73C95;' clip-path='url(#cpMzEuMTZ8MjY2LjkxfDIwMC4yOHwyMy4xOQ==)' />
<rect x='105.52' y='111.73' width='14.51' height='28.83' style='stroke-width: 1.07; stroke: none; stroke-linecap: square; stroke-linejoin: miter; fill: #C73C95;' clip-path='url(#cpMzEuMTZ8MjY2LjkxfDIwMC4yOHwyMy4xOQ==)' />
<rect x='87.38' y='111.73' width='14.51' height='18.33' style='stroke-width: 1.07; stroke: none; stroke-linecap: square; stroke-linejoin: miter; fill: #C73C95;' clip-path='url(#cpMzEuMTZ8MjY2LjkxfDIwMC4yOHwyMy4xOQ==)' />
<rect x='123.65' y='111.73' width='14.51' height='17.38' style='stroke-width: 1.07; stroke: none; stroke-linecap: square; stroke-linejoin: miter; fill: #C73C95;' clip-path='url(#cpMzEuMTZ8MjY2LjkxfDIwMC4yOHwyMy4xOQ==)' />
<rect x='69.25' y='111.73' width='14.51' height='16.99' style='stroke-width: 1.07; stroke: none; stroke-linecap: square; stroke-linejoin: miter; fill: #C73C95;' clip-path='url(#cpMzEuMTZ8MjY2LjkxfDIwMC4yOHwyMy4xOQ==)' />
<rect x='51.11' y='111.73' width='14.51' height='27.13' style='stroke-width: 1.07; stroke: none; stroke-linecap: square; stroke-linejoin: miter; fill: #C73C95;' clip-path='url(#cpMzEuMTZ8MjY2LjkxfDIwMC4yOHwyMy4xOQ==)' />
<rect x='159.92' y='103.05' width='14.51' height='8.68' style='stroke-width: 1.07; stroke: none; stroke-linecap: square; stroke-linejoin: miter; fill: #C73C95;' clip-path='url(#cpMzEuMTZ8MjY2LjkxfDIwMC4yOHwyMy4xOQ==)' />
<rect x='250.59' y='101.33' width='14.51' height='10.40' style='stroke-width: 1.07; stroke: none; stroke-linecap: square; stroke-linejoin: miter; fill: #C73C95;' clip-path='url(#cpMzEuMTZ8MjY2LjkxfDIwMC4yOHwyMy4xOQ==)' />
<rect x='178.05' y='111.73' width='14.51' height='12.37' style='stroke-width: 1.07; stroke: none; stroke-linecap: square; stroke-linejoin: miter; fill: #C73C95;' clip-path='url(#cpMzEuMTZ8MjY2LjkxfDIwMC4yOHwyMy4xOQ==)' />
<rect x='232.46' y='111.50' width='14.51' height='0.24' style='stroke-width: 1.07; stroke: none; stroke-linecap: square; stroke-linejoin: miter; fill: #C73C95;' clip-path='url(#cpMzEuMTZ8MjY2LjkxfDIwMC4yOHwyMy4xOQ==)' />
<rect x='214.32' y='111.73' width='14.51' height='1.82' style='stroke-width: 1.07; stroke: none; stroke-linecap: square; stroke-linejoin: miter; fill: #C73C95;' clip-path='url(#cpMzEuMTZ8MjY2LjkxfDIwMC4yOHwyMy4xOQ==)' />
<polyline points='199.82,112.54 207.07,112.54 ' style='stroke-width: 1.07; stroke-linecap: butt;' clip-path='url(#cpMzEuMTZ8MjY2LjkxfDIwMC4yOHwyMy4xOQ==)' />
<polyline points='203.44,112.54 203.44,126.87 ' style='stroke-width: 1.07; stroke-linecap: butt;' clip-path='url(#cpMzEuMTZ8MjY2LjkxfDIwMC4yOHwyMy4xOQ==)' />
<polyline points='199.82,126.87 207.07,126.87 ' style='stroke-width: 1.07; stroke-linecap: butt;' clip-path='url(#cpMzEuMTZ8MjY2LjkxfDIwMC4yOHwyMy4xOQ==)' />
<polyline points='36.60,164.55 43.86,164.55 ' style='stroke-width: 1.07; stroke-linecap: butt;' clip-path='url(#cpMzEuMTZ8MjY2LjkxfDIwMC4yOHwyMy4xOQ==)' />
<polyline points='40.23,164.55 40.23,184.91 ' style='stroke-width: 1.07; stroke-linecap: butt;' clip-path='url(#cpMzEuMTZ8MjY2LjkxfDIwMC4yOHwyMy4xOQ==)' />
<polyline points='36.60,184.91 43.86,184.91 ' style='stroke-width: 1.07; stroke-linecap: butt;' clip-path='url(#cpMzEuMTZ8MjY2LjkxfDIwMC4yOHwyMy4xOQ==)' />
<polyline points='145.41,118.81 152.67,118.81 ' style='stroke-width: 1.07; stroke-linecap: butt;' clip-path='url(#cpMzEuMTZ8MjY2LjkxfDIwMC4yOHwyMy4xOQ==)' />
<polyline points='149.04,118.81 149.04,125.78 ' style='stroke-width: 1.07; stroke-linecap: butt;' clip-path='url(#cpMzEuMTZ8MjY2LjkxfDIwMC4yOHwyMy4xOQ==)' />
<polyline points='145.41,125.78 152.67,125.78 ' style='stroke-width: 1.07; stroke-linecap: butt;' clip-path='url(#cpMzEuMTZ8MjY2LjkxfDIwMC4yOHwyMy4xOQ==)' />
<polyline points='109.14,137.55 116.40,137.55 ' style='stroke-width: 1.07; stroke-linecap: butt;' clip-path='url(#cpMzEuMTZ8MjY2LjkxfDIwMC4yOHwyMy4xOQ==)' />
<polyline points='112.77,137.55 112.77,143.58 ' style='stroke-width: 1.07; stroke-linecap: butt;' clip-path='url(#cpMzEuMTZ8MjY2LjkxfDIwMC4yOHwyMy4xOQ==)' />
<polyline points='109.14,143.58 116.40,143.58 ' style='stroke-width: 1.07; stroke-linecap: butt;' clip-path='url(#cpMzEuMTZ8MjY2LjkxfDIwMC4yOHwyMy4xOQ==)' />
<polyline points='91.01,124.58 98.26,124.58 ' style='stroke-width: 1.07; stroke-linecap: butt;' clip-path='url(#cpMzEuMTZ8MjY2LjkxfDIwMC4yOHwyMy4xOQ==)' />
<polyline points='94.64,124.58 94.64,135.53 ' style='stroke-width: 1.07; stroke-linecap: butt;' clip-path='url(#cpMzEuMTZ8MjY2LjkxfDIwMC4yOHwyMy4xOQ==)' />
<polyline points='91.01,135.53 98.26,135.53 ' style='stroke-width: 1.07; stroke-linecap: butt;' clip-path='url(#cpMzEuMTZ8MjY2LjkxfDIwMC4yOHwyMy4xOQ==)' />
<polyline points='127.28,125.37 134.53,125.37 ' style='stroke-width: 1.07; stroke-linecap: butt;' clip-path='url(#cpMzEuMTZ8MjY2LjkxfDIwMC4yOHwyMy4xOQ==)' />
<polyline points='130.90,125.37 130.90,132.84 ' style='stroke-width: 1.07; stroke-linecap: butt;' clip-path='url(#cpMzEuMTZ8MjY2LjkxfDIwMC4yOHwyMy4xOQ==)' />
<polyline points='127.28,132.84 134.53,132.84 ' style='stroke-width: 1.07; stroke-linecap: butt;' clip-path='url(#cpMzEuMTZ8MjY2LjkxfDIwMC4yOHwyMy4xOQ==)' />
<polyline points='72.87,126.15 80.13,126.15 ' style='stroke-width: 1.07; stroke-linecap: butt;' clip-path='url(#cpMzEuMTZ8MjY2LjkxfDIwMC4yOHwyMy4xOQ==)' />
<polyline points='76.50,126.15 76.50,131.30 ' style='stroke-width: 1.07; stroke-linecap: butt;' clip-path='url(#cpMzEuMTZ8MjY2LjkxfDIwMC4yOHwyMy4xOQ==)' />
<polyline points='72.87,131.30 80.13,131.30 ' style='stroke-width: 1.07; stroke-linecap: butt;' clip-path='url(#cpMzEuMTZ8MjY2LjkxfDIwMC4yOHwyMy4xOQ==)' />
<polyline points='54.74,133.43 61.99,133.43 ' style='stroke-width: 1.07; stroke-linecap: butt;' clip-path='url(#cpMzEuMTZ8MjY2LjkxfDIwMC4yOHwyMy4xOQ==)' />
<polyline points='58.37,133.43 58.37,144.29 ' style='stroke-width: 1.07; stroke-linecap: butt;' clip-path='url(#cpMzEuMTZ8MjY2LjkxfDIwMC4yOHwyMy4xOQ==)' />
<polyline points='54.74,144.29 61.99,144.29 ' style='stroke-width: 1.07; stroke-linecap: butt;' clip-path='url(#cpMzEuMTZ8MjY2LjkxfDIwMC4yOHwyMy4xOQ==)' />
<polyline points='163.55,96.83 170.80,96.83 ' style='stroke-width: 1.07; stroke-linecap: butt;' clip-path='url(#cpMzEuMTZ8MjY2LjkxfDIwMC4yOHwyMy4xOQ==)' />
<polyline points='167.17,96.83 167.17,109.26 ' style='stroke-width: 1.07; stroke-linecap: butt;' clip-path='url(#cpMzEuMTZ8MjY2LjkxfDIwMC4yOHwyMy4xOQ==)' />
<polyline points='163.55,109.26 170.80,109.26 ' style='stroke-width: 1.07; stroke-linecap: butt;' clip-path='url(#cpMzEuMTZ8MjY2LjkxfDIwMC4yOHwyMy4xOQ==)' />
<polyline points='254.22,93.58 261.47,93.58 ' style='stroke-width: 1.07; stroke-linecap: butt;' clip-path='url(#cpMzEuMTZ8MjY2LjkxfDIwMC4yOHwyMy4xOQ==)' />
<polyline points='257.85,93.58 257.85,109.08 ' style='stroke-width: 1.07; stroke-linecap: butt;' clip-path='url(#cpMzEuMTZ8MjY2LjkxfDIwMC4yOHwyMy4xOQ==)' />
<polyline points='254.22,109.08 261.47,109.08 ' style='stroke-width: 1.07; stroke-linecap: butt;' clip-path='url(#cpMzEuMTZ8MjY2LjkxfDIwMC4yOHwyMy4xOQ==)' />
<polyline points='181.68,121.82 188.94,121.82 ' style='stroke-width: 1.07; stroke-linecap: butt;' clip-path='url(#cpMzEuMTZ8MjY2LjkxfDIwMC4yOHwyMy4xOQ==)' />
<polyline points='185.31,121.82 185.31,126.38 ' style='stroke-width: 1.07; stroke-linecap: butt;' clip-path='url(#cpMzEuMTZ8MjY2LjkxfDIwMC4yOHwyMy4xOQ==)' />
<polyline points='181.68,126.38 188.94,126.38 ' style='stroke-width: 1.07; stroke-linecap: butt;' clip-path='url(#cpMzEuMTZ8MjY2LjkxfDIwMC4yOHwyMy4xOQ==)' />
<polyline points='236.09,109.06 243.34,109.06 ' style='stroke-width: 1.07; stroke-linecap: butt;' clip-path='url(#cpMzEuMTZ8MjY2LjkxfDIwMC4yOHwyMy4xOQ==)' />
<polyline points='239.71,109.06 239.71,113.93 ' style='stroke-width: 1.07; stroke-linecap: butt;' clip-path='url(#cpMzEuMTZ8MjY2LjkxfDIwMC4yOHwyMy4xOQ==)' />
<polyline points='236.09,113.93 243.34,113.93 ' style='stroke-width: 1.07; stroke-linecap: butt;' clip-path='url(#cpMzEuMTZ8MjY2LjkxfDIwMC4yOHwyMy4xOQ==)' />
<polyline points='217.95,108.61 225.20,108.61 ' style='stroke-width: 1.07; stroke-linecap: butt;' clip-path='url(#cpMzEuMTZ8MjY2LjkxfDIwMC4yOHwyMy4xOQ==)' />
<polyline points='221.58,108.61 221.58,118.50 ' style='stroke-width: 1.07; stroke-linecap: butt;' clip-path='url(#cpMzEuMTZ8MjY2LjkxfDIwMC4yOHwyMy4xOQ==)' />
<polyline points='217.95,118.50 225.20,118.50 ' style='stroke-width: 1.07; stroke-linecap: butt;' clip-path='url(#cpMzEuMTZ8MjY2LjkxfDIwMC4yOHwyMy4xOQ==)' />
<g clip-path='url(#cpMzEuMTZ8MjY2LjkxfDIwMC4yOHwyMy4xOQ==)'><text x='36.73' y='200.92' style='font-size: 18.02px; font-family: Arial;' textLength='7.01px' lengthAdjust='spacingAndGlyphs'>*</text></g>
<g clip-path='url(#cpMzEuMTZ8MjY2LjkxfDIwMC4yOHwyMy4xOQ==)'><text x='145.53' y='141.79' style='font-size: 18.02px; font-family: Arial;' textLength='7.01px' lengthAdjust='spacingAndGlyphs'>*</text></g>
<g clip-path='url(#cpMzEuMTZ8MjY2LjkxfDIwMC4yOHwyMy4xOQ==)'><text x='109.26' y='159.59' style='font-size: 18.02px; font-family: Arial;' textLength='7.01px' lengthAdjust='spacingAndGlyphs'>*</text></g>
<g clip-path='url(#cpMzEuMTZ8MjY2LjkxfDIwMC4yOHwyMy4xOQ==)'><text x='91.13' y='151.54' style='font-size: 18.02px; font-family: Arial;' textLength='7.01px' lengthAdjust='spacingAndGlyphs'>*</text></g>
<g clip-path='url(#cpMzEuMTZ8MjY2LjkxfDIwMC4yOHwyMy4xOQ==)'><text x='127.40' y='148.85' style='font-size: 18.02px; font-family: Arial;' textLength='7.01px' lengthAdjust='spacingAndGlyphs'>*</text></g>
<g clip-path='url(#cpMzEuMTZ8MjY2LjkxfDIwMC4yOHwyMy4xOQ==)'><text x='73.00' y='147.31' style='font-size: 18.02px; font-family: Arial;' textLength='7.01px' lengthAdjust='spacingAndGlyphs'>*</text></g>
<g clip-path='url(#cpMzEuMTZ8MjY2LjkxfDIwMC4yOHwyMy4xOQ==)'><text x='54.86' y='160.30' style='font-size: 18.02px; font-family: Arial;' textLength='7.01px' lengthAdjust='spacingAndGlyphs'>*</text></g>
<g clip-path='url(#cpMzEuMTZ8MjY2LjkxfDIwMC4yOHwyMy4xOQ==)'><text x='181.80' y='142.38' style='font-size: 18.02px; font-family: Arial;' textLength='7.01px' lengthAdjust='spacingAndGlyphs'>*</text></g>
<defs>
  <clipPath id='cpMC4wMHwzMjguMzJ8MjU5LjIwfDAuMDA='>
    <rect x='0.00' y='0.00' width='328.32' height='259.20' />
  </clipPath>
</defs>
<polyline points='31.16,200.28 31.16,23.19 ' style='stroke-width: 1.07; stroke-linecap: butt;' clip-path='url(#cpMC4wMHwzMjguMzJ8MjU5LjIwfDAuMDA=)' />
<g clip-path='url(#cpMC4wMHwzMjguMzJ8MjU5LjIwfDAuMDA=)'><text x='18.41' y='200.23' style='font-size: 8.80px; fill: #4D4D4D; font-family: Arial;' textLength='7.82px' lengthAdjust='spacingAndGlyphs'>-3</text></g>
<g clip-path='url(#cpMC4wMHwzMjguMzJ8MjU5LjIwfDAuMDA=)'><text x='18.41' y='171.78' style='font-size: 8.80px; fill: #4D4D4D; font-family: Arial;' textLength='7.82px' lengthAdjust='spacingAndGlyphs'>-2</text></g>
<g clip-path='url(#cpMC4wMHwzMjguMzJ8MjU5LjIwfDAuMDA=)'><text x='18.41' y='143.33' style='font-size: 8.80px; fill: #4D4D4D; font-family: Arial;' textLength='7.82px' lengthAdjust='spacingAndGlyphs'>-1</text></g>
<g clip-path='url(#cpMC4wMHwzMjguMzJ8MjU5LjIwfDAuMDA=)'><text x='21.34' y='114.88' style='font-size: 8.80px; fill: #4D4D4D; font-family: Arial;' textLength='4.89px' lengthAdjust='spacingAndGlyphs'>0</text></g>
<g clip-path='url(#cpMC4wMHwzMjguMzJ8MjU5LjIwfDAuMDA=)'><text x='21.34' y='86.43' style='font-size: 8.80px; fill: #4D4D4D; font-family: Arial;' textLength='4.89px' lengthAdjust='spacingAndGlyphs'>1</text></g>
<g clip-path='url(#cpMC4wMHwzMjguMzJ8MjU5LjIwfDAuMDA=)'><text x='21.34' y='57.98' style='font-size: 8.80px; fill: #4D4D4D; font-family: Arial;' textLength='4.89px' lengthAdjust='spacingAndGlyphs'>2</text></g>
<g clip-path='url(#cpMC4wMHwzMjguMzJ8MjU5LjIwfDAuMDA=)'><text x='21.34' y='29.54' style='font-size: 8.80px; fill: #4D4D4D; font-family: Arial;' textLength='4.89px' lengthAdjust='spacingAndGlyphs'>3</text></g>
<polyline points='28.42,197.08 31.16,197.08 ' style='stroke-width: 1.07; stroke: #333333; stroke-linecap: butt;' clip-path='url(#cpMC4wMHwzMjguMzJ8MjU5LjIwfDAuMDA=)' />
<polyline points='28.42,168.63 31.16,168.63 ' style='stroke-width: 1.07; stroke: #333333; stroke-linecap: butt;' clip-path='url(#cpMC4wMHwzMjguMzJ8MjU5LjIwfDAuMDA=)' />
<polyline points='28.42,140.18 31.16,140.18 ' style='stroke-width: 1.07; stroke: #333333; stroke-linecap: butt;' clip-path='url(#cpMC4wMHwzMjguMzJ8MjU5LjIwfDAuMDA=)' />
<polyline points='28.42,111.73 31.16,111.73 ' style='stroke-width: 1.07; stroke: #333333; stroke-linecap: butt;' clip-path='url(#cpMC4wMHwzMjguMzJ8MjU5LjIwfDAuMDA=)' />
<polyline points='28.42,83.28 31.16,83.28 ' style='stroke-width: 1.07; stroke: #333333; stroke-linecap: butt;' clip-path='url(#cpMC4wMHwzMjguMzJ8MjU5LjIwfDAuMDA=)' />
<polyline points='28.42,54.84 31.16,54.84 ' style='stroke-width: 1.07; stroke: #333333; stroke-linecap: butt;' clip-path='url(#cpMC4wMHwzMjguMzJ8MjU5LjIwfDAuMDA=)' />
<polyline points='28.42,26.39 31.16,26.39 ' style='stroke-width: 1.07; stroke: #333333; stroke-linecap: butt;' clip-path='url(#cpMC4wMHwzMjguMzJ8MjU5LjIwfDAuMDA=)' />
<polyline points='31.16,200.28 266.91,200.28 ' style='stroke-width: 1.07; stroke-linecap: butt;' clip-path='url(#cpMC4wMHwzMjguMzJ8MjU5LjIwfDAuMDA=)' />
<polyline points='40.23,203.02 40.23,200.28 ' style='stroke-width: 1.07; stroke: #333333; stroke-linecap: butt;' clip-path='url(#cpMC4wMHwzMjguMzJ8MjU5LjIwfDAuMDA=)' />
<polyline points='58.37,203.02 58.37,200.28 ' style='stroke-width: 1.07; stroke: #333333; stroke-linecap: butt;' clip-path='url(#cpMC4wMHwzMjguMzJ8MjU5LjIwfDAuMDA=)' />
<polyline points='76.50,203.02 76.50,200.28 ' style='stroke-width: 1.07; stroke: #333333; stroke-linecap: butt;' clip-path='url(#cpMC4wMHwzMjguMzJ8MjU5LjIwfDAuMDA=)' />
<polyline points='94.64,203.02 94.64,200.28 ' style='stroke-width: 1.07; stroke: #333333; stroke-linecap: butt;' clip-path='url(#cpMC4wMHwzMjguMzJ8MjU5LjIwfDAuMDA=)' />
<polyline points='112.77,203.02 112.77,200.28 ' style='stroke-width: 1.07; stroke: #333333; stroke-linecap: butt;' clip-path='url(#cpMC4wMHwzMjguMzJ8MjU5LjIwfDAuMDA=)' />
<polyline points='130.90,203.02 130.90,200.28 ' style='stroke-width: 1.07; stroke: #333333; stroke-linecap: butt;' clip-path='url(#cpMC4wMHwzMjguMzJ8MjU5LjIwfDAuMDA=)' />
<polyline points='149.04,203.02 149.04,200.28 ' style='stroke-width: 1.07; stroke: #333333; stroke-linecap: butt;' clip-path='url(#cpMC4wMHwzMjguMzJ8MjU5LjIwfDAuMDA=)' />
<polyline points='167.17,203.02 167.17,200.28 ' style='stroke-width: 1.07; stroke: #333333; stroke-linecap: butt;' clip-path='url(#cpMC4wMHwzMjguMzJ8MjU5LjIwfDAuMDA=)' />
<polyline points='185.31,203.02 185.31,200.28 ' style='stroke-width: 1.07; stroke: #333333; stroke-linecap: butt;' clip-path='url(#cpMC4wMHwzMjguMzJ8MjU5LjIwfDAuMDA=)' />
<polyline points='203.44,203.02 203.44,200.28 ' style='stroke-width: 1.07; stroke: #333333; stroke-linecap: butt;' clip-path='url(#cpMC4wMHwzMjguMzJ8MjU5LjIwfDAuMDA=)' />
<polyline points='221.58,203.02 221.58,200.28 ' style='stroke-width: 1.07; stroke: #333333; stroke-linecap: butt;' clip-path='url(#cpMC4wMHwzMjguMzJ8MjU5LjIwfDAuMDA=)' />
<polyline points='239.71,203.02 239.71,200.28 ' style='stroke-width: 1.07; stroke: #333333; stroke-linecap: butt;' clip-path='url(#cpMC4wMHwzMjguMzJ8MjU5LjIwfDAuMDA=)' />
<polyline points='257.85,203.02 257.85,200.28 ' style='stroke-width: 1.07; stroke: #333333; stroke-linecap: butt;' clip-path='url(#cpMC4wMHwzMjguMzJ8MjU5LjIwfDAuMDA=)' />
<g clip-path='url(#cpMC4wMHwzMjguMzJ8MjU5LjIwfDAuMDA=)'><text transform='translate(25.26,232.86) rotate(-50)' style='font-size: 8.80px; fill: #4D4D4D; font-family: Arial;' textLength='30.80px' lengthAdjust='spacingAndGlyphs'>RRM2B</text></g>
<g clip-path='url(#cpMC4wMHwzMjguMzJ8MjU5LjIwfDAuMDA=)'><text transform='translate(48.10,227.24) rotate(-50)' style='font-size: 8.80px; fill: #4D4D4D; font-family: Arial;' textLength='23.47px' lengthAdjust='spacingAndGlyphs'>DNA2</text></g>
<g clip-path='url(#cpMC4wMHwzMjguMzJ8MjU5LjIwfDAuMDA=)'><text transform='translate(60.58,233.98) rotate(-50)' style='font-size: 8.80px; fill: #4D4D4D; font-family: Arial;' textLength='32.27px' lengthAdjust='spacingAndGlyphs'>MGME1</text></g>
<g clip-path='url(#cpMC4wMHwzMjguMzJ8MjU5LjIwfDAuMDA=)'><text transform='translate(82.81,229.10) rotate(-50)' style='font-size: 8.80px; fill: #4D4D4D; font-family: Arial;' textLength='25.91px' lengthAdjust='spacingAndGlyphs'>TWNK</text></g>
<g clip-path='url(#cpMC4wMHwzMjguMzJ8MjU5LjIwfDAuMDA=)'><text transform='translate(99.36,230.99) rotate(-50)' style='font-size: 8.80px; fill: #4D4D4D; font-family: Arial;' textLength='28.37px' lengthAdjust='spacingAndGlyphs'>SSBP1</text></g>
<g clip-path='url(#cpMC4wMHwzMjguMzJ8MjU5LjIwfDAuMDA=)'><text transform='translate(120.33,227.61) rotate(-50)' style='font-size: 8.80px; fill: #4D4D4D; font-family: Arial;' textLength='23.95px' lengthAdjust='spacingAndGlyphs'>TFAM</text></g>
<g clip-path='url(#cpMC4wMHwzMjguMzJ8MjU5LjIwfDAuMDA=)'><text transform='translate(132.17,235.11) rotate(-50)' style='font-size: 8.80px; fill: #4D4D4D; font-family: Arial;' textLength='33.74px' lengthAdjust='spacingAndGlyphs'>DNAJA3</text></g>
<g clip-path='url(#cpMC4wMHwzMjguMzJ8MjU5LjIwfDAuMDA=)'><text transform='translate(156.28,227.99) rotate(-50)' style='font-size: 8.80px; fill: #4D4D4D; font-family: Arial;' textLength='24.45px' lengthAdjust='spacingAndGlyphs'>POLG</text></g>
<g clip-path='url(#cpMC4wMHwzMjguMzJ8MjU5LjIwfDAuMDA=)'><text transform='translate(167.50,236.23) rotate(-50)' style='font-size: 8.80px; fill: #4D4D4D; font-family: Arial;' textLength='35.21px' lengthAdjust='spacingAndGlyphs'>STOML2</text></g>
<g clip-path='url(#cpMC4wMHwzMjguMzJ8MjU5LjIwfDAuMDA=)'><text transform='translate(196.01,223.87) rotate(-50)' style='font-size: 8.80px; fill: #4D4D4D; font-family: Arial;' textLength='19.08px' lengthAdjust='spacingAndGlyphs'>LIG3</text></g>
<g clip-path='url(#cpMC4wMHwzMjguMzJ8MjU5LjIwfDAuMDA=)'><text transform='translate(207.54,231.74) rotate(-50)' style='font-size: 8.80px; fill: #4D4D4D; font-family: Arial;' textLength='29.35px' lengthAdjust='spacingAndGlyphs'>POLG2</text></g>
<g clip-path='url(#cpMC4wMHwzMjguMzJ8MjU5LjIwfDAuMDA=)'><text transform='translate(229.76,226.87) rotate(-50)' style='font-size: 8.80px; fill: #4D4D4D; font-family: Arial;' textLength='22.98px' lengthAdjust='spacingAndGlyphs'>ATG7</text></g>
<g clip-path='url(#cpMC4wMHwzMjguMzJ8MjU5LjIwfDAuMDA=)'><text transform='translate(237.21,239.60) rotate(-50)' style='font-size: 8.80px; fill: #4D4D4D; font-family: Arial;' textLength='39.61px' lengthAdjust='spacingAndGlyphs'>PRIMPOL</text></g>
<g clip-path='url(#cpMC4wMHwzMjguMzJ8MjU5LjIwfDAuMDA=)'><text transform='translate(13.35,189.08) rotate(-90)' style='font-size: 11.00px; font-family: Arial;' textLength='154.70px' lengthAdjust='spacingAndGlyphs'>log2 Fold Change relative to D0</text></g>
<rect x='277.87' y='89.78' width='44.97' height='43.91' style='stroke-width: 1.07; stroke: none; fill: #FFFFFF;' clip-path='url(#cpMC4wMHwzMjguMzJ8MjU5LjIwfDAuMDA=)' />
<g clip-path='url(#cpMC4wMHwzMjguMzJ8MjU5LjIwfDAuMDA=)'><text x='283.35' y='104.29' style='font-size: 11.00px; font-family: Arial;' textLength='17.74px' lengthAdjust='spacingAndGlyphs'>day</text></g>
<rect x='284.06' y='111.64' width='15.86' height='15.86' style='stroke-width: 1.07; stroke: none; stroke-linecap: square; stroke-linejoin: miter; fill: #C73C95;' clip-path='url(#cpMC4wMHwzMjguMzJ8MjU5LjIwfDAuMDA=)' />
<g clip-path='url(#cpMC4wMHwzMjguMzJ8MjU5LjIwfDAuMDA=)'><text x='306.11' y='122.72' style='font-size: 8.80px; font-family: Arial;' textLength='11.25px' lengthAdjust='spacingAndGlyphs'>D7</text></g>
<g clip-path='url(#cpMC4wMHwzMjguMzJ8MjU5LjIwfDAuMDA=)'><text x='31.16' y='14.93' style='font-size: 13.20px; font-family: Arial;' textLength='175.38px' lengthAdjust='spacingAndGlyphs'>mitochondrial_dna_replication</text></g>
</svg>
