<?xml version='1.0' encoding='UTF-8' ?>
<svg xmlns='http://www.w3.org/2000/svg' xmlns:xlink='http://www.w3.org/1999/xlink' viewBox='0 0 570.24 259.20'>
<defs>
  <style type='text/css'><![CDATA[
    line, polyline, polygon, path, rect, circle {
      fill: none;
      stroke: #000000;
      stroke-linecap: round;
      stroke-linejoin: round;
      stroke-miterlimit: 10.00;
    }
  ]]></style>
</defs>
<rect width='100%' height='100%' style='stroke: none; fill: #FFFFFF;'/>
<rect x='0.00' y='0.000000000000057' width='570.24' height='259.20' style='stroke-width: 1.07; stroke: #FFFFFF; fill: #FFFFFF;' />
<defs>
  <clipPath id='cpMzguMDJ8NTA4LjgzfDIwMi4xNnwyMy4xOQ=='>
    <rect x='38.02' y='23.19' width='470.81' height='178.97' />
  </clipPath>
</defs>
<rect x='38.02' y='23.19' width='470.81' height='178.97' style='stroke-width: 1.07; stroke: none; fill: #FFFFFF;' clip-path='url(#cpMzguMDJ8NTA4LjgzfDIwMi4xNnwyMy4xOQ==)' />
<rect x='39.77' y='191.11' width='6.97' height='11.04' style='stroke-width: 1.07; stroke: none; stroke-linecap: square; stroke-linejoin: miter; fill: #E4DFFF;' clip-path='url(#cpMzguMDJ8NTA4LjgzfDIwMi4xNnwyMy4xOQ==)' />
<rect x='46.74' y='191.32' width='6.97' height='10.83' style='stroke-width: 1.07; stroke: none; stroke-linecap: square; stroke-linejoin: miter; fill: #7A6FA9;' clip-path='url(#cpMzguMDJ8NTA4LjgzfDIwMi4xNnwyMy4xOQ==)' />
<rect x='57.20' y='199.08' width='6.97' height='3.08' style='stroke-width: 1.07; stroke: none; stroke-linecap: square; stroke-linejoin: miter; fill: #E4DFFF;' clip-path='url(#cpMzguMDJ8NTA4LjgzfDIwMi4xNnwyMy4xOQ==)' />
<rect x='64.18' y='199.50' width='6.97' height='2.65' style='stroke-width: 1.07; stroke: none; stroke-linecap: square; stroke-linejoin: miter; fill: #7A6FA9;' clip-path='url(#cpMzguMDJ8NTA4LjgzfDIwMi4xNnwyMy4xOQ==)' />
<rect x='74.64' y='202.03' width='6.97' height='0.12' style='stroke-width: 1.07; stroke: none; stroke-linecap: square; stroke-linejoin: miter; fill: #E4DFFF;' clip-path='url(#cpMzguMDJ8NTA4LjgzfDIwMi4xNnwyMy4xOQ==)' />
<rect x='81.62' y='123.84' width='6.97' height='78.32' style='stroke-width: 1.07; stroke: none; stroke-linecap: square; stroke-linejoin: miter; fill: #7A6FA9;' clip-path='url(#cpMzguMDJ8NTA4LjgzfDIwMi4xNnwyMy4xOQ==)' />
<rect x='92.08' y='201.11' width='6.97' height='1.05' style='stroke-width: 1.07; stroke: none; stroke-linecap: square; stroke-linejoin: miter; fill: #E4DFFF;' clip-path='url(#cpMzguMDJ8NTA4LjgzfDIwMi4xNnwyMy4xOQ==)' />
<rect x='99.05' y='200.30' width='6.97' height='1.85' style='stroke-width: 1.07; stroke: none; stroke-linecap: square; stroke-linejoin: miter; fill: #7A6FA9;' clip-path='url(#cpMzguMDJ8NTA4LjgzfDIwMi4xNnwyMy4xOQ==)' />
<rect x='109.52' y='197.99' width='6.97' height='4.16' style='stroke-width: 1.07; stroke: none; stroke-linecap: square; stroke-linejoin: miter; fill: #E4DFFF;' clip-path='url(#cpMzguMDJ8NTA4LjgzfDIwMi4xNnwyMy4xOQ==)' />
<rect x='116.49' y='189.43' width='6.97' height='12.72' style='stroke-width: 1.07; stroke: none; stroke-linecap: square; stroke-linejoin: miter; fill: #7A6FA9;' clip-path='url(#cpMzguMDJ8NTA4LjgzfDIwMi4xNnwyMy4xOQ==)' />
<rect x='126.95' y='198.75' width='6.97' height='3.41' style='stroke-width: 1.07; stroke: none; stroke-linecap: square; stroke-linejoin: miter; fill: #E4DFFF;' clip-path='url(#cpMzguMDJ8NTA4LjgzfDIwMi4xNnwyMy4xOQ==)' />
<rect x='133.93' y='199.69' width='6.97' height='2.46' style='stroke-width: 1.07; stroke: none; stroke-linecap: square; stroke-linejoin: miter; fill: #7A6FA9;' clip-path='url(#cpMzguMDJ8NTA4LjgzfDIwMi4xNnwyMy4xOQ==)' />
<rect x='144.39' y='130.22' width='6.97' height='71.94' style='stroke-width: 1.07; stroke: none; stroke-linecap: square; stroke-linejoin: miter; fill: #E4DFFF;' clip-path='url(#cpMzguMDJ8NTA4LjgzfDIwMi4xNnwyMy4xOQ==)' />
<rect x='151.37' y='82.52' width='6.97' height='119.63' style='stroke-width: 1.07; stroke: none; stroke-linecap: square; stroke-linejoin: miter; fill: #7A6FA9;' clip-path='url(#cpMzguMDJ8NTA4LjgzfDIwMi4xNnwyMy4xOQ==)' />
<rect x='161.83' y='186.64' width='6.97' height='15.51' style='stroke-width: 1.07; stroke: none; stroke-linecap: square; stroke-linejoin: miter; fill: #E4DFFF;' clip-path='url(#cpMzguMDJ8NTA4LjgzfDIwMi4xNnwyMy4xOQ==)' />
<rect x='168.80' y='185.27' width='6.97' height='16.89' style='stroke-width: 1.07; stroke: none; stroke-linecap: square; stroke-linejoin: miter; fill: #7A6FA9;' clip-path='url(#cpMzguMDJ8NTA4LjgzfDIwMi4xNnwyMy4xOQ==)' />
<rect x='179.27' y='184.35' width='6.97' height='17.80' style='stroke-width: 1.07; stroke: none; stroke-linecap: square; stroke-linejoin: miter; fill: #E4DFFF;' clip-path='url(#cpMzguMDJ8NTA4LjgzfDIwMi4xNnwyMy4xOQ==)' />
<rect x='186.24' y='184.51' width='6.97' height='17.65' style='stroke-width: 1.07; stroke: none; stroke-linecap: square; stroke-linejoin: miter; fill: #7A6FA9;' clip-path='url(#cpMzguMDJ8NTA4LjgzfDIwMi4xNnwyMy4xOQ==)' />
<rect x='196.70' y='201.78' width='6.97' height='0.37' style='stroke-width: 1.07; stroke: none; stroke-linecap: square; stroke-linejoin: miter; fill: #E4DFFF;' clip-path='url(#cpMzguMDJ8NTA4LjgzfDIwMi4xNnwyMy4xOQ==)' />
<rect x='203.68' y='202.05' width='6.97' height='0.11' style='stroke-width: 1.07; stroke: none; stroke-linecap: square; stroke-linejoin: miter; fill: #7A6FA9;' clip-path='url(#cpMzguMDJ8NTA4LjgzfDIwMi4xNnwyMy4xOQ==)' />
<rect x='214.14' y='172.52' width='6.97' height='29.64' style='stroke-width: 1.07; stroke: none; stroke-linecap: square; stroke-linejoin: miter; fill: #E4DFFF;' clip-path='url(#cpMzguMDJ8NTA4LjgzfDIwMi4xNnwyMy4xOQ==)' />
<rect x='221.12' y='170.31' width='6.97' height='31.85' style='stroke-width: 1.07; stroke: none; stroke-linecap: square; stroke-linejoin: miter; fill: #7A6FA9;' clip-path='url(#cpMzguMDJ8NTA4LjgzfDIwMi4xNnwyMy4xOQ==)' />
<rect x='231.58' y='195.82' width='6.97' height='6.34' style='stroke-width: 1.07; stroke: none; stroke-linecap: square; stroke-linejoin: miter; fill: #E4DFFF;' clip-path='url(#cpMzguMDJ8NTA4LjgzfDIwMi4xNnwyMy4xOQ==)' />
<rect x='238.55' y='199.92' width='6.97' height='2.23' style='stroke-width: 1.07; stroke: none; stroke-linecap: square; stroke-linejoin: miter; fill: #7A6FA9;' clip-path='url(#cpMzguMDJ8NTA4LjgzfDIwMi4xNnwyMy4xOQ==)' />
<rect x='249.02' y='202.08' width='6.97' height='0.077' style='stroke-width: 1.07; stroke: none; stroke-linecap: square; stroke-linejoin: miter; fill: #E4DFFF;' clip-path='url(#cpMzguMDJ8NTA4LjgzfDIwMi4xNnwyMy4xOQ==)' />
<rect x='255.99' y='202.15' width='6.97' height='0.0032' style='stroke-width: 1.07; stroke: none; stroke-linecap: square; stroke-linejoin: miter; fill: #7A6FA9;' clip-path='url(#cpMzguMDJ8NTA4LjgzfDIwMi4xNnwyMy4xOQ==)' />
<rect x='266.45' y='192.72' width='6.97' height='9.43' style='stroke-width: 1.07; stroke: none; stroke-linecap: square; stroke-linejoin: miter; fill: #E4DFFF;' clip-path='url(#cpMzguMDJ8NTA4LjgzfDIwMi4xNnwyMy4xOQ==)' />
<rect x='273.43' y='186.75' width='6.97' height='15.40' style='stroke-width: 1.07; stroke: none; stroke-linecap: square; stroke-linejoin: miter; fill: #7A6FA9;' clip-path='url(#cpMzguMDJ8NTA4LjgzfDIwMi4xNnwyMy4xOQ==)' />
<rect x='283.89' y='197.84' width='6.97' height='4.32' style='stroke-width: 1.07; stroke: none; stroke-linecap: square; stroke-linejoin: miter; fill: #E4DFFF;' clip-path='url(#cpMzguMDJ8NTA4LjgzfDIwMi4xNnwyMy4xOQ==)' />
<rect x='290.87' y='185.19' width='6.97' height='16.96' style='stroke-width: 1.07; stroke: none; stroke-linecap: square; stroke-linejoin: miter; fill: #7A6FA9;' clip-path='url(#cpMzguMDJ8NTA4LjgzfDIwMi4xNnwyMy4xOQ==)' />
<rect x='301.33' y='202.13' width='6.97' height='0.021' style='stroke-width: 1.07; stroke: none; stroke-linecap: square; stroke-linejoin: miter; fill: #E4DFFF;' clip-path='url(#cpMzguMDJ8NTA4LjgzfDIwMi4xNnwyMy4xOQ==)' />
<rect x='308.30' y='201.89' width='6.97' height='0.26' style='stroke-width: 1.07; stroke: none; stroke-linecap: square; stroke-linejoin: miter; fill: #7A6FA9;' clip-path='url(#cpMzguMDJ8NTA4LjgzfDIwMi4xNnwyMy4xOQ==)' />
<rect x='318.77' y='199.94' width='6.97' height='2.21' style='stroke-width: 1.07; stroke: none; stroke-linecap: square; stroke-linejoin: miter; fill: #E4DFFF;' clip-path='url(#cpMzguMDJ8NTA4LjgzfDIwMi4xNnwyMy4xOQ==)' />
<rect x='325.74' y='200.18' width='6.97' height='1.97' style='stroke-width: 1.07; stroke: none; stroke-linecap: square; stroke-linejoin: miter; fill: #7A6FA9;' clip-path='url(#cpMzguMDJ8NTA4LjgzfDIwMi4xNnwyMy4xOQ==)' />
<rect x='336.20' y='194.65' width='6.97' height='7.50' style='stroke-width: 1.07; stroke: none; stroke-linecap: square; stroke-linejoin: miter; fill: #E4DFFF;' clip-path='url(#cpMzguMDJ8NTA4LjgzfDIwMi4xNnwyMy4xOQ==)' />
<rect x='343.18' y='189.46' width='6.97' height='12.70' style='stroke-width: 1.07; stroke: none; stroke-linecap: square; stroke-linejoin: miter; fill: #7A6FA9;' clip-path='url(#cpMzguMDJ8NTA4LjgzfDIwMi4xNnwyMy4xOQ==)' />
<rect x='353.64' y='174.30' width='6.97' height='27.86' style='stroke-width: 1.07; stroke: none; stroke-linecap: square; stroke-linejoin: miter; fill: #E4DFFF;' clip-path='url(#cpMzguMDJ8NTA4LjgzfDIwMi4xNnwyMy4xOQ==)' />
<rect x='360.62' y='175.86' width='6.97' height='26.30' style='stroke-width: 1.07; stroke: none; stroke-linecap: square; stroke-linejoin: miter; fill: #7A6FA9;' clip-path='url(#cpMzguMDJ8NTA4LjgzfDIwMi4xNnwyMy4xOQ==)' />
<rect x='371.08' y='196.60' width='6.97' height='5.56' style='stroke-width: 1.07; stroke: none; stroke-linecap: square; stroke-linejoin: miter; fill: #E4DFFF;' clip-path='url(#cpMzguMDJ8NTA4LjgzfDIwMi4xNnwyMy4xOQ==)' />
<rect x='378.05' y='195.55' width='6.97' height='6.60' style='stroke-width: 1.07; stroke: none; stroke-linecap: square; stroke-linejoin: miter; fill: #7A6FA9;' clip-path='url(#cpMzguMDJ8NTA4LjgzfDIwMi4xNnwyMy4xOQ==)' />
<rect x='388.52' y='200.10' width='6.97' height='2.05' style='stroke-width: 1.07; stroke: none; stroke-linecap: square; stroke-linejoin: miter; fill: #E4DFFF;' clip-path='url(#cpMzguMDJ8NTA4LjgzfDIwMi4xNnwyMy4xOQ==)' />
<rect x='395.49' y='198.15' width='6.97' height='4.01' style='stroke-width: 1.07; stroke: none; stroke-linecap: square; stroke-linejoin: miter; fill: #7A6FA9;' clip-path='url(#cpMzguMDJ8NTA4LjgzfDIwMi4xNnwyMy4xOQ==)' />
<rect x='405.95' y='182.32' width='6.97' height='19.84' style='stroke-width: 1.07; stroke: none; stroke-linecap: square; stroke-linejoin: miter; fill: #E4DFFF;' clip-path='url(#cpMzguMDJ8NTA4LjgzfDIwMi4xNnwyMy4xOQ==)' />
<rect x='412.93' y='194.38' width='6.97' height='7.78' style='stroke-width: 1.07; stroke: none; stroke-linecap: square; stroke-linejoin: miter; fill: #7A6FA9;' clip-path='url(#cpMzguMDJ8NTA4LjgzfDIwMi4xNnwyMy4xOQ==)' />
<rect x='423.39' y='195.73' width='6.97' height='6.42' style='stroke-width: 1.07; stroke: none; stroke-linecap: square; stroke-linejoin: miter; fill: #E4DFFF;' clip-path='url(#cpMzguMDJ8NTA4LjgzfDIwMi4xNnwyMy4xOQ==)' />
<rect x='430.37' y='196.77' width='6.97' height='5.38' style='stroke-width: 1.07; stroke: none; stroke-linecap: square; stroke-linejoin: miter; fill: #7A6FA9;' clip-path='url(#cpMzguMDJ8NTA4LjgzfDIwMi4xNnwyMy4xOQ==)' />
<rect x='440.83' y='197.79' width='6.97' height='4.37' style='stroke-width: 1.07; stroke: none; stroke-linecap: square; stroke-linejoin: miter; fill: #E4DFFF;' clip-path='url(#cpMzguMDJ8NTA4LjgzfDIwMi4xNnwyMy4xOQ==)' />
<rect x='447.80' y='189.64' width='6.97' height='12.52' style='stroke-width: 1.07; stroke: none; stroke-linecap: square; stroke-linejoin: miter; fill: #7A6FA9;' clip-path='url(#cpMzguMDJ8NTA4LjgzfDIwMi4xNnwyMy4xOQ==)' />
<rect x='458.27' y='200.51' width='6.97' height='1.64' style='stroke-width: 1.07; stroke: none; stroke-linecap: square; stroke-linejoin: miter; fill: #E4DFFF;' clip-path='url(#cpMzguMDJ8NTA4LjgzfDIwMi4xNnwyMy4xOQ==)' />
<rect x='465.24' y='201.35' width='6.97' height='0.81' style='stroke-width: 1.07; stroke: none; stroke-linecap: square; stroke-linejoin: miter; fill: #7A6FA9;' clip-path='url(#cpMzguMDJ8NTA4LjgzfDIwMi4xNnwyMy4xOQ==)' />
<rect x='475.70' y='199.06' width='6.97' height='3.10' style='stroke-width: 1.07; stroke: none; stroke-linecap: square; stroke-linejoin: miter; fill: #E4DFFF;' clip-path='url(#cpMzguMDJ8NTA4LjgzfDIwMi4xNnwyMy4xOQ==)' />
<rect x='482.68' y='198.57' width='6.97' height='3.58' style='stroke-width: 1.07; stroke: none; stroke-linecap: square; stroke-linejoin: miter; fill: #7A6FA9;' clip-path='url(#cpMzguMDJ8NTA4LjgzfDIwMi4xNnwyMy4xOQ==)' />
<rect x='493.14' y='201.40' width='6.97' height='0.76' style='stroke-width: 1.07; stroke: none; stroke-linecap: square; stroke-linejoin: miter; fill: #E4DFFF;' clip-path='url(#cpMzguMDJ8NTA4LjgzfDIwMi4xNnwyMy4xOQ==)' />
<rect x='500.12' y='202.05' width='6.97' height='0.11' style='stroke-width: 1.07; stroke: none; stroke-linecap: square; stroke-linejoin: miter; fill: #7A6FA9;' clip-path='url(#cpMzguMDJ8NTA4LjgzfDIwMi4xNnwyMy4xOQ==)' />
<polyline points='41.07,185.86 45.43,185.86 ' style='stroke-width: 1.07; stroke-linecap: butt;' clip-path='url(#cpMzguMDJ8NTA4LjgzfDIwMi4xNnwyMy4xOQ==)' />
<polyline points='43.25,185.86 43.25,196.37 ' style='stroke-width: 1.07; stroke-linecap: butt;' clip-path='url(#cpMzguMDJ8NTA4LjgzfDIwMi4xNnwyMy4xOQ==)' />
<polyline points='41.07,196.37 45.43,196.37 ' style='stroke-width: 1.07; stroke-linecap: butt;' clip-path='url(#cpMzguMDJ8NTA4LjgzfDIwMi4xNnwyMy4xOQ==)' />
<polyline points='48.05,188.32 52.41,188.32 ' style='stroke-width: 1.07; stroke-linecap: butt;' clip-path='url(#cpMzguMDJ8NTA4LjgzfDIwMi4xNnwyMy4xOQ==)' />
<polyline points='50.23,188.32 50.23,194.32 ' style='stroke-width: 1.07; stroke-linecap: butt;' clip-path='url(#cpMzguMDJ8NTA4LjgzfDIwMi4xNnwyMy4xOQ==)' />
<polyline points='48.05,194.32 52.41,194.32 ' style='stroke-width: 1.07; stroke-linecap: butt;' clip-path='url(#cpMzguMDJ8NTA4LjgzfDIwMi4xNnwyMy4xOQ==)' />
<polyline points='58.51,198.75 62.87,198.75 ' style='stroke-width: 1.07; stroke-linecap: butt;' clip-path='url(#cpMzguMDJ8NTA4LjgzfDIwMi4xNnwyMy4xOQ==)' />
<polyline points='60.69,198.75 60.69,199.41 ' style='stroke-width: 1.07; stroke-linecap: butt;' clip-path='url(#cpMzguMDJ8NTA4LjgzfDIwMi4xNnwyMy4xOQ==)' />
<polyline points='58.51,199.41 62.87,199.41 ' style='stroke-width: 1.07; stroke-linecap: butt;' clip-path='url(#cpMzguMDJ8NTA4LjgzfDIwMi4xNnwyMy4xOQ==)' />
<polyline points='65.49,199.26 69.85,199.26 ' style='stroke-width: 1.07; stroke-linecap: butt;' clip-path='url(#cpMzguMDJ8NTA4LjgzfDIwMi4xNnwyMy4xOQ==)' />
<polyline points='67.67,199.26 67.67,199.75 ' style='stroke-width: 1.07; stroke-linecap: butt;' clip-path='url(#cpMzguMDJ8NTA4LjgzfDIwMi4xNnwyMy4xOQ==)' />
<polyline points='65.49,199.75 69.85,199.75 ' style='stroke-width: 1.07; stroke-linecap: butt;' clip-path='url(#cpMzguMDJ8NTA4LjgzfDIwMi4xNnwyMy4xOQ==)' />
<polyline points='75.95,201.96 80.31,201.96 ' style='stroke-width: 1.07; stroke-linecap: butt;' clip-path='url(#cpMzguMDJ8NTA4LjgzfDIwMi4xNnwyMy4xOQ==)' />
<polyline points='78.13,201.96 78.13,202.10 ' style='stroke-width: 1.07; stroke-linecap: butt;' clip-path='url(#cpMzguMDJ8NTA4LjgzfDIwMi4xNnwyMy4xOQ==)' />
<polyline points='75.95,202.10 80.31,202.10 ' style='stroke-width: 1.07; stroke-linecap: butt;' clip-path='url(#cpMzguMDJ8NTA4LjgzfDIwMi4xNnwyMy4xOQ==)' />
<polyline points='82.92,37.51 87.28,37.51 ' style='stroke-width: 1.07; stroke-linecap: butt;' clip-path='url(#cpMzguMDJ8NTA4LjgzfDIwMi4xNnwyMy4xOQ==)' />
<polyline points='85.10,37.51 85.10,202.16 ' style='stroke-width: 1.07; stroke-linecap: butt;' clip-path='url(#cpMzguMDJ8NTA4LjgzfDIwMi4xNnwyMy4xOQ==)' />
<polyline points='82.92,202.16 87.28,202.16 ' style='stroke-width: 1.07; stroke-linecap: butt;' clip-path='url(#cpMzguMDJ8NTA4LjgzfDIwMi4xNnwyMy4xOQ==)' />
<polyline points='93.39,200.96 97.75,200.96 ' style='stroke-width: 1.07; stroke-linecap: butt;' clip-path='url(#cpMzguMDJ8NTA4LjgzfDIwMi4xNnwyMy4xOQ==)' />
<polyline points='95.57,200.96 95.57,201.25 ' style='stroke-width: 1.07; stroke-linecap: butt;' clip-path='url(#cpMzguMDJ8NTA4LjgzfDIwMi4xNnwyMy4xOQ==)' />
<polyline points='93.39,201.25 97.75,201.25 ' style='stroke-width: 1.07; stroke-linecap: butt;' clip-path='url(#cpMzguMDJ8NTA4LjgzfDIwMi4xNnwyMy4xOQ==)' />
<polyline points='100.36,199.97 104.72,199.97 ' style='stroke-width: 1.07; stroke-linecap: butt;' clip-path='url(#cpMzguMDJ8NTA4LjgzfDIwMi4xNnwyMy4xOQ==)' />
<polyline points='102.54,199.97 102.54,200.64 ' style='stroke-width: 1.07; stroke-linecap: butt;' clip-path='url(#cpMzguMDJ8NTA4LjgzfDIwMi4xNnwyMy4xOQ==)' />
<polyline points='100.36,200.64 104.72,200.64 ' style='stroke-width: 1.07; stroke-linecap: butt;' clip-path='url(#cpMzguMDJ8NTA4LjgzfDIwMi4xNnwyMy4xOQ==)' />
<polyline points='110.82,196.63 115.18,196.63 ' style='stroke-width: 1.07; stroke-linecap: butt;' clip-path='url(#cpMzguMDJ8NTA4LjgzfDIwMi4xNnwyMy4xOQ==)' />
<polyline points='113.00,196.63 113.00,199.36 ' style='stroke-width: 1.07; stroke-linecap: butt;' clip-path='url(#cpMzguMDJ8NTA4LjgzfDIwMi4xNnwyMy4xOQ==)' />
<polyline points='110.82,199.36 115.18,199.36 ' style='stroke-width: 1.07; stroke-linecap: butt;' clip-path='url(#cpMzguMDJ8NTA4LjgzfDIwMi4xNnwyMy4xOQ==)' />
<polyline points='117.80,187.60 122.16,187.60 ' style='stroke-width: 1.07; stroke-linecap: butt;' clip-path='url(#cpMzguMDJ8NTA4LjgzfDIwMi4xNnwyMy4xOQ==)' />
<polyline points='119.98,187.60 119.98,191.26 ' style='stroke-width: 1.07; stroke-linecap: butt;' clip-path='url(#cpMzguMDJ8NTA4LjgzfDIwMi4xNnwyMy4xOQ==)' />
<polyline points='117.80,191.26 122.16,191.26 ' style='stroke-width: 1.07; stroke-linecap: butt;' clip-path='url(#cpMzguMDJ8NTA4LjgzfDIwMi4xNnwyMy4xOQ==)' />
<polyline points='128.26,198.38 132.62,198.38 ' style='stroke-width: 1.07; stroke-linecap: butt;' clip-path='url(#cpMzguMDJ8NTA4LjgzfDIwMi4xNnwyMy4xOQ==)' />
<polyline points='130.44,198.38 130.44,199.12 ' style='stroke-width: 1.07; stroke-linecap: butt;' clip-path='url(#cpMzguMDJ8NTA4LjgzfDIwMi4xNnwyMy4xOQ==)' />
<polyline points='128.26,199.12 132.62,199.12 ' style='stroke-width: 1.07; stroke-linecap: butt;' clip-path='url(#cpMzguMDJ8NTA4LjgzfDIwMi4xNnwyMy4xOQ==)' />
<polyline points='135.24,199.40 139.60,199.40 ' style='stroke-width: 1.07; stroke-linecap: butt;' clip-path='url(#cpMzguMDJ8NTA4LjgzfDIwMi4xNnwyMy4xOQ==)' />
<polyline points='137.42,199.40 137.42,199.99 ' style='stroke-width: 1.07; stroke-linecap: butt;' clip-path='url(#cpMzguMDJ8NTA4LjgzfDIwMi4xNnwyMy4xOQ==)' />
<polyline points='135.24,199.99 139.60,199.99 ' style='stroke-width: 1.07; stroke-linecap: butt;' clip-path='url(#cpMzguMDJ8NTA4LjgzfDIwMi4xNnwyMy4xOQ==)' />
<polyline points='145.70,106.81 150.06,106.81 ' style='stroke-width: 1.07; stroke-linecap: butt;' clip-path='url(#cpMzguMDJ8NTA4LjgzfDIwMi4xNnwyMy4xOQ==)' />
<polyline points='147.88,106.81 147.88,153.62 ' style='stroke-width: 1.07; stroke-linecap: butt;' clip-path='url(#cpMzguMDJ8NTA4LjgzfDIwMi4xNnwyMy4xOQ==)' />
<polyline points='145.70,153.62 150.06,153.62 ' style='stroke-width: 1.07; stroke-linecap: butt;' clip-path='url(#cpMzguMDJ8NTA4LjgzfDIwMi4xNnwyMy4xOQ==)' />
<polyline points='152.67,23.19 157.03,23.19 ' style='stroke-width: 1.07; stroke-linecap: butt;' clip-path='url(#cpMzguMDJ8NTA4LjgzfDIwMi4xNnwyMy4xOQ==)' />
<polyline points='154.85,23.19 154.85,141.86 ' style='stroke-width: 1.07; stroke-linecap: butt;' clip-path='url(#cpMzguMDJ8NTA4LjgzfDIwMi4xNnwyMy4xOQ==)' />
<polyline points='152.67,141.86 157.03,141.86 ' style='stroke-width: 1.07; stroke-linecap: butt;' clip-path='url(#cpMzguMDJ8NTA4LjgzfDIwMi4xNnwyMy4xOQ==)' />
<polyline points='163.14,184.88 167.50,184.88 ' style='stroke-width: 1.07; stroke-linecap: butt;' clip-path='url(#cpMzguMDJ8NTA4LjgzfDIwMi4xNnwyMy4xOQ==)' />
<polyline points='165.32,184.88 165.32,188.40 ' style='stroke-width: 1.07; stroke-linecap: butt;' clip-path='url(#cpMzguMDJ8NTA4LjgzfDIwMi4xNnwyMy4xOQ==)' />
<polyline points='163.14,188.40 167.50,188.40 ' style='stroke-width: 1.07; stroke-linecap: butt;' clip-path='url(#cpMzguMDJ8NTA4LjgzfDIwMi4xNnwyMy4xOQ==)' />
<polyline points='170.11,182.57 174.47,182.57 ' style='stroke-width: 1.07; stroke-linecap: butt;' clip-path='url(#cpMzguMDJ8NTA4LjgzfDIwMi4xNnwyMy4xOQ==)' />
<polyline points='172.29,182.57 172.29,187.96 ' style='stroke-width: 1.07; stroke-linecap: butt;' clip-path='url(#cpMzguMDJ8NTA4LjgzfDIwMi4xNnwyMy4xOQ==)' />
<polyline points='170.11,187.96 174.47,187.96 ' style='stroke-width: 1.07; stroke-linecap: butt;' clip-path='url(#cpMzguMDJ8NTA4LjgzfDIwMi4xNnwyMy4xOQ==)' />
<polyline points='180.57,183.18 184.93,183.18 ' style='stroke-width: 1.07; stroke-linecap: butt;' clip-path='url(#cpMzguMDJ8NTA4LjgzfDIwMi4xNnwyMy4xOQ==)' />
<polyline points='182.75,183.18 182.75,185.52 ' style='stroke-width: 1.07; stroke-linecap: butt;' clip-path='url(#cpMzguMDJ8NTA4LjgzfDIwMi4xNnwyMy4xOQ==)' />
<polyline points='180.57,185.52 184.93,185.52 ' style='stroke-width: 1.07; stroke-linecap: butt;' clip-path='url(#cpMzguMDJ8NTA4LjgzfDIwMi4xNnwyMy4xOQ==)' />
<polyline points='187.55,182.44 191.91,182.44 ' style='stroke-width: 1.07; stroke-linecap: butt;' clip-path='url(#cpMzguMDJ8NTA4LjgzfDIwMi4xNnwyMy4xOQ==)' />
<polyline points='189.73,182.44 189.73,186.58 ' style='stroke-width: 1.07; stroke-linecap: butt;' clip-path='url(#cpMzguMDJ8NTA4LjgzfDIwMi4xNnwyMy4xOQ==)' />
<polyline points='187.55,186.58 191.91,186.58 ' style='stroke-width: 1.07; stroke-linecap: butt;' clip-path='url(#cpMzguMDJ8NTA4LjgzfDIwMi4xNnwyMy4xOQ==)' />
<polyline points='198.01,201.69 202.37,201.69 ' style='stroke-width: 1.07; stroke-linecap: butt;' clip-path='url(#cpMzguMDJ8NTA4LjgzfDIwMi4xNnwyMy4xOQ==)' />
<polyline points='200.19,201.69 200.19,201.87 ' style='stroke-width: 1.07; stroke-linecap: butt;' clip-path='url(#cpMzguMDJ8NTA4LjgzfDIwMi4xNnwyMy4xOQ==)' />
<polyline points='198.01,201.87 202.37,201.87 ' style='stroke-width: 1.07; stroke-linecap: butt;' clip-path='url(#cpMzguMDJ8NTA4LjgzfDIwMi4xNnwyMy4xOQ==)' />
<polyline points='204.99,202.00 209.35,202.00 ' style='stroke-width: 1.07; stroke-linecap: butt;' clip-path='url(#cpMzguMDJ8NTA4LjgzfDIwMi4xNnwyMy4xOQ==)' />
<polyline points='207.17,202.00 207.17,202.09 ' style='stroke-width: 1.07; stroke-linecap: butt;' clip-path='url(#cpMzguMDJ8NTA4LjgzfDIwMi4xNnwyMy4xOQ==)' />
<polyline points='204.99,202.09 209.35,202.09 ' style='stroke-width: 1.07; stroke-linecap: butt;' clip-path='url(#cpMzguMDJ8NTA4LjgzfDIwMi4xNnwyMy4xOQ==)' />
<polyline points='215.45,170.29 219.81,170.29 ' style='stroke-width: 1.07; stroke-linecap: butt;' clip-path='url(#cpMzguMDJ8NTA4LjgzfDIwMi4xNnwyMy4xOQ==)' />
<polyline points='217.63,170.29 217.63,174.74 ' style='stroke-width: 1.07; stroke-linecap: butt;' clip-path='url(#cpMzguMDJ8NTA4LjgzfDIwMi4xNnwyMy4xOQ==)' />
<polyline points='215.45,174.74 219.81,174.74 ' style='stroke-width: 1.07; stroke-linecap: butt;' clip-path='url(#cpMzguMDJ8NTA4LjgzfDIwMi4xNnwyMy4xOQ==)' />
<polyline points='222.42,166.10 226.78,166.10 ' style='stroke-width: 1.07; stroke-linecap: butt;' clip-path='url(#cpMzguMDJ8NTA4LjgzfDIwMi4xNnwyMy4xOQ==)' />
<polyline points='224.60,166.10 224.60,174.51 ' style='stroke-width: 1.07; stroke-linecap: butt;' clip-path='url(#cpMzguMDJ8NTA4LjgzfDIwMi4xNnwyMy4xOQ==)' />
<polyline points='222.42,174.51 226.78,174.51 ' style='stroke-width: 1.07; stroke-linecap: butt;' clip-path='url(#cpMzguMDJ8NTA4LjgzfDIwMi4xNnwyMy4xOQ==)' />
<polyline points='232.89,193.68 237.25,193.68 ' style='stroke-width: 1.07; stroke-linecap: butt;' clip-path='url(#cpMzguMDJ8NTA4LjgzfDIwMi4xNnwyMy4xOQ==)' />
<polyline points='235.07,193.68 235.07,197.95 ' style='stroke-width: 1.07; stroke-linecap: butt;' clip-path='url(#cpMzguMDJ8NTA4LjgzfDIwMi4xNnwyMy4xOQ==)' />
<polyline points='232.89,197.95 237.25,197.95 ' style='stroke-width: 1.07; stroke-linecap: butt;' clip-path='url(#cpMzguMDJ8NTA4LjgzfDIwMi4xNnwyMy4xOQ==)' />
<polyline points='239.86,199.00 244.22,199.00 ' style='stroke-width: 1.07; stroke-linecap: butt;' clip-path='url(#cpMzguMDJ8NTA4LjgzfDIwMi4xNnwyMy4xOQ==)' />
<polyline points='242.04,199.00 242.04,200.85 ' style='stroke-width: 1.07; stroke-linecap: butt;' clip-path='url(#cpMzguMDJ8NTA4LjgzfDIwMi4xNnwyMy4xOQ==)' />
<polyline points='239.86,200.85 244.22,200.85 ' style='stroke-width: 1.07; stroke-linecap: butt;' clip-path='url(#cpMzguMDJ8NTA4LjgzfDIwMi4xNnwyMy4xOQ==)' />
<polyline points='250.32,202.04 254.68,202.04 ' style='stroke-width: 1.07; stroke-linecap: butt;' clip-path='url(#cpMzguMDJ8NTA4LjgzfDIwMi4xNnwyMy4xOQ==)' />
<polyline points='252.50,202.04 252.50,202.12 ' style='stroke-width: 1.07; stroke-linecap: butt;' clip-path='url(#cpMzguMDJ8NTA4LjgzfDIwMi4xNnwyMy4xOQ==)' />
<polyline points='250.32,202.12 254.68,202.12 ' style='stroke-width: 1.07; stroke-linecap: butt;' clip-path='url(#cpMzguMDJ8NTA4LjgzfDIwMi4xNnwyMy4xOQ==)' />
<polyline points='257.30,202.15 261.66,202.15 ' style='stroke-width: 1.07; stroke-linecap: butt;' clip-path='url(#cpMzguMDJ8NTA4LjgzfDIwMi4xNnwyMy4xOQ==)' />
<polyline points='259.48,202.15 259.48,202.16 ' style='stroke-width: 1.07; stroke-linecap: butt;' clip-path='url(#cpMzguMDJ8NTA4LjgzfDIwMi4xNnwyMy4xOQ==)' />
<polyline points='257.30,202.16 261.66,202.16 ' style='stroke-width: 1.07; stroke-linecap: butt;' clip-path='url(#cpMzguMDJ8NTA4LjgzfDIwMi4xNnwyMy4xOQ==)' />
<polyline points='267.76,191.58 272.12,191.58 ' style='stroke-width: 1.07; stroke-linecap: butt;' clip-path='url(#cpMzguMDJ8NTA4LjgzfDIwMi4xNnwyMy4xOQ==)' />
<polyline points='269.94,191.58 269.94,193.87 ' style='stroke-width: 1.07; stroke-linecap: butt;' clip-path='url(#cpMzguMDJ8NTA4LjgzfDIwMi4xNnwyMy4xOQ==)' />
<polyline points='267.76,193.87 272.12,193.87 ' style='stroke-width: 1.07; stroke-linecap: butt;' clip-path='url(#cpMzguMDJ8NTA4LjgzfDIwMi4xNnwyMy4xOQ==)' />
<polyline points='274.74,184.35 279.10,184.35 ' style='stroke-width: 1.07; stroke-linecap: butt;' clip-path='url(#cpMzguMDJ8NTA4LjgzfDIwMi4xNnwyMy4xOQ==)' />
<polyline points='276.92,184.35 276.92,189.16 ' style='stroke-width: 1.07; stroke-linecap: butt;' clip-path='url(#cpMzguMDJ8NTA4LjgzfDIwMi4xNnwyMy4xOQ==)' />
<polyline points='274.74,189.16 279.10,189.16 ' style='stroke-width: 1.07; stroke-linecap: butt;' clip-path='url(#cpMzguMDJ8NTA4LjgzfDIwMi4xNnwyMy4xOQ==)' />
<polyline points='285.20,196.45 289.56,196.45 ' style='stroke-width: 1.07; stroke-linecap: butt;' clip-path='url(#cpMzguMDJ8NTA4LjgzfDIwMi4xNnwyMy4xOQ==)' />
<polyline points='287.38,196.45 287.38,199.23 ' style='stroke-width: 1.07; stroke-linecap: butt;' clip-path='url(#cpMzguMDJ8NTA4LjgzfDIwMi4xNnwyMy4xOQ==)' />
<polyline points='285.20,199.23 289.56,199.23 ' style='stroke-width: 1.07; stroke-linecap: butt;' clip-path='url(#cpMzguMDJ8NTA4LjgzfDIwMi4xNnwyMy4xOQ==)' />
<polyline points='292.17,173.05 296.53,173.05 ' style='stroke-width: 1.07; stroke-linecap: butt;' clip-path='url(#cpMzguMDJ8NTA4LjgzfDIwMi4xNnwyMy4xOQ==)' />
<polyline points='294.35,173.05 294.35,197.34 ' style='stroke-width: 1.07; stroke-linecap: butt;' clip-path='url(#cpMzguMDJ8NTA4LjgzfDIwMi4xNnwyMy4xOQ==)' />
<polyline points='292.17,197.34 296.53,197.34 ' style='stroke-width: 1.07; stroke-linecap: butt;' clip-path='url(#cpMzguMDJ8NTA4LjgzfDIwMi4xNnwyMy4xOQ==)' />
<polyline points='302.64,202.12 307.00,202.12 ' style='stroke-width: 1.07; stroke-linecap: butt;' clip-path='url(#cpMzguMDJ8NTA4LjgzfDIwMi4xNnwyMy4xOQ==)' />
<polyline points='304.82,202.12 304.82,202.15 ' style='stroke-width: 1.07; stroke-linecap: butt;' clip-path='url(#cpMzguMDJ8NTA4LjgzfDIwMi4xNnwyMy4xOQ==)' />
<polyline points='302.64,202.15 307.00,202.15 ' style='stroke-width: 1.07; stroke-linecap: butt;' clip-path='url(#cpMzguMDJ8NTA4LjgzfDIwMi4xNnwyMy4xOQ==)' />
<polyline points='309.61,201.71 313.97,201.71 ' style='stroke-width: 1.07; stroke-linecap: butt;' clip-path='url(#cpMzguMDJ8NTA4LjgzfDIwMi4xNnwyMy4xOQ==)' />
<polyline points='311.79,201.71 311.79,202.07 ' style='stroke-width: 1.07; stroke-linecap: butt;' clip-path='url(#cpMzguMDJ8NTA4LjgzfDIwMi4xNnwyMy4xOQ==)' />
<polyline points='309.61,202.07 313.97,202.07 ' style='stroke-width: 1.07; stroke-linecap: butt;' clip-path='url(#cpMzguMDJ8NTA4LjgzfDIwMi4xNnwyMy4xOQ==)' />
<polyline points='320.07,197.75 324.43,197.75 ' style='stroke-width: 1.07; stroke-linecap: butt;' clip-path='url(#cpMzguMDJ8NTA4LjgzfDIwMi4xNnwyMy4xOQ==)' />
<polyline points='322.25,197.75 322.25,202.14 ' style='stroke-width: 1.07; stroke-linecap: butt;' clip-path='url(#cpMzguMDJ8NTA4LjgzfDIwMi4xNnwyMy4xOQ==)' />
<polyline points='320.07,202.14 324.43,202.14 ' style='stroke-width: 1.07; stroke-linecap: butt;' clip-path='url(#cpMzguMDJ8NTA4LjgzfDIwMi4xNnwyMy4xOQ==)' />
<polyline points='327.05,198.06 331.41,198.06 ' style='stroke-width: 1.07; stroke-linecap: butt;' clip-path='url(#cpMzguMDJ8NTA4LjgzfDIwMi4xNnwyMy4xOQ==)' />
<polyline points='329.23,198.06 329.23,202.16 ' style='stroke-width: 1.07; stroke-linecap: butt;' clip-path='url(#cpMzguMDJ8NTA4LjgzfDIwMi4xNnwyMy4xOQ==)' />
<polyline points='327.05,202.16 331.41,202.16 ' style='stroke-width: 1.07; stroke-linecap: butt;' clip-path='url(#cpMzguMDJ8NTA4LjgzfDIwMi4xNnwyMy4xOQ==)' />
<polyline points='337.51,193.40 341.87,193.40 ' style='stroke-width: 1.07; stroke-linecap: butt;' clip-path='url(#cpMzguMDJ8NTA4LjgzfDIwMi4xNnwyMy4xOQ==)' />
<polyline points='339.69,193.40 339.69,195.90 ' style='stroke-width: 1.07; stroke-linecap: butt;' clip-path='url(#cpMzguMDJ8NTA4LjgzfDIwMi4xNnwyMy4xOQ==)' />
<polyline points='337.51,195.90 341.87,195.90 ' style='stroke-width: 1.07; stroke-linecap: butt;' clip-path='url(#cpMzguMDJ8NTA4LjgzfDIwMi4xNnwyMy4xOQ==)' />
<polyline points='344.49,188.10 348.85,188.10 ' style='stroke-width: 1.07; stroke-linecap: butt;' clip-path='url(#cpMzguMDJ8NTA4LjgzfDIwMi4xNnwyMy4xOQ==)' />
<polyline points='346.67,188.10 346.67,190.82 ' style='stroke-width: 1.07; stroke-linecap: butt;' clip-path='url(#cpMzguMDJ8NTA4LjgzfDIwMi4xNnwyMy4xOQ==)' />
<polyline points='344.49,190.82 348.85,190.82 ' style='stroke-width: 1.07; stroke-linecap: butt;' clip-path='url(#cpMzguMDJ8NTA4LjgzfDIwMi4xNnwyMy4xOQ==)' />
<polyline points='354.95,171.88 359.31,171.88 ' style='stroke-width: 1.07; stroke-linecap: butt;' clip-path='url(#cpMzguMDJ8NTA4LjgzfDIwMi4xNnwyMy4xOQ==)' />
<polyline points='357.13,171.88 357.13,176.71 ' style='stroke-width: 1.07; stroke-linecap: butt;' clip-path='url(#cpMzguMDJ8NTA4LjgzfDIwMi4xNnwyMy4xOQ==)' />
<polyline points='354.95,176.71 359.31,176.71 ' style='stroke-width: 1.07; stroke-linecap: butt;' clip-path='url(#cpMzguMDJ8NTA4LjgzfDIwMi4xNnwyMy4xOQ==)' />
<polyline points='361.92,173.72 366.28,173.72 ' style='stroke-width: 1.07; stroke-linecap: butt;' clip-path='url(#cpMzguMDJ8NTA4LjgzfDIwMi4xNnwyMy4xOQ==)' />
<polyline points='364.10,173.72 364.10,178.00 ' style='stroke-width: 1.07; stroke-linecap: butt;' clip-path='url(#cpMzguMDJ8NTA4LjgzfDIwMi4xNnwyMy4xOQ==)' />
<polyline points='361.92,178.00 366.28,178.00 ' style='stroke-width: 1.07; stroke-linecap: butt;' clip-path='url(#cpMzguMDJ8NTA4LjgzfDIwMi4xNnwyMy4xOQ==)' />
<polyline points='372.39,196.35 376.75,196.35 ' style='stroke-width: 1.07; stroke-linecap: butt;' clip-path='url(#cpMzguMDJ8NTA4LjgzfDIwMi4xNnwyMy4xOQ==)' />
<polyline points='374.57,196.35 374.57,196.85 ' style='stroke-width: 1.07; stroke-linecap: butt;' clip-path='url(#cpMzguMDJ8NTA4LjgzfDIwMi4xNnwyMy4xOQ==)' />
<polyline points='372.39,196.85 376.75,196.85 ' style='stroke-width: 1.07; stroke-linecap: butt;' clip-path='url(#cpMzguMDJ8NTA4LjgzfDIwMi4xNnwyMy4xOQ==)' />
<polyline points='379.36,194.76 383.72,194.76 ' style='stroke-width: 1.07; stroke-linecap: butt;' clip-path='url(#cpMzguMDJ8NTA4LjgzfDIwMi4xNnwyMy4xOQ==)' />
<polyline points='381.54,194.76 381.54,196.34 ' style='stroke-width: 1.07; stroke-linecap: butt;' clip-path='url(#cpMzguMDJ8NTA4LjgzfDIwMi4xNnwyMy4xOQ==)' />
<polyline points='379.36,196.34 383.72,196.34 ' style='stroke-width: 1.07; stroke-linecap: butt;' clip-path='url(#cpMzguMDJ8NTA4LjgzfDIwMi4xNnwyMy4xOQ==)' />
<polyline points='389.82,199.98 394.18,199.98 ' style='stroke-width: 1.07; stroke-linecap: butt;' clip-path='url(#cpMzguMDJ8NTA4LjgzfDIwMi4xNnwyMy4xOQ==)' />
<polyline points='392.00,199.98 392.00,200.23 ' style='stroke-width: 1.07; stroke-linecap: butt;' clip-path='url(#cpMzguMDJ8NTA4LjgzfDIwMi4xNnwyMy4xOQ==)' />
<polyline points='389.82,200.23 394.18,200.23 ' style='stroke-width: 1.07; stroke-linecap: butt;' clip-path='url(#cpMzguMDJ8NTA4LjgzfDIwMi4xNnwyMy4xOQ==)' />
<polyline points='396.80,196.79 401.16,196.79 ' style='stroke-width: 1.07; stroke-linecap: butt;' clip-path='url(#cpMzguMDJ8NTA4LjgzfDIwMi4xNnwyMy4xOQ==)' />
<polyline points='398.98,196.79 398.98,199.50 ' style='stroke-width: 1.07; stroke-linecap: butt;' clip-path='url(#cpMzguMDJ8NTA4LjgzfDIwMi4xNnwyMy4xOQ==)' />
<polyline points='396.80,199.50 401.16,199.50 ' style='stroke-width: 1.07; stroke-linecap: butt;' clip-path='url(#cpMzguMDJ8NTA4LjgzfDIwMi4xNnwyMy4xOQ==)' />
<polyline points='407.26,180.01 411.62,180.01 ' style='stroke-width: 1.07; stroke-linecap: butt;' clip-path='url(#cpMzguMDJ8NTA4LjgzfDIwMi4xNnwyMy4xOQ==)' />
<polyline points='409.44,180.01 409.44,184.62 ' style='stroke-width: 1.07; stroke-linecap: butt;' clip-path='url(#cpMzguMDJ8NTA4LjgzfDIwMi4xNnwyMy4xOQ==)' />
<polyline points='407.26,184.62 411.62,184.62 ' style='stroke-width: 1.07; stroke-linecap: butt;' clip-path='url(#cpMzguMDJ8NTA4LjgzfDIwMi4xNnwyMy4xOQ==)' />
<polyline points='414.24,193.42 418.60,193.42 ' style='stroke-width: 1.07; stroke-linecap: butt;' clip-path='url(#cpMzguMDJ8NTA4LjgzfDIwMi4xNnwyMy4xOQ==)' />
<polyline points='416.42,193.42 416.42,195.33 ' style='stroke-width: 1.07; stroke-linecap: butt;' clip-path='url(#cpMzguMDJ8NTA4LjgzfDIwMi4xNnwyMy4xOQ==)' />
<polyline points='414.24,195.33 418.60,195.33 ' style='stroke-width: 1.07; stroke-linecap: butt;' clip-path='url(#cpMzguMDJ8NTA4LjgzfDIwMi4xNnwyMy4xOQ==)' />
<polyline points='424.70,195.09 429.06,195.09 ' style='stroke-width: 1.07; stroke-linecap: butt;' clip-path='url(#cpMzguMDJ8NTA4LjgzfDIwMi4xNnwyMy4xOQ==)' />
<polyline points='426.88,195.09 426.88,196.37 ' style='stroke-width: 1.07; stroke-linecap: butt;' clip-path='url(#cpMzguMDJ8NTA4LjgzfDIwMi4xNnwyMy4xOQ==)' />
<polyline points='424.70,196.37 429.06,196.37 ' style='stroke-width: 1.07; stroke-linecap: butt;' clip-path='url(#cpMzguMDJ8NTA4LjgzfDIwMi4xNnwyMy4xOQ==)' />
<polyline points='431.67,196.01 436.03,196.01 ' style='stroke-width: 1.07; stroke-linecap: butt;' clip-path='url(#cpMzguMDJ8NTA4LjgzfDIwMi4xNnwyMy4xOQ==)' />
<polyline points='433.85,196.01 433.85,197.54 ' style='stroke-width: 1.07; stroke-linecap: butt;' clip-path='url(#cpMzguMDJ8NTA4LjgzfDIwMi4xNnwyMy4xOQ==)' />
<polyline points='431.67,197.54 436.03,197.54 ' style='stroke-width: 1.07; stroke-linecap: butt;' clip-path='url(#cpMzguMDJ8NTA4LjgzfDIwMi4xNnwyMy4xOQ==)' />
<polyline points='442.14,197.26 446.50,197.26 ' style='stroke-width: 1.07; stroke-linecap: butt;' clip-path='url(#cpMzguMDJ8NTA4LjgzfDIwMi4xNnwyMy4xOQ==)' />
<polyline points='444.32,197.26 444.32,198.32 ' style='stroke-width: 1.07; stroke-linecap: butt;' clip-path='url(#cpMzguMDJ8NTA4LjgzfDIwMi4xNnwyMy4xOQ==)' />
<polyline points='442.14,198.32 446.50,198.32 ' style='stroke-width: 1.07; stroke-linecap: butt;' clip-path='url(#cpMzguMDJ8NTA4LjgzfDIwMi4xNnwyMy4xOQ==)' />
<polyline points='449.11,187.14 453.47,187.14 ' style='stroke-width: 1.07; stroke-linecap: butt;' clip-path='url(#cpMzguMDJ8NTA4LjgzfDIwMi4xNnwyMy4xOQ==)' />
<polyline points='451.29,187.14 451.29,192.13 ' style='stroke-width: 1.07; stroke-linecap: butt;' clip-path='url(#cpMzguMDJ8NTA4LjgzfDIwMi4xNnwyMy4xOQ==)' />
<polyline points='449.11,192.13 453.47,192.13 ' style='stroke-width: 1.07; stroke-linecap: butt;' clip-path='url(#cpMzguMDJ8NTA4LjgzfDIwMi4xNnwyMy4xOQ==)' />
<polyline points='459.57,200.35 463.93,200.35 ' style='stroke-width: 1.07; stroke-linecap: butt;' clip-path='url(#cpMzguMDJ8NTA4LjgzfDIwMi4xNnwyMy4xOQ==)' />
<polyline points='461.75,200.35 461.75,200.67 ' style='stroke-width: 1.07; stroke-linecap: butt;' clip-path='url(#cpMzguMDJ8NTA4LjgzfDIwMi4xNnwyMy4xOQ==)' />
<polyline points='459.57,200.67 463.93,200.67 ' style='stroke-width: 1.07; stroke-linecap: butt;' clip-path='url(#cpMzguMDJ8NTA4LjgzfDIwMi4xNnwyMy4xOQ==)' />
<polyline points='466.55,201.24 470.91,201.24 ' style='stroke-width: 1.07; stroke-linecap: butt;' clip-path='url(#cpMzguMDJ8NTA4LjgzfDIwMi4xNnwyMy4xOQ==)' />
<polyline points='468.73,201.24 468.73,201.45 ' style='stroke-width: 1.07; stroke-linecap: butt;' clip-path='url(#cpMzguMDJ8NTA4LjgzfDIwMi4xNnwyMy4xOQ==)' />
<polyline points='466.55,201.45 470.91,201.45 ' style='stroke-width: 1.07; stroke-linecap: butt;' clip-path='url(#cpMzguMDJ8NTA4LjgzfDIwMi4xNnwyMy4xOQ==)' />
<polyline points='477.01,198.80 481.37,198.80 ' style='stroke-width: 1.07; stroke-linecap: butt;' clip-path='url(#cpMzguMDJ8NTA4LjgzfDIwMi4xNnwyMy4xOQ==)' />
<polyline points='479.19,198.80 479.19,199.31 ' style='stroke-width: 1.07; stroke-linecap: butt;' clip-path='url(#cpMzguMDJ8NTA4LjgzfDIwMi4xNnwyMy4xOQ==)' />
<polyline points='477.01,199.31 481.37,199.31 ' style='stroke-width: 1.07; stroke-linecap: butt;' clip-path='url(#cpMzguMDJ8NTA4LjgzfDIwMi4xNnwyMy4xOQ==)' />
<polyline points='483.99,197.75 488.35,197.75 ' style='stroke-width: 1.07; stroke-linecap: butt;' clip-path='url(#cpMzguMDJ8NTA4LjgzfDIwMi4xNnwyMy4xOQ==)' />
<polyline points='486.17,197.75 486.17,199.39 ' style='stroke-width: 1.07; stroke-linecap: butt;' clip-path='url(#cpMzguMDJ8NTA4LjgzfDIwMi4xNnwyMy4xOQ==)' />
<polyline points='483.99,199.39 488.35,199.39 ' style='stroke-width: 1.07; stroke-linecap: butt;' clip-path='url(#cpMzguMDJ8NTA4LjgzfDIwMi4xNnwyMy4xOQ==)' />
<polyline points='494.45,201.22 498.81,201.22 ' style='stroke-width: 1.07; stroke-linecap: butt;' clip-path='url(#cpMzguMDJ8NTA4LjgzfDIwMi4xNnwyMy4xOQ==)' />
<polyline points='496.63,201.22 496.63,201.58 ' style='stroke-width: 1.07; stroke-linecap: butt;' clip-path='url(#cpMzguMDJ8NTA4LjgzfDIwMi4xNnwyMy4xOQ==)' />
<polyline points='494.45,201.58 498.81,201.58 ' style='stroke-width: 1.07; stroke-linecap: butt;' clip-path='url(#cpMzguMDJ8NTA4LjgzfDIwMi4xNnwyMy4xOQ==)' />
<polyline points='501.42,201.97 505.78,201.97 ' style='stroke-width: 1.07; stroke-linecap: butt;' clip-path='url(#cpMzguMDJ8NTA4LjgzfDIwMi4xNnwyMy4xOQ==)' />
<polyline points='503.60,201.97 503.60,202.13 ' style='stroke-width: 1.07; stroke-linecap: butt;' clip-path='url(#cpMzguMDJ8NTA4LjgzfDIwMi4xNnwyMy4xOQ==)' />
<polyline points='501.42,202.13 505.78,202.13 ' style='stroke-width: 1.07; stroke-linecap: butt;' clip-path='url(#cpMzguMDJ8NTA4LjgzfDIwMi4xNnwyMy4xOQ==)' />
<defs>
  <clipPath id='cpMC4wMHw1NzAuMjR8MjU5LjIwfDAuMDA='>
    <rect x='0.00' y='0.00' width='570.24' height='259.20' />
  </clipPath>
</defs>
<polyline points='38.02,202.16 38.02,23.19 ' style='stroke-width: 1.07; stroke-linecap: butt;' clip-path='url(#cpMC4wMHw1NzAuMjR8MjU5LjIwfDAuMDA=)' />
<g clip-path='url(#cpMC4wMHw1NzAuMjR8MjU5LjIwfDAuMDA=)'><text x='28.20' y='205.30' style='font-size: 8.80px; fill: #4D4D4D; font-family: Arial;' textLength='4.89px' lengthAdjust='spacingAndGlyphs'>0</text></g>
<g clip-path='url(#cpMC4wMHw1NzAuMjR8MjU5LjIwfDAuMDA=)'><text x='18.41' y='172.43' style='font-size: 8.80px; fill: #4D4D4D; font-family: Arial;' textLength='14.68px' lengthAdjust='spacingAndGlyphs'>100</text></g>
<g clip-path='url(#cpMC4wMHw1NzAuMjR8MjU5LjIwfDAuMDA=)'><text x='18.41' y='139.55' style='font-size: 8.80px; fill: #4D4D4D; font-family: Arial;' textLength='14.68px' lengthAdjust='spacingAndGlyphs'>200</text></g>
<g clip-path='url(#cpMC4wMHw1NzAuMjR8MjU5LjIwfDAuMDA=)'><text x='18.41' y='106.67' style='font-size: 8.80px; fill: #4D4D4D; font-family: Arial;' textLength='14.68px' lengthAdjust='spacingAndGlyphs'>300</text></g>
<g clip-path='url(#cpMC4wMHw1NzAuMjR8MjU5LjIwfDAuMDA=)'><text x='18.41' y='73.79' style='font-size: 8.80px; fill: #4D4D4D; font-family: Arial;' textLength='14.68px' lengthAdjust='spacingAndGlyphs'>400</text></g>
<g clip-path='url(#cpMC4wMHw1NzAuMjR8MjU5LjIwfDAuMDA=)'><text x='18.41' y='40.92' style='font-size: 8.80px; fill: #4D4D4D; font-family: Arial;' textLength='14.68px' lengthAdjust='spacingAndGlyphs'>500</text></g>
<polyline points='35.28,202.16 38.02,202.16 ' style='stroke-width: 1.07; stroke: #333333; stroke-linecap: butt;' clip-path='url(#cpMC4wMHw1NzAuMjR8MjU5LjIwfDAuMDA=)' />
<polyline points='35.28,169.28 38.02,169.28 ' style='stroke-width: 1.07; stroke: #333333; stroke-linecap: butt;' clip-path='url(#cpMC4wMHw1NzAuMjR8MjU5LjIwfDAuMDA=)' />
<polyline points='35.28,136.40 38.02,136.40 ' style='stroke-width: 1.07; stroke: #333333; stroke-linecap: butt;' clip-path='url(#cpMC4wMHw1NzAuMjR8MjU5LjIwfDAuMDA=)' />
<polyline points='35.28,103.52 38.02,103.52 ' style='stroke-width: 1.07; stroke: #333333; stroke-linecap: butt;' clip-path='url(#cpMC4wMHw1NzAuMjR8MjU5LjIwfDAuMDA=)' />
<polyline points='35.28,70.64 38.02,70.64 ' style='stroke-width: 1.07; stroke: #333333; stroke-linecap: butt;' clip-path='url(#cpMC4wMHw1NzAuMjR8MjU5LjIwfDAuMDA=)' />
<polyline points='35.28,37.77 38.02,37.77 ' style='stroke-width: 1.07; stroke: #333333; stroke-linecap: butt;' clip-path='url(#cpMC4wMHw1NzAuMjR8MjU5LjIwfDAuMDA=)' />
<polyline points='38.02,202.16 508.83,202.16 ' style='stroke-width: 1.07; stroke-linecap: butt;' clip-path='url(#cpMC4wMHw1NzAuMjR8MjU5LjIwfDAuMDA=)' />
<polyline points='46.74,204.89 46.74,202.16 ' style='stroke-width: 1.07; stroke: #333333; stroke-linecap: butt;' clip-path='url(#cpMC4wMHw1NzAuMjR8MjU5LjIwfDAuMDA=)' />
<polyline points='64.18,204.89 64.18,202.16 ' style='stroke-width: 1.07; stroke: #333333; stroke-linecap: butt;' clip-path='url(#cpMC4wMHw1NzAuMjR8MjU5LjIwfDAuMDA=)' />
<polyline points='81.62,204.89 81.62,202.16 ' style='stroke-width: 1.07; stroke: #333333; stroke-linecap: butt;' clip-path='url(#cpMC4wMHw1NzAuMjR8MjU5LjIwfDAuMDA=)' />
<polyline points='99.05,204.89 99.05,202.16 ' style='stroke-width: 1.07; stroke: #333333; stroke-linecap: butt;' clip-path='url(#cpMC4wMHw1NzAuMjR8MjU5LjIwfDAuMDA=)' />
<polyline points='116.49,204.89 116.49,202.16 ' style='stroke-width: 1.07; stroke: #333333; stroke-linecap: butt;' clip-path='url(#cpMC4wMHw1NzAuMjR8MjU5LjIwfDAuMDA=)' />
<polyline points='133.93,204.89 133.93,202.16 ' style='stroke-width: 1.07; stroke: #333333; stroke-linecap: butt;' clip-path='url(#cpMC4wMHw1NzAuMjR8MjU5LjIwfDAuMDA=)' />
<polyline points='151.37,204.89 151.37,202.16 ' style='stroke-width: 1.07; stroke: #333333; stroke-linecap: butt;' clip-path='url(#cpMC4wMHw1NzAuMjR8MjU5LjIwfDAuMDA=)' />
<polyline points='168.80,204.89 168.80,202.16 ' style='stroke-width: 1.07; stroke: #333333; stroke-linecap: butt;' clip-path='url(#cpMC4wMHw1NzAuMjR8MjU5LjIwfDAuMDA=)' />
<polyline points='186.24,204.89 186.24,202.16 ' style='stroke-width: 1.07; stroke: #333333; stroke-linecap: butt;' clip-path='url(#cpMC4wMHw1NzAuMjR8MjU5LjIwfDAuMDA=)' />
<polyline points='203.68,204.89 203.68,202.16 ' style='stroke-width: 1.07; stroke: #333333; stroke-linecap: butt;' clip-path='url(#cpMC4wMHw1NzAuMjR8MjU5LjIwfDAuMDA=)' />
<polyline points='221.12,204.89 221.12,202.16 ' style='stroke-width: 1.07; stroke: #333333; stroke-linecap: butt;' clip-path='url(#cpMC4wMHw1NzAuMjR8MjU5LjIwfDAuMDA=)' />
<polyline points='238.55,204.89 238.55,202.16 ' style='stroke-width: 1.07; stroke: #333333; stroke-linecap: butt;' clip-path='url(#cpMC4wMHw1NzAuMjR8MjU5LjIwfDAuMDA=)' />
<polyline points='255.99,204.89 255.99,202.16 ' style='stroke-width: 1.07; stroke: #333333; stroke-linecap: butt;' clip-path='url(#cpMC4wMHw1NzAuMjR8MjU5LjIwfDAuMDA=)' />
<polyline points='273.43,204.89 273.43,202.16 ' style='stroke-width: 1.07; stroke: #333333; stroke-linecap: butt;' clip-path='url(#cpMC4wMHw1NzAuMjR8MjU5LjIwfDAuMDA=)' />
<polyline points='290.87,204.89 290.87,202.16 ' style='stroke-width: 1.07; stroke: #333333; stroke-linecap: butt;' clip-path='url(#cpMC4wMHw1NzAuMjR8MjU5LjIwfDAuMDA=)' />
<polyline points='308.30,204.89 308.30,202.16 ' style='stroke-width: 1.07; stroke: #333333; stroke-linecap: butt;' clip-path='url(#cpMC4wMHw1NzAuMjR8MjU5LjIwfDAuMDA=)' />
<polyline points='325.74,204.89 325.74,202.16 ' style='stroke-width: 1.07; stroke: #333333; stroke-linecap: butt;' clip-path='url(#cpMC4wMHw1NzAuMjR8MjU5LjIwfDAuMDA=)' />
<polyline points='343.18,204.89 343.18,202.16 ' style='stroke-width: 1.07; stroke: #333333; stroke-linecap: butt;' clip-path='url(#cpMC4wMHw1NzAuMjR8MjU5LjIwfDAuMDA=)' />
<polyline points='360.62,204.89 360.62,202.16 ' style='stroke-width: 1.07; stroke: #333333; stroke-linecap: butt;' clip-path='url(#cpMC4wMHw1NzAuMjR8MjU5LjIwfDAuMDA=)' />
<polyline points='378.05,204.89 378.05,202.16 ' style='stroke-width: 1.07; stroke: #333333; stroke-linecap: butt;' clip-path='url(#cpMC4wMHw1NzAuMjR8MjU5LjIwfDAuMDA=)' />
<polyline points='395.49,204.89 395.49,202.16 ' style='stroke-width: 1.07; stroke: #333333; stroke-linecap: butt;' clip-path='url(#cpMC4wMHw1NzAuMjR8MjU5LjIwfDAuMDA=)' />
<polyline points='412.93,204.89 412.93,202.16 ' style='stroke-width: 1.07; stroke: #333333; stroke-linecap: butt;' clip-path='url(#cpMC4wMHw1NzAuMjR8MjU5LjIwfDAuMDA=)' />
<polyline points='430.37,204.89 430.37,202.16 ' style='stroke-width: 1.07; stroke: #333333; stroke-linecap: butt;' clip-path='url(#cpMC4wMHw1NzAuMjR8MjU5LjIwfDAuMDA=)' />
<polyline points='447.80,204.89 447.80,202.16 ' style='stroke-width: 1.07; stroke: #333333; stroke-linecap: butt;' clip-path='url(#cpMC4wMHw1NzAuMjR8MjU5LjIwfDAuMDA=)' />
<polyline points='465.24,204.89 465.24,202.16 ' style='stroke-width: 1.07; stroke: #333333; stroke-linecap: butt;' clip-path='url(#cpMC4wMHw1NzAuMjR8MjU5LjIwfDAuMDA=)' />
<polyline points='482.68,204.89 482.68,202.16 ' style='stroke-width: 1.07; stroke: #333333; stroke-linecap: butt;' clip-path='url(#cpMC4wMHw1NzAuMjR8MjU5LjIwfDAuMDA=)' />
<polyline points='500.12,204.89 500.12,202.16 ' style='stroke-width: 1.07; stroke: #333333; stroke-linecap: butt;' clip-path='url(#cpMC4wMHw1NzAuMjR8MjU5LjIwfDAuMDA=)' />
<g clip-path='url(#cpMC4wMHw1NzAuMjR8MjU5LjIwfDAuMDA=)'><text transform='translate(35.22,230.62) rotate(-50)' style='font-size: 8.80px; fill: #4D4D4D; font-family: Arial;' textLength='25.43px' lengthAdjust='spacingAndGlyphs'>BNIP3</text></g>
<g clip-path='url(#cpMC4wMHw1NzAuMjR8MjU5LjIwfDAuMDA=)'><text transform='translate(50.45,233.24) rotate(-50)' style='font-size: 8.80px; fill: #4D4D4D; font-family: Arial;' textLength='28.86px' lengthAdjust='spacingAndGlyphs'>COX10</text></g>
<g clip-path='url(#cpMC4wMHw1NzAuMjR8MjU5LjIwfDAuMDA=)'><text transform='translate(74.19,225.74) rotate(-50)' style='font-size: 8.80px; fill: #4D4D4D; font-family: Arial;' textLength='19.07px' lengthAdjust='spacingAndGlyphs'>DCN</text></g>
<g clip-path='url(#cpMC4wMHw1NzAuMjR8MjU5LjIwfDAuMDA=)'><text transform='translate(84.39,234.36) rotate(-50)' style='font-size: 8.80px; fill: #4D4D4D; font-family: Arial;' textLength='30.31px' lengthAdjust='spacingAndGlyphs'>DDHD1</text></g>
<g clip-path='url(#cpMC4wMHw1NzAuMjR8MjU5LjIwfDAuMDA=)'><text transform='translate(101.83,234.36) rotate(-50)' style='font-size: 8.80px; fill: #4D4D4D; font-family: Arial;' textLength='30.31px' lengthAdjust='spacingAndGlyphs'>DDHD2</text></g>
<g clip-path='url(#cpMC4wMHw1NzAuMjR8MjU5LjIwfDAuMDA=)'><text transform='translate(118.01,235.85) rotate(-50)' style='font-size: 8.80px; fill: #4D4D4D; font-family: Arial;' textLength='32.27px' lengthAdjust='spacingAndGlyphs'>DHODH</text></g>
<g clip-path='url(#cpMC4wMHw1NzAuMjR8MjU5LjIwfDAuMDA=)'><text transform='translate(140.16,230.24) rotate(-50)' style='font-size: 8.80px; fill: #4D4D4D; font-family: Arial;' textLength='24.93px' lengthAdjust='spacingAndGlyphs'>DNM1</text></g>
<g clip-path='url(#cpMC4wMHw1NzAuMjR8MjU5LjIwfDAuMDA=)'><text transform='translate(154.46,233.99) rotate(-50)' style='font-size: 8.80px; fill: #4D4D4D; font-family: Arial;' textLength='29.83px' lengthAdjust='spacingAndGlyphs'>DNM1L</text></g>
<g clip-path='url(#cpMC4wMHw1NzAuMjR8MjU5LjIwfDAuMDA=)'><text transform='translate(175.04,230.24) rotate(-50)' style='font-size: 8.80px; fill: #4D4D4D; font-family: Arial;' textLength='24.93px' lengthAdjust='spacingAndGlyphs'>DNM2</text></g>
<g clip-path='url(#cpMC4wMHw1NzAuMjR8MjU5LjIwfDAuMDA=)'><text transform='translate(192.48,230.24) rotate(-50)' style='font-size: 8.80px; fill: #4D4D4D; font-family: Arial;' textLength='24.93px' lengthAdjust='spacingAndGlyphs'>DNM3</text></g>
<g clip-path='url(#cpMC4wMHw1NzAuMjR8MjU5LjIwfDAuMDA=)'><text transform='translate(214.00,225.37) rotate(-50)' style='font-size: 8.80px; fill: #4D4D4D; font-family: Arial;' textLength='18.58px' lengthAdjust='spacingAndGlyphs'>FIS1</text></g>
<g clip-path='url(#cpMC4wMHw1NzAuMjR8MjU5LjIwfDAuMDA=)'><text transform='translate(224.20,233.99) rotate(-50)' style='font-size: 8.80px; fill: #4D4D4D; font-family: Arial;' textLength='29.83px' lengthAdjust='spacingAndGlyphs'>GDAP1</text></g>
<g clip-path='url(#cpMC4wMHw1NzAuMjR8MjU5LjIwfDAuMDA=)'><text transform='translate(237.24,239.23) rotate(-50)' style='font-size: 8.80px; fill: #4D4D4D; font-family: Arial;' textLength='36.68px' lengthAdjust='spacingAndGlyphs'>GGNBP1</text></g>
<g clip-path='url(#cpMC4wMHw1NzAuMjR8MjU5LjIwfDAuMDA=)'><text transform='translate(266.00,225.74) rotate(-50)' style='font-size: 8.80px; fill: #4D4D4D; font-family: Arial;' textLength='19.07px' lengthAdjust='spacingAndGlyphs'>INF2</text></g>
<g clip-path='url(#cpMC4wMHw1NzAuMjR8MjU5LjIwfDAuMDA=)'><text transform='translate(283.75,225.37) rotate(-50)' style='font-size: 8.80px; fill: #4D4D4D; font-family: Arial;' textLength='18.58px' lengthAdjust='spacingAndGlyphs'>KDR</text></g>
<g clip-path='url(#cpMC4wMHw1NzAuMjR8MjU5LjIwfDAuMDA=)'><text transform='translate(294.89,232.87) rotate(-50)' style='font-size: 8.80px; fill: #4D4D4D; font-family: Arial;' textLength='28.37px' lengthAdjust='spacingAndGlyphs'>LRRK2</text></g>
<g clip-path='url(#cpMC4wMHw1NzAuMjR8MjU5LjIwfDAuMDA=)'><text transform='translate(314.85,229.86) rotate(-50)' style='font-size: 8.80px; fill: #4D4D4D; font-family: Arial;' textLength='24.44px' lengthAdjust='spacingAndGlyphs'>MAPT</text></g>
<g clip-path='url(#cpMC4wMHw1NzAuMjR8MjU5LjIwfDAuMDA=)'><text transform='translate(324.12,239.60) rotate(-50)' style='font-size: 8.80px; fill: #4D4D4D; font-family: Arial;' textLength='37.16px' lengthAdjust='spacingAndGlyphs'>MARCH5</text></g>
<g clip-path='url(#cpMC4wMHw1NzAuMjR8MjU5LjIwfDAuMDA=)'><text transform='translate(353.82,224.99) rotate(-50)' style='font-size: 8.80px; fill: #4D4D4D; font-family: Arial;' textLength='18.08px' lengthAdjust='spacingAndGlyphs'>MFF</text></g>
<g clip-path='url(#cpMC4wMHw1NzAuMjR8MjU5LjIwfDAuMDA=)'><text transform='translate(366.22,230.99) rotate(-50)' style='font-size: 8.80px; fill: #4D4D4D; font-family: Arial;' textLength='25.91px' lengthAdjust='spacingAndGlyphs'>MIEF1</text></g>
<g clip-path='url(#cpMC4wMHw1NzAuMjR8MjU5LjIwfDAuMDA=)'><text transform='translate(383.66,230.99) rotate(-50)' style='font-size: 8.80px; fill: #4D4D4D; font-family: Arial;' textLength='25.91px' lengthAdjust='spacingAndGlyphs'>MIEF2</text></g>
<g clip-path='url(#cpMC4wMHw1NzAuMjR8MjU5LjIwfDAuMDA=)'><text transform='translate(399.21,233.23) rotate(-50)' style='font-size: 8.80px; fill: #4D4D4D; font-family: Arial;' textLength='28.84px' lengthAdjust='spacingAndGlyphs'>MTFP1</text></g>
<g clip-path='url(#cpMC4wMHw1NzAuMjR8MjU5LjIwfDAuMDA=)'><text transform='translate(416.34,233.60) rotate(-50)' style='font-size: 8.80px; fill: #4D4D4D; font-family: Arial;' textLength='29.33px' lengthAdjust='spacingAndGlyphs'>MTFR1</text></g>
<g clip-path='url(#cpMC4wMHw1NzAuMjR8MjU5LjIwfDAuMDA=)'><text transform='translate(430.63,237.35) rotate(-50)' style='font-size: 8.80px; fill: #4D4D4D; font-family: Arial;' textLength='34.22px' lengthAdjust='spacingAndGlyphs'>MTFR1L</text></g>
<g clip-path='url(#cpMC4wMHw1NzAuMjR8MjU5LjIwfDAuMDA=)'><text transform='translate(451.21,233.60) rotate(-50)' style='font-size: 8.80px; fill: #4D4D4D; font-family: Arial;' textLength='29.33px' lengthAdjust='spacingAndGlyphs'>MTFR2</text></g>
<g clip-path='url(#cpMC4wMHw1NzAuMjR8MjU5LjIwfDAuMDA=)'><text transform='translate(472.41,229.12) rotate(-50)' style='font-size: 8.80px; fill: #4D4D4D; font-family: Arial;' textLength='23.47px' lengthAdjust='spacingAndGlyphs'>MUL1</text></g>
<g clip-path='url(#cpMC4wMHw1NzAuMjR8MjU5LjIwfDAuMDA=)'><text transform='translate(493.31,225.00) rotate(-50)' style='font-size: 8.80px; fill: #4D4D4D; font-family: Arial;' textLength='18.09px' lengthAdjust='spacingAndGlyphs'>MX1</text></g>
<g clip-path='url(#cpMC4wMHw1NzAuMjR8MjU5LjIwfDAuMDA=)'><text transform='translate(13.35,124.28) rotate(-90)' style='font-size: 11.00px; font-family: Arial;' textLength='23.22px' lengthAdjust='spacingAndGlyphs'>TPM</text></g>
<rect x='519.79' y='82.08' width='44.97' height='61.19' style='stroke-width: 1.07; stroke: none; fill: #FFFFFF;' clip-path='url(#cpMC4wMHw1NzAuMjR8MjU5LjIwfDAuMDA=)' />
<g clip-path='url(#cpMC4wMHw1NzAuMjR8MjU5LjIwfDAuMDA=)'><text x='525.27' y='96.59' style='font-size: 11.00px; font-family: Arial;' textLength='17.74px' lengthAdjust='spacingAndGlyphs'>day</text></g>
<rect x='525.98' y='103.93' width='15.86' height='15.86' style='stroke-width: 1.07; stroke: none; stroke-linecap: square; stroke-linejoin: miter; fill: #E4DFFF;' clip-path='url(#cpMC4wMHw1NzAuMjR8MjU5LjIwfDAuMDA=)' />
<rect x='525.98' y='121.21' width='15.86' height='15.86' style='stroke-width: 1.07; stroke: none; stroke-linecap: square; stroke-linejoin: miter; fill: #7A6FA9;' clip-path='url(#cpMC4wMHw1NzAuMjR8MjU5LjIwfDAuMDA=)' />
<g clip-path='url(#cpMC4wMHw1NzAuMjR8MjU5LjIwfDAuMDA=)'><text x='548.03' y='115.01' style='font-size: 8.80px; font-family: Arial;' textLength='11.25px' lengthAdjust='spacingAndGlyphs'>D0</text></g>
<g clip-path='url(#cpMC4wMHw1NzAuMjR8MjU5LjIwfDAuMDA=)'><text x='548.03' y='132.29' style='font-size: 8.80px; font-family: Arial;' textLength='11.25px' lengthAdjust='spacingAndGlyphs'>D7</text></g>
<g clip-path='url(#cpMC4wMHw1NzAuMjR8MjU5LjIwfDAuMDA=)'><text x='38.02' y='14.93' style='font-size: 13.20px; font-family: Arial;' textLength='123.26px' lengthAdjust='spacingAndGlyphs'>mitochondrial_fission</text></g>
</svg>
