<?xml version='1.0' encoding='UTF-8' ?>
<svg xmlns='http://www.w3.org/2000/svg' xmlns:xlink='http://www.w3.org/1999/xlink' class='svglite' width='440.64pt' height='259.20pt' viewBox='0 0 440.64 259.20'>
<defs>
  <style type='text/css'><![CDATA[
    .svglite line, .svglite polyline, .svglite polygon, .svglite path, .svglite rect, .svglite circle {
      fill: none;
      stroke: #000000;
      stroke-linecap: round;
      stroke-linejoin: round;
      stroke-miterlimit: 10.00;
    }
  ]]></style>
</defs>
<rect width='100%' height='100%' style='stroke: none; fill: #FFFFFF;'/>
<defs>
  <clipPath id='cpMC4wMHw0NDAuNjR8MC4wMHwyNTkuMjA='>
    <rect x='0.00' y='0.00' width='440.64' height='259.20' />
  </clipPath>
</defs>
<g clip-path='url(#cpMC4wMHw0NDAuNjR8MC4wMHwyNTkuMjA=)'>
<rect x='0.00' y='0.00' width='440.64' height='259.20' style='stroke-width: 1.07; stroke: #FFFFFF; fill: #FFFFFF;' />
</g>
<defs>
  <clipPath id='cpMzIuMjN8MzcyLjUyfDIzLjMyfDIwMC43Nw=='>
    <rect x='32.23' y='23.32' width='340.29' height='177.44' />
  </clipPath>
</defs>
<g clip-path='url(#cpMzIuMjN8MzcyLjUyfDIzLjMyfDIwMC43Nw==)'>
<rect x='32.23' y='23.32' width='340.29' height='177.44' style='stroke-width: 1.07; stroke: none; fill: #FFFFFF;' />
<line x1='32.23' y1='112.04' x2='372.52' y2='112.04' style='stroke-width: 1.07; stroke: #333333; stroke-dasharray: 5.69,5.69; stroke-linecap: butt;' />
<rect x='113.38' y='112.04' width='10.47' height='2.03' style='stroke-width: 1.07; stroke: none; stroke-linecap: square; stroke-linejoin: miter; fill: #FFADD9;' />
<rect x='244.26' y='112.04' width='10.47' height='44.68' style='stroke-width: 1.07; stroke: none; stroke-linecap: square; stroke-linejoin: miter; fill: #FFADD9;' />
<rect x='87.20' y='112.04' width='10.47' height='8.63' style='stroke-width: 1.07; stroke: none; stroke-linecap: square; stroke-linejoin: miter; fill: #FFADD9;' />
<rect x='270.43' y='112.04' width='10.47' height='18.58' style='stroke-width: 1.07; stroke: none; stroke-linecap: square; stroke-linejoin: miter; fill: #FFADD9;' />
<rect x='348.96' y='112.04' width='10.47' height='14.28' style='stroke-width: 1.07; stroke: none; stroke-linecap: square; stroke-linejoin: miter; fill: #FFADD9;' />
<rect x='296.61' y='112.04' width='10.47' height='7.52' style='stroke-width: 1.07; stroke: none; stroke-linecap: square; stroke-linejoin: miter; fill: #FFADD9;' />
<rect x='139.55' y='112.04' width='10.47' height='6.59' style='stroke-width: 1.07; stroke: none; stroke-linecap: square; stroke-linejoin: miter; fill: #FFADD9;' />
<rect x='61.02' y='112.04' width='10.47' height='4.61' style='stroke-width: 1.07; stroke: none; stroke-linecap: square; stroke-linejoin: miter; fill: #FFADD9;' />
<rect x='165.73' y='112.04' width='10.47' height='4.44' style='stroke-width: 1.07; stroke: none; stroke-linecap: square; stroke-linejoin: miter; fill: #FFADD9;' />
<rect x='218.08' y='108.52' width='10.47' height='3.52' style='stroke-width: 1.07; stroke: none; stroke-linecap: square; stroke-linejoin: miter; fill: #FFADD9;' />
<rect x='322.78' y='112.04' width='10.47' height='7.93' style='stroke-width: 1.07; stroke: none; stroke-linecap: square; stroke-linejoin: miter; fill: #FFADD9;' />
<rect x='34.85' y='107.24' width='10.47' height='4.80' style='stroke-width: 1.07; stroke: none; stroke-linecap: square; stroke-linejoin: miter; fill: #FFADD9;' />
<rect x='191.90' y='112.04' width='10.47' height='4.46' style='stroke-width: 1.07; stroke: none; stroke-linecap: square; stroke-linejoin: miter; fill: #FFADD9;' />
<rect x='123.85' y='112.04' width='10.47' height='21.76' style='stroke-width: 1.07; stroke: none; stroke-linecap: square; stroke-linejoin: miter; fill: #7C1E5B;' />
<rect x='254.73' y='112.04' width='10.47' height='32.38' style='stroke-width: 1.07; stroke: none; stroke-linecap: square; stroke-linejoin: miter; fill: #7C1E5B;' />
<rect x='97.67' y='111.81' width='10.47' height='0.23' style='stroke-width: 1.07; stroke: none; stroke-linecap: square; stroke-linejoin: miter; fill: #7C1E5B;' />
<rect x='280.90' y='112.04' width='10.47' height='22.18' style='stroke-width: 1.07; stroke: none; stroke-linecap: square; stroke-linejoin: miter; fill: #7C1E5B;' />
<rect x='359.43' y='112.04' width='10.47' height='15.19' style='stroke-width: 1.07; stroke: none; stroke-linecap: square; stroke-linejoin: miter; fill: #7C1E5B;' />
<rect x='307.08' y='112.04' width='10.47' height='14.30' style='stroke-width: 1.07; stroke: none; stroke-linecap: square; stroke-linejoin: miter; fill: #7C1E5B;' />
<rect x='150.02' y='112.04' width='10.47' height='27.09' style='stroke-width: 1.07; stroke: none; stroke-linecap: square; stroke-linejoin: miter; fill: #7C1E5B;' />
<rect x='71.49' y='112.04' width='10.47' height='68.76' style='stroke-width: 1.07; stroke: none; stroke-linecap: square; stroke-linejoin: miter; fill: #7C1E5B;' />
<rect x='176.20' y='108.40' width='10.47' height='3.64' style='stroke-width: 1.07; stroke: none; stroke-linecap: square; stroke-linejoin: miter; fill: #7C1E5B;' />
<rect x='228.55' y='108.83' width='10.47' height='3.21' style='stroke-width: 1.07; stroke: none; stroke-linecap: square; stroke-linejoin: miter; fill: #7C1E5B;' />
<rect x='333.26' y='112.04' width='10.47' height='8.29' style='stroke-width: 1.07; stroke: none; stroke-linecap: square; stroke-linejoin: miter; fill: #7C1E5B;' />
<rect x='45.32' y='112.04' width='10.47' height='3.05' style='stroke-width: 1.07; stroke: none; stroke-linecap: square; stroke-linejoin: miter; fill: #7C1E5B;' />
<rect x='202.37' y='112.04' width='10.47' height='15.56' style='stroke-width: 1.07; stroke: none; stroke-linecap: square; stroke-linejoin: miter; fill: #7C1E5B;' />
<polyline points='115.99,111.10 121.23,111.10 ' style='stroke-width: 1.07; stroke-linecap: butt;' />
<polyline points='118.61,111.10 118.61,117.05 ' style='stroke-width: 1.07; stroke-linecap: butt;' />
<polyline points='115.99,117.05 121.23,117.05 ' style='stroke-width: 1.07; stroke-linecap: butt;' />
<polyline points='246.87,151.45 252.11,151.45 ' style='stroke-width: 1.07; stroke-linecap: butt;' />
<polyline points='249.49,151.45 249.49,162.00 ' style='stroke-width: 1.07; stroke-linecap: butt;' />
<polyline points='246.87,162.00 252.11,162.00 ' style='stroke-width: 1.07; stroke-linecap: butt;' />
<polyline points='89.82,117.95 95.05,117.95 ' style='stroke-width: 1.07; stroke-linecap: butt;' />
<polyline points='92.44,117.95 92.44,123.40 ' style='stroke-width: 1.07; stroke-linecap: butt;' />
<polyline points='89.82,123.40 95.05,123.40 ' style='stroke-width: 1.07; stroke-linecap: butt;' />
<polyline points='273.05,125.53 278.29,125.53 ' style='stroke-width: 1.07; stroke-linecap: butt;' />
<polyline points='275.67,125.53 275.67,135.72 ' style='stroke-width: 1.07; stroke-linecap: butt;' />
<polyline points='273.05,135.72 278.29,135.72 ' style='stroke-width: 1.07; stroke-linecap: butt;' />
<polyline points='351.58,121.92 356.81,121.92 ' style='stroke-width: 1.07; stroke-linecap: butt;' />
<polyline points='354.20,121.92 354.20,130.72 ' style='stroke-width: 1.07; stroke-linecap: butt;' />
<polyline points='351.58,130.72 356.81,130.72 ' style='stroke-width: 1.07; stroke-linecap: butt;' />
<polyline points='299.23,114.22 304.46,114.22 ' style='stroke-width: 1.07; stroke-linecap: butt;' />
<polyline points='301.84,114.22 301.84,124.91 ' style='stroke-width: 1.07; stroke-linecap: butt;' />
<polyline points='299.23,124.91 304.46,124.91 ' style='stroke-width: 1.07; stroke-linecap: butt;' />
<polyline points='142.17,113.69 147.41,113.69 ' style='stroke-width: 1.07; stroke-linecap: butt;' />
<polyline points='144.79,113.69 144.79,123.59 ' style='stroke-width: 1.07; stroke-linecap: butt;' />
<polyline points='142.17,123.59 147.41,123.59 ' style='stroke-width: 1.07; stroke-linecap: butt;' />
<polyline points='63.64,112.18 68.88,112.18 ' style='stroke-width: 1.07; stroke-linecap: butt;' />
<polyline points='66.26,112.18 66.26,121.13 ' style='stroke-width: 1.07; stroke-linecap: butt;' />
<polyline points='63.64,121.13 68.88,121.13 ' style='stroke-width: 1.07; stroke-linecap: butt;' />
<polyline points='168.35,112.09 173.58,112.09 ' style='stroke-width: 1.07; stroke-linecap: butt;' />
<polyline points='170.96,112.09 170.96,120.87 ' style='stroke-width: 1.07; stroke-linecap: butt;' />
<polyline points='168.35,120.87 173.58,120.87 ' style='stroke-width: 1.07; stroke-linecap: butt;' />
<polyline points='220.70,104.33 225.93,104.33 ' style='stroke-width: 1.07; stroke-linecap: butt;' />
<polyline points='223.32,104.33 223.32,112.71 ' style='stroke-width: 1.07; stroke-linecap: butt;' />
<polyline points='220.70,112.71 225.93,112.71 ' style='stroke-width: 1.07; stroke-linecap: butt;' />
<polyline points='325.40,113.84 330.64,113.84 ' style='stroke-width: 1.07; stroke-linecap: butt;' />
<polyline points='328.02,113.84 328.02,126.11 ' style='stroke-width: 1.07; stroke-linecap: butt;' />
<polyline points='325.40,126.11 330.64,126.11 ' style='stroke-width: 1.07; stroke-linecap: butt;' />
<polyline points='37.47,101.32 42.70,101.32 ' style='stroke-width: 1.07; stroke-linecap: butt;' />
<polyline points='40.08,101.32 40.08,113.16 ' style='stroke-width: 1.07; stroke-linecap: butt;' />
<polyline points='37.47,113.16 42.70,113.16 ' style='stroke-width: 1.07; stroke-linecap: butt;' />
<polyline points='194.52,112.42 199.76,112.42 ' style='stroke-width: 1.07; stroke-linecap: butt;' />
<polyline points='197.14,112.42 197.14,120.59 ' style='stroke-width: 1.07; stroke-linecap: butt;' />
<polyline points='194.52,120.59 199.76,120.59 ' style='stroke-width: 1.07; stroke-linecap: butt;' />
<polyline points='126.46,130.82 131.70,130.82 ' style='stroke-width: 1.07; stroke-linecap: butt;' />
<polyline points='129.08,130.82 129.08,136.79 ' style='stroke-width: 1.07; stroke-linecap: butt;' />
<polyline points='126.46,136.79 131.70,136.79 ' style='stroke-width: 1.07; stroke-linecap: butt;' />
<polyline points='257.34,139.16 262.58,139.16 ' style='stroke-width: 1.07; stroke-linecap: butt;' />
<polyline points='259.96,139.16 259.96,149.70 ' style='stroke-width: 1.07; stroke-linecap: butt;' />
<polyline points='257.34,149.70 262.58,149.70 ' style='stroke-width: 1.07; stroke-linecap: butt;' />
<polyline points='100.29,109.09 105.52,109.09 ' style='stroke-width: 1.07; stroke-linecap: butt;' />
<polyline points='102.91,109.09 102.91,114.53 ' style='stroke-width: 1.07; stroke-linecap: butt;' />
<polyline points='100.29,114.53 105.52,114.53 ' style='stroke-width: 1.07; stroke-linecap: butt;' />
<polyline points='283.52,129.13 288.76,129.13 ' style='stroke-width: 1.07; stroke-linecap: butt;' />
<polyline points='286.14,129.13 286.14,139.33 ' style='stroke-width: 1.07; stroke-linecap: butt;' />
<polyline points='283.52,139.33 288.76,139.33 ' style='stroke-width: 1.07; stroke-linecap: butt;' />
<polyline points='362.05,122.83 367.28,122.83 ' style='stroke-width: 1.07; stroke-linecap: butt;' />
<polyline points='364.67,122.83 364.67,131.64 ' style='stroke-width: 1.07; stroke-linecap: butt;' />
<polyline points='362.05,131.64 367.28,131.64 ' style='stroke-width: 1.07; stroke-linecap: butt;' />
<polyline points='309.70,120.99 314.93,120.99 ' style='stroke-width: 1.07; stroke-linecap: butt;' />
<polyline points='312.31,120.99 312.31,131.69 ' style='stroke-width: 1.07; stroke-linecap: butt;' />
<polyline points='309.70,131.69 314.93,131.69 ' style='stroke-width: 1.07; stroke-linecap: butt;' />
<polyline points='152.64,134.17 157.88,134.17 ' style='stroke-width: 1.07; stroke-linecap: butt;' />
<polyline points='155.26,134.17 155.26,144.09 ' style='stroke-width: 1.07; stroke-linecap: butt;' />
<polyline points='152.64,144.09 157.88,144.09 ' style='stroke-width: 1.07; stroke-linecap: butt;' />
<polyline points='74.11,176.25 79.35,176.25 ' style='stroke-width: 1.07; stroke-linecap: butt;' />
<polyline points='76.73,176.25 76.73,185.37 ' style='stroke-width: 1.07; stroke-linecap: butt;' />
<polyline points='74.11,185.37 79.35,185.37 ' style='stroke-width: 1.07; stroke-linecap: butt;' />
<polyline points='178.82,104.01 184.05,104.01 ' style='stroke-width: 1.07; stroke-linecap: butt;' />
<polyline points='181.43,104.01 181.43,112.79 ' style='stroke-width: 1.07; stroke-linecap: butt;' />
<polyline points='178.82,112.79 184.05,112.79 ' style='stroke-width: 1.07; stroke-linecap: butt;' />
<polyline points='231.17,104.64 236.40,104.64 ' style='stroke-width: 1.07; stroke-linecap: butt;' />
<polyline points='233.79,104.64 233.79,113.03 ' style='stroke-width: 1.07; stroke-linecap: butt;' />
<polyline points='231.17,113.03 236.40,113.03 ' style='stroke-width: 1.07; stroke-linecap: butt;' />
<polyline points='335.87,114.19 341.11,114.19 ' style='stroke-width: 1.07; stroke-linecap: butt;' />
<polyline points='338.49,114.19 338.49,126.47 ' style='stroke-width: 1.07; stroke-linecap: butt;' />
<polyline points='335.87,126.47 341.11,126.47 ' style='stroke-width: 1.07; stroke-linecap: butt;' />
<polyline points='47.94,109.17 53.17,109.17 ' style='stroke-width: 1.07; stroke-linecap: butt;' />
<polyline points='50.55,109.17 50.55,121.02 ' style='stroke-width: 1.07; stroke-linecap: butt;' />
<polyline points='47.94,121.02 53.17,121.02 ' style='stroke-width: 1.07; stroke-linecap: butt;' />
<polyline points='204.99,123.51 210.23,123.51 ' style='stroke-width: 1.07; stroke-linecap: butt;' />
<polyline points='207.61,123.51 207.61,131.71 ' style='stroke-width: 1.07; stroke-linecap: butt;' />
<polyline points='204.99,131.71 210.23,131.71 ' style='stroke-width: 1.07; stroke-linecap: butt;' />
<text x='118.61' y='122.70' text-anchor='middle' style='font-size: 18.02px; font-family: Arial;' textLength='5.72px' lengthAdjust='spacingAndGlyphs'> </text>
<text x='249.49' y='176.90' text-anchor='middle' style='font-size: 18.02px; font-family: Arial;' textLength='9.01px' lengthAdjust='spacingAndGlyphs'>*</text>
<text x='92.44' y='138.31' text-anchor='middle' style='font-size: 18.02px; font-family: Arial;' textLength='9.01px' lengthAdjust='spacingAndGlyphs'>*</text>
<text x='275.67' y='150.63' text-anchor='middle' style='font-size: 18.02px; font-family: Arial;' textLength='9.01px' lengthAdjust='spacingAndGlyphs'>*</text>
<text x='354.20' y='145.62' text-anchor='middle' style='font-size: 18.02px; font-family: Arial;' textLength='9.01px' lengthAdjust='spacingAndGlyphs'>*</text>
<text x='301.84' y='130.55' text-anchor='middle' style='font-size: 18.02px; font-family: Arial;' textLength='5.72px' lengthAdjust='spacingAndGlyphs'> </text>
<text x='144.79' y='129.23' text-anchor='middle' style='font-size: 18.02px; font-family: Arial;' textLength='5.72px' lengthAdjust='spacingAndGlyphs'> </text>
<text x='66.26' y='126.77' text-anchor='middle' style='font-size: 18.02px; font-family: Arial;' textLength='5.72px' lengthAdjust='spacingAndGlyphs'> </text>
<text x='170.96' y='126.52' text-anchor='middle' style='font-size: 18.02px; font-family: Arial;' textLength='5.72px' lengthAdjust='spacingAndGlyphs'> </text>
<text x='223.32' y='98.69' text-anchor='middle' style='font-size: 18.02px; font-family: Arial;' textLength='5.72px' lengthAdjust='spacingAndGlyphs'> </text>
<text x='328.02' y='131.76' text-anchor='middle' style='font-size: 18.02px; font-family: Arial;' textLength='5.72px' lengthAdjust='spacingAndGlyphs'> </text>
<text x='40.08' y='95.68' text-anchor='middle' style='font-size: 18.02px; font-family: Arial;' textLength='5.72px' lengthAdjust='spacingAndGlyphs'> </text>
<text x='197.14' y='126.24' text-anchor='middle' style='font-size: 18.02px; font-family: Arial;' textLength='5.72px' lengthAdjust='spacingAndGlyphs'> </text>
<text x='129.08' y='151.70' text-anchor='middle' style='font-size: 18.02px; font-family: Arial;' textLength='9.01px' lengthAdjust='spacingAndGlyphs'>*</text>
<text x='259.96' y='164.61' text-anchor='middle' style='font-size: 18.02px; font-family: Arial;' textLength='9.01px' lengthAdjust='spacingAndGlyphs'>*</text>
<text x='102.91' y='103.45' text-anchor='middle' style='font-size: 18.02px; font-family: Arial;' textLength='5.72px' lengthAdjust='spacingAndGlyphs'> </text>
<text x='286.14' y='154.23' text-anchor='middle' style='font-size: 18.02px; font-family: Arial;' textLength='9.01px' lengthAdjust='spacingAndGlyphs'>*</text>
<text x='364.67' y='146.54' text-anchor='middle' style='font-size: 18.02px; font-family: Arial;' textLength='9.01px' lengthAdjust='spacingAndGlyphs'>*</text>
<text x='312.31' y='146.60' text-anchor='middle' style='font-size: 18.02px; font-family: Arial;' textLength='9.01px' lengthAdjust='spacingAndGlyphs'>*</text>
<text x='155.26' y='159.00' text-anchor='middle' style='font-size: 18.02px; font-family: Arial;' textLength='9.01px' lengthAdjust='spacingAndGlyphs'>*</text>
<text x='76.73' y='200.27' text-anchor='middle' style='font-size: 18.02px; font-family: Arial;' textLength='9.01px' lengthAdjust='spacingAndGlyphs'>*</text>
<text x='181.43' y='98.37' text-anchor='middle' style='font-size: 18.02px; font-family: Arial;' textLength='5.72px' lengthAdjust='spacingAndGlyphs'> </text>
<text x='233.79' y='98.99' text-anchor='middle' style='font-size: 18.02px; font-family: Arial;' textLength='5.72px' lengthAdjust='spacingAndGlyphs'> </text>
<text x='338.49' y='132.11' text-anchor='middle' style='font-size: 18.02px; font-family: Arial;' textLength='5.72px' lengthAdjust='spacingAndGlyphs'> </text>
<text x='50.55' y='126.67' text-anchor='middle' style='font-size: 18.02px; font-family: Arial;' textLength='5.72px' lengthAdjust='spacingAndGlyphs'> </text>
<text x='207.61' y='146.61' text-anchor='middle' style='font-size: 18.02px; font-family: Arial;' textLength='9.01px' lengthAdjust='spacingAndGlyphs'>*</text>
</g>
<g clip-path='url(#cpMC4wMHw0NDAuNjR8MC4wMHwyNTkuMjA=)'>
<polyline points='32.23,200.77 32.23,23.32 ' style='stroke-width: 1.07; stroke-linecap: butt;' />
<text x='27.30' y='200.27' text-anchor='end' style='font-size: 8.80px; fill: #4D4D4D; font-family: Arial;' textLength='8.77px' lengthAdjust='spacingAndGlyphs'>-4</text>
<text x='27.30' y='157.76' text-anchor='end' style='font-size: 8.80px; fill: #4D4D4D; font-family: Arial;' textLength='8.77px' lengthAdjust='spacingAndGlyphs'>-2</text>
<text x='27.30' y='115.25' text-anchor='end' style='font-size: 8.80px; fill: #4D4D4D; font-family: Arial;' textLength='5.59px' lengthAdjust='spacingAndGlyphs'>0</text>
<text x='27.30' y='72.74' text-anchor='end' style='font-size: 8.80px; fill: #4D4D4D; font-family: Arial;' textLength='5.59px' lengthAdjust='spacingAndGlyphs'>2</text>
<text x='27.30' y='30.23' text-anchor='end' style='font-size: 8.80px; fill: #4D4D4D; font-family: Arial;' textLength='5.59px' lengthAdjust='spacingAndGlyphs'>4</text>
<polyline points='29.49,197.06 32.23,197.06 ' style='stroke-width: 1.07; stroke: #333333; stroke-linecap: butt;' />
<polyline points='29.49,154.55 32.23,154.55 ' style='stroke-width: 1.07; stroke: #333333; stroke-linecap: butt;' />
<polyline points='29.49,112.04 32.23,112.04 ' style='stroke-width: 1.07; stroke: #333333; stroke-linecap: butt;' />
<polyline points='29.49,69.53 32.23,69.53 ' style='stroke-width: 1.07; stroke: #333333; stroke-linecap: butt;' />
<polyline points='29.49,27.02 32.23,27.02 ' style='stroke-width: 1.07; stroke: #333333; stroke-linecap: butt;' />
<polyline points='32.23,200.77 372.52,200.77 ' style='stroke-width: 1.07; stroke-linecap: butt;' />
<polyline points='45.32,203.51 45.32,200.77 ' style='stroke-width: 1.07; stroke: #333333; stroke-linecap: butt;' />
<polyline points='71.49,203.51 71.49,200.77 ' style='stroke-width: 1.07; stroke: #333333; stroke-linecap: butt;' />
<polyline points='97.67,203.51 97.67,200.77 ' style='stroke-width: 1.07; stroke: #333333; stroke-linecap: butt;' />
<polyline points='123.85,203.51 123.85,200.77 ' style='stroke-width: 1.07; stroke: #333333; stroke-linecap: butt;' />
<polyline points='150.02,203.51 150.02,200.77 ' style='stroke-width: 1.07; stroke: #333333; stroke-linecap: butt;' />
<polyline points='176.20,203.51 176.20,200.77 ' style='stroke-width: 1.07; stroke: #333333; stroke-linecap: butt;' />
<polyline points='202.37,203.51 202.37,200.77 ' style='stroke-width: 1.07; stroke: #333333; stroke-linecap: butt;' />
<polyline points='228.55,203.51 228.55,200.77 ' style='stroke-width: 1.07; stroke: #333333; stroke-linecap: butt;' />
<polyline points='254.73,203.51 254.73,200.77 ' style='stroke-width: 1.07; stroke: #333333; stroke-linecap: butt;' />
<polyline points='280.90,203.51 280.90,200.77 ' style='stroke-width: 1.07; stroke: #333333; stroke-linecap: butt;' />
<polyline points='307.08,203.51 307.08,200.77 ' style='stroke-width: 1.07; stroke: #333333; stroke-linecap: butt;' />
<polyline points='333.26,203.51 333.26,200.77 ' style='stroke-width: 1.07; stroke: #333333; stroke-linecap: butt;' />
<polyline points='359.43,203.51 359.43,200.77 ' style='stroke-width: 1.07; stroke: #333333; stroke-linecap: butt;' />
<text transform='translate(50.23,209.82) rotate(-50)' text-anchor='end' style='font-size: 8.80px; fill: #4D4D4D; font-family: Arial;' textLength='23.12px' lengthAdjust='spacingAndGlyphs'>ATG7</text>
<text transform='translate(76.41,209.82) rotate(-50)' text-anchor='end' style='font-size: 8.80px; fill: #4D4D4D; font-family: Arial;' textLength='24.97px' lengthAdjust='spacingAndGlyphs'>DNA2</text>
<text transform='translate(102.59,209.82) rotate(-50)' text-anchor='end' style='font-size: 8.80px; fill: #4D4D4D; font-family: Arial;' textLength='33.43px' lengthAdjust='spacingAndGlyphs'>DNAJA3</text>
<text transform='translate(128.76,209.82) rotate(-50)' text-anchor='end' style='font-size: 8.80px; fill: #4D4D4D; font-family: Arial;' textLength='19.91px' lengthAdjust='spacingAndGlyphs'>LIG3</text>
<text transform='translate(154.94,209.82) rotate(-50)' text-anchor='end' style='font-size: 8.80px; fill: #4D4D4D; font-family: Arial;' textLength='33.15px' lengthAdjust='spacingAndGlyphs'>MGME1</text>
<text transform='translate(181.11,209.82) rotate(-50)' text-anchor='end' style='font-size: 8.80px; fill: #4D4D4D; font-family: Arial;' textLength='23.95px' lengthAdjust='spacingAndGlyphs'>POLG</text>
<text transform='translate(207.29,209.82) rotate(-50)' text-anchor='end' style='font-size: 8.80px; fill: #4D4D4D; font-family: Arial;' textLength='29.55px' lengthAdjust='spacingAndGlyphs'>POLG2</text>
<text transform='translate(233.47,209.82) rotate(-50)' text-anchor='end' style='font-size: 8.80px; fill: #4D4D4D; font-family: Arial;' textLength='38.74px' lengthAdjust='spacingAndGlyphs'>PRIMPOL</text>
<text transform='translate(259.64,209.82) rotate(-50)' text-anchor='end' style='font-size: 8.80px; fill: #4D4D4D; font-family: Arial;' textLength='31.44px' lengthAdjust='spacingAndGlyphs'>RRM2B</text>
<text transform='translate(285.82,209.82) rotate(-50)' text-anchor='end' style='font-size: 8.80px; fill: #4D4D4D; font-family: Arial;' textLength='28.11px' lengthAdjust='spacingAndGlyphs'>SSBP1</text>
<text transform='translate(311.99,209.82) rotate(-50)' text-anchor='end' style='font-size: 8.80px; fill: #4D4D4D; font-family: Arial;' textLength='23.23px' lengthAdjust='spacingAndGlyphs'>TFAM</text>
<text transform='translate(338.17,209.82) rotate(-50)' text-anchor='end' style='font-size: 8.80px; fill: #4D4D4D; font-family: Arial;' textLength='35.97px' lengthAdjust='spacingAndGlyphs'>STOML2</text>
<text transform='translate(364.35,209.82) rotate(-50)' text-anchor='end' style='font-size: 8.80px; fill: #4D4D4D; font-family: Arial;' textLength='26.42px' lengthAdjust='spacingAndGlyphs'>TWNK</text>
<text transform='translate(13.50,112.04) rotate(-90)' text-anchor='middle' style='font-size: 11.00px; font-family: Arial;' textLength='174.11px' lengthAdjust='spacingAndGlyphs'>log2 Fold Change relative to D0</text>
<rect x='383.48' y='81.39' width='51.68' height='61.31' style='stroke-width: 1.07; stroke: none; fill: #FFFFFF;' />
<text x='388.96' y='96.03' style='font-size: 11.00px; font-family: Arial;' textLength='20.23px' lengthAdjust='spacingAndGlyphs'>day</text>
<rect x='389.67' y='103.37' width='15.86' height='15.86' style='stroke-width: 1.07; stroke: none; stroke-linecap: square; stroke-linejoin: miter; fill: #FFADD9;' />
<rect x='389.67' y='120.65' width='15.86' height='15.86' style='stroke-width: 1.07; stroke: none; stroke-linecap: square; stroke-linejoin: miter; fill: #7C1E5B;' />
<text x='411.72' y='114.51' style='font-size: 8.80px; font-family: Arial;' textLength='12.37px' lengthAdjust='spacingAndGlyphs'>D5</text>
<text x='411.72' y='131.79' style='font-size: 8.80px; font-family: Arial;' textLength='17.96px' lengthAdjust='spacingAndGlyphs'>D15</text>
<text x='32.23' y='15.10' style='font-size: 13.20px; font-family: Arial;' textLength='198.57px' lengthAdjust='spacingAndGlyphs'>mitochondrial_dna_replication</text>
</g>
</svg>
