<?xml version='1.0' encoding='UTF-8' ?>
<svg xmlns='http://www.w3.org/2000/svg' xmlns:xlink='http://www.w3.org/1999/xlink' viewBox='0 0 172.80 259.20'>
<defs>
  <style type='text/css'><![CDATA[
    line, polyline, polygon, path, rect, circle {
      fill: none;
      stroke: #000000;
      stroke-linecap: round;
      stroke-linejoin: round;
      stroke-miterlimit: 10.00;
    }
  ]]></style>
</defs>
<rect width='100%' height='100%' style='stroke: none; fill: #FFFFFF;'/>
<rect x='0.00' y='0.00' width='172.80' height='259.20' style='stroke-width: 1.07; stroke: #FFFFFF; fill: #FFFFFF;' />
<defs>
  <clipPath id='cpNDAuNDd8MTExLjM5fDIwMi45MXwyMy4xOQ=='>
    <rect x='40.47' y='23.19' width='70.93' height='179.72' />
  </clipPath>
</defs>
<rect x='40.47' y='23.19' width='70.93' height='179.72' style='stroke-width: 1.07; stroke: none; fill: #FFFFFF;' clip-path='url(#cpNDAuNDd8MTExLjM5fDIwMi45MXwyMy4xOQ==)' />
<line x1='40.47' y1='36.90' x2='111.39' y2='36.90' style='stroke-width: 1.07; stroke: #333333; stroke-dasharray: 5.69,5.69; stroke-linecap: butt;' clip-path='url(#cpNDAuNDd8MTExLjM5fDIwMi45MXwyMy4xOQ==)' />
<rect x='42.24' y='185.10' width='14.19' height='17.81' style='stroke-width: 1.07; stroke: none; stroke-linecap: square; stroke-linejoin: miter; fill: #B07E18;' clip-path='url(#cpNDAuNDd8MTExLjM5fDIwMi45MXwyMy4xOQ==)' />
<rect x='59.97' y='62.71' width='14.19' height='140.20' style='stroke-width: 1.07; stroke: none; stroke-linecap: square; stroke-linejoin: miter; fill: #B07E18;' clip-path='url(#cpNDAuNDd8MTExLjM5fDIwMi45MXwyMy4xOQ==)' />
<rect x='77.70' y='201.86' width='14.19' height='1.04' style='stroke-width: 1.07; stroke: none; stroke-linecap: square; stroke-linejoin: miter; fill: #B07E18;' clip-path='url(#cpNDAuNDd8MTExLjM5fDIwMi45MXwyMy4xOQ==)' />
<rect x='95.44' y='198.86' width='14.19' height='4.04' style='stroke-width: 1.07; stroke: none; stroke-linecap: square; stroke-linejoin: miter; fill: #B07E18;' clip-path='url(#cpNDAuNDd8MTExLjM5fDIwMi45MXwyMy4xOQ==)' />
<polyline points='44.90,180.51 53.77,180.51 ' style='stroke-width: 1.07; stroke-linecap: butt;' clip-path='url(#cpNDAuNDd8MTExLjM5fDIwMi45MXwyMy4xOQ==)' />
<polyline points='49.33,180.51 49.33,189.69 ' style='stroke-width: 1.07; stroke-linecap: butt;' clip-path='url(#cpNDAuNDd8MTExLjM5fDIwMi45MXwyMy4xOQ==)' />
<polyline points='44.90,189.69 53.77,189.69 ' style='stroke-width: 1.07; stroke-linecap: butt;' clip-path='url(#cpNDAuNDd8MTExLjM5fDIwMi45MXwyMy4xOQ==)' />
<polyline points='62.63,23.19 71.50,23.19 ' style='stroke-width: 1.07; stroke-linecap: butt;' clip-path='url(#cpNDAuNDd8MTExLjM5fDIwMi45MXwyMy4xOQ==)' />
<polyline points='67.06,23.19 67.06,102.23 ' style='stroke-width: 1.07; stroke-linecap: butt;' clip-path='url(#cpNDAuNDd8MTExLjM5fDIwMi45MXwyMy4xOQ==)' />
<polyline points='62.63,102.23 71.50,102.23 ' style='stroke-width: 1.07; stroke-linecap: butt;' clip-path='url(#cpNDAuNDd8MTExLjM5fDIwMi45MXwyMy4xOQ==)' />
<polyline points='80.36,201.48 89.23,201.48 ' style='stroke-width: 1.07; stroke-linecap: butt;' clip-path='url(#cpNDAuNDd8MTExLjM5fDIwMi45MXwyMy4xOQ==)' />
<polyline points='84.80,201.48 84.80,202.24 ' style='stroke-width: 1.07; stroke-linecap: butt;' clip-path='url(#cpNDAuNDd8MTExLjM5fDIwMi45MXwyMy4xOQ==)' />
<polyline points='80.36,202.24 89.23,202.24 ' style='stroke-width: 1.07; stroke-linecap: butt;' clip-path='url(#cpNDAuNDd8MTExLjM5fDIwMi45MXwyMy4xOQ==)' />
<polyline points='98.10,196.78 106.96,196.78 ' style='stroke-width: 1.07; stroke-linecap: butt;' clip-path='url(#cpNDAuNDd8MTExLjM5fDIwMi45MXwyMy4xOQ==)' />
<polyline points='102.53,196.78 102.53,200.94 ' style='stroke-width: 1.07; stroke-linecap: butt;' clip-path='url(#cpNDAuNDd8MTExLjM5fDIwMi45MXwyMy4xOQ==)' />
<polyline points='98.10,200.94 106.96,200.94 ' style='stroke-width: 1.07; stroke-linecap: butt;' clip-path='url(#cpNDAuNDd8MTExLjM5fDIwMi45MXwyMy4xOQ==)' />
<defs>
  <clipPath id='cpMC4wMHwxNzIuODB8MjU5LjIwfDAuMDA='>
    <rect x='0.00' y='0.00' width='172.80' height='259.20' />
  </clipPath>
</defs>
<polyline points='40.47,202.91 40.47,23.19 ' style='stroke-width: 1.07; stroke-linecap: butt;' clip-path='url(#cpMC4wMHwxNzIuODB8MjU5LjIwfDAuMDA=)' />
<g clip-path='url(#cpMC4wMHwxNzIuODB8MjU5LjIwfDAuMDA=)'><text x='18.41' y='206.06' style='font-size: 8.80px; fill: #4D4D4D; font-family: Arial;' textLength='17.13px' lengthAdjust='spacingAndGlyphs'>0.00</text></g>
<g clip-path='url(#cpMC4wMHwxNzIuODB8MjU5LjIwfDAuMDA=)'><text x='18.41' y='164.55' style='font-size: 8.80px; fill: #4D4D4D; font-family: Arial;' textLength='17.13px' lengthAdjust='spacingAndGlyphs'>0.25</text></g>
<g clip-path='url(#cpMC4wMHwxNzIuODB8MjU5LjIwfDAuMDA=)'><text x='18.41' y='123.05' style='font-size: 8.80px; fill: #4D4D4D; font-family: Arial;' textLength='17.13px' lengthAdjust='spacingAndGlyphs'>0.50</text></g>
<g clip-path='url(#cpMC4wMHwxNzIuODB8MjU5LjIwfDAuMDA=)'><text x='18.41' y='81.55' style='font-size: 8.80px; fill: #4D4D4D; font-family: Arial;' textLength='17.13px' lengthAdjust='spacingAndGlyphs'>0.75</text></g>
<g clip-path='url(#cpMC4wMHwxNzIuODB8MjU5LjIwfDAuMDA=)'><text x='18.41' y='40.05' style='font-size: 8.80px; fill: #4D4D4D; font-family: Arial;' textLength='17.13px' lengthAdjust='spacingAndGlyphs'>1.00</text></g>
<polyline points='37.73,202.91 40.47,202.91 ' style='stroke-width: 1.07; stroke: #333333; stroke-linecap: butt;' clip-path='url(#cpMC4wMHwxNzIuODB8MjU5LjIwfDAuMDA=)' />
<polyline points='37.73,161.40 40.47,161.40 ' style='stroke-width: 1.07; stroke: #333333; stroke-linecap: butt;' clip-path='url(#cpMC4wMHwxNzIuODB8MjU5LjIwfDAuMDA=)' />
<polyline points='37.73,119.90 40.47,119.90 ' style='stroke-width: 1.07; stroke: #333333; stroke-linecap: butt;' clip-path='url(#cpMC4wMHwxNzIuODB8MjU5LjIwfDAuMDA=)' />
<polyline points='37.73,78.40 40.47,78.40 ' style='stroke-width: 1.07; stroke: #333333; stroke-linecap: butt;' clip-path='url(#cpMC4wMHwxNzIuODB8MjU5LjIwfDAuMDA=)' />
<polyline points='37.73,36.90 40.47,36.90 ' style='stroke-width: 1.07; stroke: #333333; stroke-linecap: butt;' clip-path='url(#cpMC4wMHwxNzIuODB8MjU5LjIwfDAuMDA=)' />
<polyline points='40.47,202.91 111.39,202.91 ' style='stroke-width: 1.07; stroke-linecap: butt;' clip-path='url(#cpMC4wMHwxNzIuODB8MjU5LjIwfDAuMDA=)' />
<polyline points='49.33,205.65 49.33,202.91 ' style='stroke-width: 1.07; stroke: #333333; stroke-linecap: butt;' clip-path='url(#cpMC4wMHwxNzIuODB8MjU5LjIwfDAuMDA=)' />
<polyline points='67.06,205.65 67.06,202.91 ' style='stroke-width: 1.07; stroke: #333333; stroke-linecap: butt;' clip-path='url(#cpMC4wMHwxNzIuODB8MjU5LjIwfDAuMDA=)' />
<polyline points='84.80,205.65 84.80,202.91 ' style='stroke-width: 1.07; stroke: #333333; stroke-linecap: butt;' clip-path='url(#cpMC4wMHwxNzIuODB8MjU5LjIwfDAuMDA=)' />
<polyline points='102.53,205.65 102.53,202.91 ' style='stroke-width: 1.07; stroke: #333333; stroke-linecap: butt;' clip-path='url(#cpMC4wMHwxNzIuODB8MjU5LjIwfDAuMDA=)' />
<g clip-path='url(#cpMC4wMHwxNzIuODB8MjU5LjIwfDAuMDA=)'><text transform='translate(30.90,239.60) rotate(-50)' style='font-size: 8.80px; fill: #4D4D4D; font-family: Arial;' textLength='36.18px' lengthAdjust='spacingAndGlyphs'>DNMT3B</text></g>
<g clip-path='url(#cpMC4wMHwxNzIuODB8MjU5LjIwfDAuMDA=)'><text transform='translate(53.02,234.37) rotate(-50)' style='font-size: 8.80px; fill: #4D4D4D; font-family: Arial;' textLength='29.35px' lengthAdjust='spacingAndGlyphs'>LIN28A</text></g>
<g clip-path='url(#cpMC4wMHwxNzIuODB8MjU5LjIwfDAuMDA=)'><text transform='translate(68.88,236.61) rotate(-50)' style='font-size: 8.80px; fill: #4D4D4D; font-family: Arial;' textLength='32.27px' lengthAdjust='spacingAndGlyphs'>NANOG</text></g>
<g clip-path='url(#cpMC4wMHwxNzIuODB8MjU5LjIwfDAuMDA=)'><text transform='translate(85.35,238.11) rotate(-50)' style='font-size: 8.80px; fill: #4D4D4D; font-family: Arial;' textLength='34.23px' lengthAdjust='spacingAndGlyphs'>POU5F1</text></g>
<g clip-path='url(#cpMC4wMHwxNzIuODB8MjU5LjIwfDAuMDA=)'><text transform='translate(13.35,158.59) rotate(-90)' style='font-size: 11.00px; font-family: Arial;' textLength='91.08px' lengthAdjust='spacingAndGlyphs'>TPM relative to D0</text></g>
<rect x='122.35' y='91.09' width='44.97' height='43.91' style='stroke-width: 1.07; stroke: none; fill: #FFFFFF;' clip-path='url(#cpMC4wMHwxNzIuODB8MjU5LjIwfDAuMDA=)' />
<g clip-path='url(#cpMC4wMHwxNzIuODB8MjU5LjIwfDAuMDA=)'><text x='127.83' y='105.60' style='font-size: 11.00px; font-family: Arial;' textLength='17.74px' lengthAdjust='spacingAndGlyphs'>day</text></g>
<rect x='128.54' y='112.95' width='15.86' height='15.86' style='stroke-width: 1.07; stroke: none; stroke-linecap: square; stroke-linejoin: miter; fill: #B07E18;' clip-path='url(#cpMC4wMHwxNzIuODB8MjU5LjIwfDAuMDA=)' />
<g clip-path='url(#cpMC4wMHwxNzIuODB8MjU5LjIwfDAuMDA=)'><text x='150.59' y='124.03' style='font-size: 8.80px; font-family: Arial;' textLength='11.25px' lengthAdjust='spacingAndGlyphs'>D7</text></g>
<g clip-path='url(#cpMC4wMHwxNzIuODB8MjU5LjIwfDAuMDA=)'><text x='40.47' y='14.93' style='font-size: 13.20px; font-family: Arial;' textLength='124.74px' lengthAdjust='spacingAndGlyphs'>pluripotent_stem_cell</text></g>
</svg>
