sample_id,day,cell_line,individual,RIN
1_15S784_S1,0,13L05,hESC_Ctrl,9.8
2_15S872_S6,0,13L05,hESC_Ctrl,10
3_15S952_S11,0,13L05,hESC_Ctrl,8.9
4_15S977_S16,7,13L05,hESC_Ctrl,9.7
5_15S1104_S21,7,13L05,hESC_Ctrl,9.1
6_15S1160_S26,7,13L05,hESC_Ctrl,9.3
7_15S792_S31,0,13L06,hESC_Ctrl,10
8_15S865_S36,0,13L06,hESC_Ctrl,10
9_15S945_S2,0,13L06,hESC_Ctrl,10
10_15S984_S7,7,13L06,hESC_Ctrl,10
11_15S1096_S12,7,13L06,hESC_Ctrl,10
12_15S1152_S17,7,13L06,hESC_Ctrl,9.4
13_15S1416_S22,0,13L25,hiPSC_Ctrl,9.2
14_15S1468_S27,0,13L25,hiPSC_Ctrl,9.8
15_15S1564_S32,7,13L25,hiPSC_Ctrl,8
16_15S1612_S37,7,13L25,hiPSC_Ctrl,8.1
17_15S554_S3,0,14L06,hiPSC_Ctrl,10
18_15S586_S8,7,14L06,hiPSC_Ctrl,9.1
19_15S1425_S13,0,13L20,hiPSC_Ctrl,10
20_15S1477_S18,0,13L20,hiPSC_Ctrl,9.8
21_15S1573_S23,7,13L20,hiPSC_Ctrl,9.2
22_15S1622_S28,7,13L20,hiPSC_Ctrl,7.8
